timestamp,x,y,z
0,-0.11,-0.05,9.53
1,-0.10,-0.04,-323.29
2,-0.12,-0.07,9.53
3,-0.12,-0.06,9.53
4,-0.12,-0.05,9.55
5,-0.13,-0.01,-0.01
6,-0.13,-0.07,9.53
7,-0.11,-0.05,9.53
8,-0.11,-0.06,9.52
9,-0.12,-0.03,9.56
10,-0.06,-0.01,-0.01
11,-0.13,-0.02,-0.01
12,-0.11,-0.05,9.56
13,-0.11,-0.04,9.53
14,-0.11,-0.06,9.52
15,-0.12,-0.03,-0.01
16,-0.11,-0.04,9.53
17,-0.10,-0.05,9.52
18,-0.11,-0.05,9.49
19,-0.11,-0.01,-0.01
20,-0.11,-0.05,9.57
21,-0.06,-0.01,-0.01
22,-0.11,-0.04,9.54
23,-0.09,-0.06,9.51
24,-0.13,-0.07,9.55
25,-0.11,-0.03,-0.01
26,-0.12,-0.04,9.55
27,-163.90,-0.01,-0.01
28,-0.12,-0.03,-0.01
29,-0.11,-0.06,9.51
30,-0.11,-0.02,-0.01
31,-0.10,-0.04,9.51
32,-0.13,-0.02,9.50
33,-0.11,-0.05,-0.37
34,-0.10,-0.04,9.50
35,-0.10,-0.05,9.52
36,-0.10,-0.05,9.54
37,-0.11,-0.04,9.56
38,-0.10,-0.06,9.51
39,-0.12,-0.04,9.51
40,-0.12,-0.04,9.56
41,-0.07,-0.01,-0.01
42,-0.06,-0.01,-0.01
43,-0.13,-0.07,9.50
44,-0.11,-0.05,9.55
45,-0.11,-0.05,-0.01
46,-0.11,-0.03,-0.01
47,-0.12,-0.06,9.52
48,-0.11,-0.04,9.51
49,-0.09,-0.04,9.52
50,-0.11,-0.07,9.51
51,-0.12,-0.06,4.40
52,-0.11,-0.05,9.50
53,-0.11,-0.05,9.53
54,-0.12,-0.05,-0.35
55,-0.12,-0.05,9.55
56,-0.10,-0.05,9.55
57,-0.11,-0.06,-0.36
58,-0.11,-0.07,9.55
59,-0.10,-0.03,-323.27
60,-0.12,-0.05,-0.34
61,-0.12,-0.06,9.53
62,-0.11,-0.03,9.52
63,-0.06,-0.01,-0.01
64,-0.11,-0.05,9.51
65,-0.13,-0.08,9.53
66,-0.10,-0.04,9.53
67,-0.13,-0.06,9.51
68,-0.12,-0.03,-0.01
69,-0.12,-0.07,9.52
70,-0.10,-0.05,4.40
71,-0.12,-0.06,-0.36
72,-0.11,-0.06,9.54
73,-0.11,-0.04,9.54
74,-0.10,-0.05,-0.36
75,-0.13,-0.05,9.54
76,-0.11,-0.05,9.55
77,327.56,-0.01,-0.01
78,-0.12,-0.05,9.54
79,-0.11,-0.04,9.53
80,-0.11,-0.05,9.52
81,-0.11,-0.06,-0.37
82,-0.06,-0.01,-0.01
83,-0.11,-0.06,9.53
84,-1.34,-0.01,-0.01
85,-0.11,-0.06,9.51
86,-0.11,-0.06,9.51
87,-0.12,-0.03,-0.01
88,-0.12,-0.04,9.54
89,-0.11,-0.05,-0.01
90,-0.12,-0.05,9.55
91,-0.11,-0.07,9.55
92,-0.09,-0.04,9.51
93,-0.09,-0.01,-0.01
94,-0.01,-0.01,-0.01
95,-0.11,-0.03,9.52
96,-0.11,-0.04,9.54
97,-0.06,-0.01,-0.01
98,-0.12,-0.05,-0.36
99,-0.11,-0.01,-0.01
100,-0.06,-0.01,-0.01
101,-0.13,-0.06,9.54
102,-0.10,-0.03,9.52
103,-0.11,-0.06,9.52
104,-0.11,-0.03,9.53
105,-0.12,-0.06,9.53
106,-0.11,-0.05,9.54
107,-0.13,-0.03,9.54
108,-0.11,-0.04,9.52
109,-0.11,-0.04,9.55
110,-0.13,-0.06,9.52
111,-0.10,-0.05,9.54
112,-0.12,-0.08,9.53
113,-0.11,-0.05,9.53
114,-0.11,-0.07,9.53
115,-0.11,-0.04,9.52
116,-0.13,-0.06,-0.35
117,-0.11,-0.06,4.36
118,-0.12,-0.05,9.52
119,-0.05,-0.01,-0.01
120,-0.12,-0.06,9.54
121,-0.11,-0.04,9.54
122,-0.01,-0.01,-0.01
123,-0.01,-0.01,-0.01
124,-0.11,-0.06,9.53
125,-0.11,-0.03,-323.27
126,-0.11,-0.07,-0.36
127,-0.13,-0.05,-0.36
128,327.62,-0.01,-0.01
129,-0.10,-0.05,9.51
130,-0.11,-0.07,9.52
131,-0.11,-0.05,9.53
132,-0.11,-0.06,4.40
133,-0.11,327.64,-0.01
134,-0.06,-0.01,-0.01
135,-0.11,-0.06,9.53
136,-0.13,-0.06,9.50
137,-0.10,-0.06,9.52
138,-0.11,-0.05,-323.27
139,-0.11,-0.05,9.54
140,-0.13,-0.05,9.53
141,-0.11,-0.06,9.53
142,-0.12,-0.05,9.53
143,-0.11,-0.04,4.42
144,-0.01,-0.01,-0.01
145,-0.11,-0.04,9.54
146,-0.11,-0.07,-323.29
147,-0.06,-0.01,-0.01
148,-0.11,-0.04,9.50
149,-0.06,-0.01,-0.01
150,-0.11,-0.03,9.53
151,-0.12,-0.05,9.53
152,-0.11,-0.06,9.54
153,-0.10,-0.05,9.53
154,-0.11,-0.07,9.53
155,-0.12,-0.04,-323.27
156,-0.13,-0.05,9.53
157,-0.11,-0.05,9.52
158,-0.11,-0.04,9.54
159,-0.11,-0.05,327.59
160,-0.13,-0.03,9.53
161,-0.10,-0.06,9.53
162,-0.13,-0.07,9.51
163,-0.10,-0.05,9.51
164,-0.11,-0.05,9.52
165,-0.15,-0.06,9.55
166,-0.10,-0.05,-323.29
167,-0.13,-0.06,9.53
168,-0.11,327.64,-0.01
169,-0.12,-0.03,9.50
170,-0.10,-0.04,9.54
171,-0.11,-0.05,9.54
172,-0.14,-0.04,9.55
173,-0.11,-0.07,9.54
174,-0.11,-0.02,9.51
175,-0.11,-0.07,-0.36
176,-0.11,-0.04,9.52
177,-0.12,-0.03,4.38
178,-0.01,-0.01,-0.01
179,-0.12,-0.05,-0.36
180,-0.09,-0.05,9.52
181,-0.11,-0.05,9.54
182,-0.11,-0.04,9.53
183,-0.12,-0.04,-0.35
184,-0.11,-0.06,9.51
185,-0.11,-0.05,9.54
186,-0.11,-0.09,9.55
187,-0.11,-0.03,4.38
188,-1.34,-0.01,-0.01
189,-0.11,-0.04,-0.35
190,-0.10,-0.08,-0.36
191,-0.11,-0.05,9.52
192,-0.12,-0.07,9.55
193,-0.12,-0.01,-0.01
194,-0.11,-0.04,-323.29
195,-0.11,-0.06,9.54
196,-0.01,-0.01,-0.01
197,-0.01,-0.01,-0.01
198,-0.12,-0.03,-0.01
199,-0.13,-0.07,9.52
200,-0.12,-0.05,9.51
201,-0.12,-0.05,-323.25
202,-0.10,-0.07,-0.37
203,-0.10,-0.04,9.51
204,-0.11,-0.05,9.56
205,-0.11,-0.06,9.52
206,-0.11,-0.06,9.51
207,-0.11,-0.06,-0.35
208,-0.01,-0.01,-0.01
209,-0.11,-0.04,9.53
210,-0.15,-0.03,9.53
211,-0.12,-0.05,-0.01
212,-0.11,-0.01,-0.01
213,-0.11,-0.07,9.53
214,-0.11,-0.07,-0.01
215,327.58,-0.01,-0.01
216,-0.11,-0.06,-323.25
217,-0.11,-0.05,9.52
218,-0.12,-0.06,9.53
219,-0.06,-0.01,-0.01
220,-0.11,-0.06,9.49
221,-0.12,-0.04,9.54
222,-0.01,-0.01,-0.01
223,-0.06,-0.01,-0.01
224,-0.12,-0.04,9.54
225,-0.11,-0.05,9.52
226,-0.11,-0.06,327.32
227,-0.13,-0.04,9.52
228,-0.11,-0.05,9.54
229,-0.10,-0.02,9.52
230,-0.11,-0.05,9.54
231,-0.10,-0.03,-0.01
232,-0.11,-0.05,9.52
233,-0.12,-0.05,9.54
234,-0.11,-0.07,9.53
235,-0.12,-0.05,9.57
236,-0.12,-0.06,9.53
237,-0.10,-0.05,9.52
238,-0.13,-0.04,9.51
239,-0.12,-0.03,9.54
240,-0.11,-0.04,9.52
241,-2.57,-174.09,174.11
242,-0.12,-0.05,9.53
243,-0.12,-0.04,9.53
244,-0.12,-0.05,9.53
245,-0.12,-0.03,-0.01
246,-0.11,-0.07,-323.25
247,-0.14,-0.04,9.53
248,-0.09,-0.05,-0.01
249,-0.11,-0.06,9.54
250,-0.12,-0.04,4.42
251,-0.12,327.64,-0.01
252,-0.12,-0.05,9.53
253,-0.13,-0.02,9.52
254,-0.07,-0.01,-0.01
255,-0.13,-0.06,9.54
256,-0.11,-0.05,9.54
257,-0.01,-0.01,-0.01
258,-0.06,-0.01,-0.01
259,-0.07,-0.01,-0.01
260,-0.13,327.62,-0.01
261,-0.12,-0.03,-0.01
262,-0.11,-0.05,9.53
263,-0.10,-0.04,9.53
264,-0.12,-0.04,327.32
265,-0.12,-0.07,9.54
266,-0.12,-0.05,9.55
267,-0.11,-0.03,9.50
268,-0.11,-0.05,9.55
269,-0.11,-0.04,9.53
270,-0.14,-0.05,9.54
271,-0.11,-0.03,-0.01
272,-0.11,-0.08,9.50
273,-0.11,-0.04,9.58
274,-0.10,-0.04,9.52
275,-0.13,-0.01,-0.01
276,-0.11,-0.04,9.52
277,-0.10,-0.06,9.53
278,-0.12,-0.04,9.52
279,-0.12,-0.06,-323.29
280,-0.10,-0.05,9.54
281,-0.10,-0.04,9.54
282,-0.13,-0.04,9.54
283,-0.11,-0.03,-323.25
284,-0.11,-0.06,-161.97
285,-0.06,-0.01,-0.01
286,-0.11,-0.05,9.54
287,-0.11,-0.05,9.55
288,-0.11,-0.05,-323.23
289,-0.07,-0.01,-0.01
290,-0.01,-0.01,-0.01
291,-0.13,-0.06,-323.27
292,-0.12,-0.05,9.52
293,-0.13,-0.04,9.57
294,-0.11,-0.04,9.52
295,-0.11,-0.05,9.53
296,-0.11,-0.04,9.55
297,-0.10,-0.04,9.52
298,-0.06,-0.01,-0.01
299,-0.12,-0.07,9.53
300,-0.11,-0.04,9.53
301,-0.15,-0.05,9.54
302,-0.13,-0.02,-0.01
303,-0.10,-0.05,4.44
304,-0.11,-0.06,9.56
305,-0.11,-0.01,-0.01
306,-0.13,-0.06,9.53
307,-0.05,-0.01,-0.01
308,-0.11,-0.06,9.54
309,-0.11,-0.03,9.54
310,-0.10,-0.05,-0.36
311,-0.12,-0.06,9.55
312,-0.11,-0.02,-0.01
313,-0.10,-0.05,9.53
314,-0.11,-0.02,-0.01
315,-1.34,-0.01,-0.01
316,-0.10,-0.04,9.54
317,-0.12,-0.04,-323.27
318,-0.11,-0.07,9.54
319,-0.11,-0.04,9.53
320,-0.11,-0.05,-0.35
321,-0.11,-0.06,9.51
322,-1.35,-0.01,-0.01
323,-0.11,-0.05,-0.36
324,-0.12,-0.02,-0.36
325,-0.13,-0.06,9.53
326,-0.06,-0.01,-0.01
327,-0.10,-0.04,4.42
328,-0.12,-0.02,-0.01
329,-1.33,-0.01,-0.01
330,-0.06,-0.01,-0.01
331,-0.12,-0.04,9.52
332,-0.11,-0.02,-0.01
333,-0.11,-0.01,-0.01
334,-0.11,-0.03,9.54
335,-0.11,-0.08,9.55
336,-0.12,-0.06,9.54
337,-0.12,-0.04,4.42
338,-0.09,-0.05,9.53
339,-0.12,-0.04,9.52
340,-0.12,-0.06,9.50
341,-0.12,-0.04,9.57
342,-0.12,-0.05,9.56
343,-0.12,-0.04,-323.27
344,-0.11,-0.06,9.53
345,-0.11,-0.07,-0.35
346,-0.15,-0.05,9.55
347,-0.11,-0.05,4.42
348,-0.12,-0.06,9.52
349,-0.10,327.62,-0.01
350,-0.11,-0.06,9.53
351,-0.12,-0.05,9.54
352,-0.11,-0.04,9.52
353,-0.01,-0.01,-0.01
354,-0.06,-0.01,-0.01
355,-0.12,-0.05,9.53
356,-0.11,-0.05,9.54
357,327.62,-0.01,-0.01
358,-0.10,-0.04,9.54
359,-0.12,-0.04,9.53
360,-0.14,-0.05,-323.25
361,-0.06,-0.01,-0.01
362,-0.11,-0.06,-323.27
363,-0.12,-0.07,-0.34
364,-0.12,-0.04,9.53
365,-0.11,-0.07,9.52
366,-0.12,-0.06,9.53
367,-0.12,-0.07,9.54
368,-0.10,-0.07,9.55
369,-1.34,-0.01,-0.01
370,-0.12,-0.04,9.52
371,-0.12,-0.04,9.53
372,-0.11,-0.03,-0.01
373,-0.12,-0.04,9.53
374,-0.10,-0.02,9.53
375,-0.12,-0.07,9.53
376,-0.12,-0.03,-323.27
377,-0.11,-0.06,9.55
378,-0.10,-0.05,9.52
379,-0.10,-0.07,9.52
380,-0.11,-0.07,9.53
381,-0.13,-0.06,-0.36
382,-0.11,-0.05,9.52
383,-0.10,-0.06,9.52
384,-0.11,-0.05,9.51
385,-0.12,-0.04,9.54
386,-0.01,-0.01,-0.01
387,-0.10,-0.06,-323.27
388,-0.11,-0.04,9.54
389,-0.11,-0.05,9.55
390,-0.12,-0.06,9.55
391,-0.11,-0.05,9.55
392,-0.11,-0.05,9.52
393,-0.11,327.64,-0.01
394,-0.11,-0.05,9.56
395,-0.06,-0.01,-0.01
396,-0.13,-0.05,9.56
397,-0.11,-0.02,9.53
398,-0.09,-0.06,9.56
399,-0.12,-0.06,-0.35
400,-0.12,-0.04,9.56
401,-0.12,-0.06,9.55
402,-0.11,-0.03,9.50
403,-0.10,-0.05,9.53
404,-0.12,-0.05,9.54
405,-0.07,-0.01,-0.01
406,-0.11,-0.06,9.54
407,-0.11,-0.05,9.52
408,-0.12,-0.06,9.53
409,-0.05,-0.01,-0.01
410,-0.12,-0.05,9.55
411,-0.12,-0.04,9.56
412,-0.11,-0.06,9.53
413,-0.09,-0.02,-0.01
414,-0.11,-0.06,9.51
415,-0.11,-0.06,9.50
416,-0.11,-0.04,9.53
417,-0.11,-0.05,9.53
418,-0.11,-0.04,9.53
419,-0.12,-0.03,9.56
420,-0.11,-0.04,-323.29
421,-0.12,-0.05,9.54
422,-0.11,-0.04,9.55
423,-0.11,-0.05,-323.27
424,-0.11,-0.01,-0.01
425,-0.10,-0.05,9.55
426,-0.11,-0.02,-0.01
427,-0.11,-0.05,9.53
428,-0.11,-0.05,9.55
429,-0.11,-0.05,-0.36
430,-0.12,-0.03,9.54
431,-0.06,-0.01,-0.01
432,-0.10,-0.05,-323.27
433,-0.12,-0.04,-0.36
434,-0.12,-0.05,-323.25
435,-0.10,-0.05,9.53
436,-0.12,-0.04,9.52
437,-0.10,-0.03,9.53
438,-0.11,-0.05,9.53
439,-0.12,-0.03,9.53
440,-0.11,-0.01,-0.01
441,-0.12,-0.06,4.40
442,-0.12,-0.07,9.53
443,-0.11,-0.06,9.54
444,-0.11,-0.05,9.53
445,-0.10,-0.04,9.53
446,-0.12,-0.04,9.53
447,-0.11,-0.07,9.54
448,-0.11,-0.06,-161.97
449,-0.12,-0.03,-0.01
450,-0.11,-0.08,-323.25
451,-0.12,-0.04,4.42
452,-0.11,-0.05,9.55
453,-0.06,-0.01,-0.01
454,-0.12,-0.05,-0.01
455,-0.09,-0.05,-323.27
456,-0.11,-0.07,-0.35
457,-0.13,-0.04,4.42
458,-0.11,-0.05,9.52
459,-0.11,-0.01,-0.01
460,-1.34,-0.01,-0.01
461,-0.10,-0.07,9.54
462,-0.11,-0.03,9.53
463,-0.12,-0.05,9.55
464,-0.11,-0.04,9.52
465,-0.13,-0.04,-0.01
466,-0.13,-0.05,9.56
467,-0.06,-0.01,-0.01
468,-0.12,-0.05,-0.35
469,-0.01,-0.01,-0.01
470,-0.12,-0.06,9.53
471,-0.13,-0.05,9.54
472,-0.11,-0.05,9.55
473,-0.11,-0.05,9.53
474,-0.11,-0.03,-323.29
475,-0.10,-0.02,9.52
476,-0.01,-0.01,-0.01
477,-0.12,-0.04,9.51
478,-0.11,-0.03,9.53
479,-0.12,-0.04,4.42
480,-0.11,-0.05,9.53
481,-1.33,-0.01,-0.01
482,-0.11,-0.06,-323.27
483,-0.11,-0.04,9.54
484,-0.11,-0.05,9.55
485,-0.12,-0.07,9.55
486,-0.12,-0.05,9.54
487,-0.12,-0.04,9.53
488,-0.12,-0.04,-323.27
489,-0.09,-0.06,9.52
490,-0.13,-0.05,9.51
491,-0.10,-0.04,9.57
492,-0.09,-0.03,4.40
493,-0.12,-0.04,9.54
494,-0.11,-0.07,9.50
495,-0.06,-0.01,-0.01
496,-0.11,-0.08,9.55
497,-0.12,-0.07,4.42
498,-0.09,-0.04,9.56
499,-0.10,-0.04,9.52
500,-0.10,-0.04,4.42
501,-0.11,-0.03,9.56
502,-1.33,-0.01,-0.01
503,-0.11,-0.05,9.56
504,-0.11,-0.04,9.53
505,-0.07,-0.01,-0.01
506,-0.13,-0.05,9.52
507,-0.13,-0.04,9.54
508,-0.13,-0.04,-0.36
509,-0.11,-0.06,9.54
510,-0.11,-0.03,9.52
511,-0.12,-0.05,9.54
512,-0.12,-0.02,-0.01
513,327.58,-0.01,-0.01
514,-0.11,-0.06,9.55
515,-0.11,-0.05,4.42
516,-0.11,-0.01,-0.01
517,-0.11,-0.07,9.50
518,-0.10,-0.04,9.52
519,-0.12,-0.05,9.52
520,-0.12,-0.04,-0.36
521,-0.12,-0.05,9.53
522,-0.11,-0.06,9.55
523,-0.12,-0.06,9.54
524,-0.12,-0.05,9.54
525,-0.10,-0.04,9.54
526,-0.12,-0.05,9.54
527,-0.13,-0.05,9.55
528,-0.11,-0.05,9.51
529,-0.10,-0.06,9.54
530,-0.11,-0.03,-0.01
531,-0.10,-0.04,-323.27
532,-0.09,-0.05,9.54
533,-0.12,-0.06,9.55
534,-0.11,-0.06,9.53
535,-0.12,-0.01,-0.01
536,-0.12,-0.05,9.54
537,-0.13,-0.06,9.54
538,-0.13,-0.06,-323.29
539,-0.13,-0.04,9.54
540,-0.11,-0.06,9.53
541,-0.12,-0.06,-0.36
542,-0.11,-0.04,9.54
543,-0.11,-0.06,9.56
544,-0.11,-0.06,9.52
545,-0.11,-0.07,-0.34
546,-0.11,-0.04,9.53
547,-0.11,-0.04,9.55
548,-0.01,-0.01,-0.01
549,-0.01,-0.01,-0.01
550,-0.11,-0.04,9.53
551,-0.13,-0.02,-0.01
552,-0.10,-0.04,-325.82
553,-0.13,-0.04,9.54
554,-0.11,-0.05,-0.35
555,-0.12,-0.06,9.55
556,-0.10,-0.06,9.55
557,-0.11,-0.05,9.53
558,-0.06,-0.01,-0.01
559,-0.10,-0.06,9.53
560,-0.09,-0.06,-323.27
561,-0.13,-0.04,9.56
562,-0.12,-0.03,-0.01
563,-0.12,-0.03,9.56
564,-0.10,-0.05,9.51
565,-0.12,-0.05,9.55
566,-0.06,-0.01,-0.01
567,-12.81,-84.49,-0.01
568,-0.09,-0.04,9.53
569,-0.10,-0.05,-0.01
570,-0.11,327.64,-0.01
571,-0.11,-0.08,-323.25
572,-0.12,-0.04,9.54
573,-0.13,-0.04,9.57
574,-0.12,-0.05,9.56
575,-0.11,-0.05,4.42
576,-0.11,-0.05,9.53
577,-0.11,-0.04,9.54
578,-0.11,-0.05,9.55
579,-0.14,-0.05,9.52
580,-0.07,-0.01,-0.01
581,-0.11,-0.07,9.53
582,-0.11,-0.06,9.50
583,-0.06,-0.01,-0.01
584,-0.10,-0.04,-0.01
585,-0.11,-0.05,9.52
586,-0.12,-0.06,9.54
587,-0.12,-0.04,9.54
588,-0.11,-0.06,9.53
589,-0.12,-0.05,9.56
590,-0.11,-0.02,9.54
591,-0.06,-0.01,-0.01
592,-0.11,-0.04,9.57
593,-0.10,-0.04,9.53
594,-0.11,-0.04,9.54
595,-0.11,-0.07,4.40
596,-0.10,327.64,-0.01
597,-0.09,327.64,-0.01
598,-0.12,-0.05,9.53
599,-0.13,-0.01,-0.36
600,-0.11,-0.06,9.53
601,-0.11,-0.05,9.54
602,-0.11,-0.07,9.51
603,-0.11,-0.06,-0.35
604,-0.13,-0.05,9.56
605,-0.15,-0.05,9.54
606,-0.13,-0.05,-0.01
607,-0.12,-0.03,-323.25
608,-0.11,-0.03,9.55
609,-0.11,-0.06,9.54
610,-0.13,-0.03,9.55
611,-0.11,-0.04,9.54
612,-0.11,-0.05,-0.01
613,-0.13,-0.01,-0.01
614,-0.11,-0.05,9.54
615,-0.11,-0.06,9.56
616,-0.11,-0.05,9.53
617,-0.13,-0.06,9.53
618,-0.11,-0.05,9.52
619,-0.11,-0.03,9.52
620,327.56,-0.01,-0.01
621,-0.01,-0.01,-0.01
622,-0.01,-0.01,-0.01
623,-0.12,-0.06,9.54
624,-0.11,-0.06,9.52
625,-0.12,-0.04,-323.27
626,-0.13,-0.04,9.53
627,-0.11,-0.07,9.55
628,-0.11,-0.06,9.55
629,-0.11,-0.06,-0.35
630,-0.12,-0.04,9.52
631,-0.11,-0.01,-0.01
632,-0.12,-0.04,9.52
633,-0.12,-0.06,9.54
634,-0.06,-0.01,-0.01
635,-0.12,-0.05,9.54
636,-0.11,-0.04,9.51
637,-0.10,-0.05,9.55
638,-0.12,-0.05,9.51
639,-0.12,-0.06,9.55
640,-0.12,-0.05,-0.35
641,-0.11,-0.03,-0.01
642,-0.12,-0.04,-0.36
643,-0.11,-0.04,9.53
644,-0.06,-0.01,-0.01
645,-0.11,-0.05,9.55
646,-0.12,-0.05,-0.35
647,-0.13,-0.06,9.52
648,-0.12,-0.05,4.42
649,-0.12,-0.04,-0.01
650,-0.11,-0.05,9.54
651,-0.11,-0.06,9.52
652,-0.12,-0.08,9.53
653,-0.11,327.62,-0.01
654,-0.14,-0.06,9.53
655,-0.12,-0.05,9.53
656,-0.11,-0.05,9.51
657,-164.51,-0.01,-0.01
658,-0.13,-0.02,-0.01
659,-0.01,-0.01,-0.01
660,-0.12,-0.05,9.54
661,-0.11,-0.04,9.55
662,-0.10,-0.06,9.52
663,-0.09,-0.04,9.54
664,-0.11,-0.04,9.54
665,-0.11,-0.04,9.51
666,-0.11,-0.05,9.55
667,-0.12,-0.05,9.53
668,-0.12,-0.05,9.52
669,-0.01,-0.01,-0.01
670,-0.12,-0.04,4.40
671,-0.12,-0.06,9.56
672,-0.13,-0.04,9.52
673,-0.11,-0.04,9.53
674,-0.12,-0.06,9.53
675,-0.11,-0.04,9.54
676,-0.01,-0.01,-0.01
677,-0.13,-0.04,-323.29
678,-0.12,-0.07,9.53
679,-0.11,-0.03,9.54
680,-0.07,-0.01,-0.01
681,-0.05,-0.01,-0.01
682,-0.12,-0.05,9.53
683,-0.11,-0.04,9.55
684,-0.12,-0.05,9.53
685,-0.13,-0.04,9.55
686,-0.12,-0.07,-0.36
687,-0.06,-0.01,-0.01
688,-0.12,-0.04,9.52
689,-0.11,-0.02,-0.01
690,-0.11,327.64,-0.01
691,-0.10,-0.06,9.55
692,-0.01,-0.01,-0.01
693,-0.11,327.62,-0.01
694,-0.12,-0.05,9.53
695,-0.13,-0.05,9.55
696,-0.12,-0.06,9.53
697,-0.10,-0.06,9.55
698,-0.11,-0.07,9.55
699,-0.12,-0.05,-0.36
700,-0.11,-0.05,-0.01
701,-0.10,-0.04,9.51
702,-0.11,-0.07,327.34
703,-0.13,-0.05,-0.35
704,-0.13,-0.01,-0.01
705,-0.11,-0.06,9.54
706,-0.12,-0.04,-0.01
707,-0.12,-0.05,9.54
708,-0.12,-0.07,9.51
709,-0.11,-0.04,9.54
710,-0.12,-0.07,9.54
711,-0.06,-0.01,-0.01
712,-0.11,-0.01,-0.01
713,-0.13,-0.06,9.55
714,-0.11,-0.03,-0.01
715,-10.25,-179.21,294.43
716,-0.11,-0.05,9.55
717,-0.14,327.64,-0.01
718,-0.12,-0.04,9.56
719,-0.10,-0.04,9.54
720,-0.11,-0.05,9.55
721,-0.12,-0.05,4.40
722,-0.11,-0.03,9.51
723,-0.11,-0.03,9.53
724,-0.12,-0.05,-0.37
725,-1.33,-0.01,-0.01
726,-0.11,-0.06,4.38
727,-0.11,-0.05,9.55
728,-0.11,-0.05,9.54
729,-0.11,-0.06,9.51
730,-0.12,-0.06,9.54
731,-0.11,-0.05,9.57
732,-0.08,-0.04,9.54
733,-0.11,-0.05,9.56
734,-0.07,-0.01,-0.01
735,-0.10,-0.06,9.55
736,-0.11,-0.06,4.40
737,-0.10,-0.05,9.55
738,-0.10,-0.04,9.55
739,-0.12,-0.05,-0.35
740,-0.11,-0.04,9.50
741,-0.11,-0.03,9.56
742,-0.11,-0.06,9.54
743,-0.01,-0.01,-0.01
744,-0.11,-0.04,9.51
745,-1.34,-0.01,-0.01
746,-0.13,-0.01,-0.01
747,-0.11,-0.01,-0.01
748,-0.01,-0.01,-0.01
749,-0.13,-0.02,-0.01
750,-0.12,-0.03,-0.01
751,-0.13,-0.06,-0.37
752,-0.11,-0.03,-0.35
753,-0.11,-0.06,4.40
754,-0.11,-0.06,9.55
755,-0.12,-0.04,-0.36
756,-0.06,-0.01,-0.01
757,-0.11,-0.04,9.52
758,-0.11,-0.03,4.42
759,-0.13,-0.04,9.54
760,-0.11,-0.05,9.51
761,-0.11,-0.02,-0.01
762,-0.11,-0.05,9.50
763,-0.11,-0.06,9.54
764,-0.06,-0.01,-0.01
765,-0.11,-0.05,9.52
766,-0.11,-0.04,9.52
767,-0.11,-0.04,9.51
768,-0.12,-0.06,4.44
769,-0.11,-0.07,4.42
770,-0.11,-0.06,9.53
771,-0.11,-0.05,9.53
772,-0.12,-0.05,9.52
773,-0.12,-0.06,9.55
774,-0.13,-0.05,9.55
775,-0.11,-0.04,9.52
776,-0.06,-0.01,-0.01
777,-0.11,-0.07,-0.36
778,-1.34,-0.01,-0.01
779,327.56,-0.01,-0.01
780,-0.11,-0.05,9.52
781,-0.12,-0.06,9.55
782,-0.13,-0.05,4.42
783,-1.33,-0.01,-0.01
784,-0.12,-0.04,9.51
785,-0.11,-0.05,9.53
786,-0.13,-0.05,9.54
787,-0.12,-0.05,9.57
788,-0.11,-0.06,9.53
789,-0.11,-0.05,9.54
790,-0.11,-0.03,9.55
791,-0.12,-0.05,9.52
792,-0.11,-0.05,9.54
793,-15.37,-174.09,125.47
794,-0.12,-0.07,9.54
795,-0.10,-0.04,9.53
796,-0.11,-0.01,-0.01
797,-0.11,-0.04,9.54
798,-0.12,-0.05,9.51
799,-0.12,-0.06,9.53
800,-0.10,-0.03,9.52
801,-0.01,-0.01,-0.01
802,-0.11,-0.06,9.51
803,-0.06,-0.01,-0.01
804,-0.06,-0.01,-0.01
805,-0.12,-0.04,9.54
806,-0.09,-0.05,9.55
807,-0.10,-0.04,9.54
808,-0.11,-0.06,9.53
809,-0.11,-0.05,9.55
810,-0.09,-0.05,-0.36
811,-0.11,-0.06,9.54
812,-0.12,-0.06,9.53
813,-0.12,-0.06,9.52
814,-0.11,-0.04,9.53
815,-0.11,-0.05,-0.01
816,-0.11,-0.04,9.50
817,-0.12,-0.05,9.52
818,-0.11,-0.06,9.51
819,-0.06,-0.01,-0.01
820,-0.11,-0.02,9.52
821,-0.10,-0.02,9.51
822,-0.11,-0.06,9.54
823,-0.12,-0.06,9.53
824,-0.15,-0.07,9.56
825,-0.11,-0.04,9.51
826,-0.12,-0.04,-0.35
827,-0.10,-0.06,9.53
828,-0.12,-0.06,9.54
829,-0.10,-0.03,-0.01
830,-0.11,-0.05,9.54
831,-0.11,-0.05,9.51
832,-0.11,327.64,-0.01
833,-0.12,-0.04,9.54
834,-0.10,-0.04,9.54
835,-0.05,-0.01,-0.01
836,-0.11,-0.06,9.53
837,-0.12,-0.03,9.56
838,-0.09,-0.03,-0.01
839,-0.11,327.60,-0.01
840,-0.12,-0.05,9.54
841,-0.11,-0.04,-0.36
842,-0.12,-0.04,-0.35
843,-0.11,-0.05,9.55
844,-0.10,-0.05,9.54
845,-0.13,-0.07,9.55
846,-0.10,-0.06,9.53
847,-0.09,-0.05,9.53
848,-0.13,-0.05,9.54
849,-0.11,-0.05,9.54
850,-0.12,-0.05,-323.27
851,-10.25,-176.65,174.11
852,-0.15,-0.04,9.54
853,-0.11,-0.03,9.53
854,-0.06,-0.01,-0.01
855,-0.11,-0.04,9.53
856,-0.01,-0.01,-0.01
857,-0.12,-0.04,9.56
858,-0.11,-0.04,9.53
859,-0.12,-0.05,9.56
860,-0.12,-0.04,9.56
861,-0.12,-0.07,-0.01
862,-0.12,-0.05,9.54
863,-0.13,-0.04,9.53
864,-0.11,-0.05,9.54
865,-0.11,-0.04,-0.01
866,-0.11,-0.06,9.55
867,-0.11,-0.04,9.52
868,-0.09,-0.05,9.51
869,-0.10,-0.05,9.57
870,-0.13,-0.05,9.52
871,-0.11,-0.05,9.53
872,-0.11,-0.03,9.52
873,-0.11,-0.06,9.52
874,-0.11,-0.04,9.54
875,-0.11,-0.03,-0.01
876,327.56,-0.01,-0.01
877,-0.01,-0.01,-0.01
878,-0.12,-0.06,4.42
879,-0.11,-0.05,-0.35
880,-0.12,-0.04,9.53
881,-0.12,-0.07,9.56
882,-0.10,-0.06,9.53
883,-0.12,-0.05,9.51
884,-0.10,-0.05,9.53
885,-0.11,-0.05,-0.35
886,-0.06,-0.01,-0.01
887,-0.12,-0.05,-323.25
888,-0.10,-0.06,9.50
889,-0.11,-0.05,9.54
890,-0.10,-0.07,9.53
891,-0.13,-0.03,-0.01
892,-1.31,-0.01,-0.01
893,-0.12,-0.06,9.54
894,-0.10,-0.05,9.55
895,-0.06,-0.01,-0.01
896,-0.12,-0.05,9.54
897,-0.11,-0.05,9.54
898,-0.11,-0.06,-0.36
899,327.56,-0.01,-0.01
900,-0.10,-0.06,9.54
901,-0.12,-0.06,4.42
902,-0.12,-0.04,9.54
903,-0.06,-0.01,-0.01
904,-0.12,327.64,-0.01
905,-0.11,-0.06,-323.25
906,-0.10,-0.05,9.50
907,-0.11,-0.06,4.40
908,-0.11,-0.05,4.42
909,-0.01,-0.01,-0.01
910,-0.12,-0.06,9.53
911,-1.34,-0.01,-0.01
912,-0.12,-0.05,9.54
913,-0.12,-0.06,9.55
914,-0.11,-0.05,9.54
915,-0.13,-0.06,4.42
916,-0.11,-0.04,9.53
917,-15.37,-179.21,199.71
918,-0.10,-0.05,-323.27
919,-0.13,-0.03,9.53
920,-0.11,-0.02,-0.01
921,-0.12,-0.06,9.55
922,-0.11,-0.04,4.42
923,-0.13,-0.03,9.55
924,-0.12,-0.04,9.52
925,-0.11,-0.02,9.53
926,-0.11,-0.08,4.42
927,-0.11,-0.04,9.54
928,-0.12,-0.05,9.55
929,-0.10,-0.05,9.56
930,327.56,-0.01,-0.01
931,-1.34,-0.01,-0.01
932,-0.11,-0.05,9.55
933,-0.11,-0.04,9.54
934,-0.10,-0.06,4.42
935,-0.10,-0.05,9.54
936,-0.13,-0.06,9.54
937,-0.09,-0.03,9.51
938,-0.11,-0.04,-0.35
939,-0.11,-0.07,9.52
940,-0.07,-0.01,-0.01
941,-0.11,-0.01,-0.01
942,-0.11,-0.05,9.52
943,-0.11,-0.05,-323.25
944,-0.11,-0.05,9.51
945,-0.14,-0.06,-0.34
946,-0.12,-0.06,9.53
947,-0.14,-0.04,-0.36
948,-0.12,-0.05,9.54
949,-0.13,-0.04,9.53
950,-0.11,-0.06,9.54
951,-0.11,-0.05,9.52
952,-0.12,-0.05,9.54
953,-0.12,-0.05,9.53
954,-0.10,-0.05,9.53
955,-0.10,-0.04,9.50
956,-0.11,-0.05,9.55
957,-0.13,-0.03,9.54
958,-0.11,-0.06,9.52
959,-0.11,-0.06,-0.35
960,-1.34,-0.01,-0.01
961,-0.10,-0.04,-323.25
962,-0.13,-0.05,9.53
963,-0.12,-0.05,-0.36
964,-0.12,-0.05,9.54
965,-0.11,-0.06,9.51
966,-0.13,-0.05,9.53
967,-0.12,-0.05,9.54
968,-0.11,-0.07,9.56
969,-0.11,-0.05,9.54
970,-1.33,-0.01,-0.01
971,-0.11,-0.02,-0.01
972,-0.11,-0.04,9.53
973,-0.10,-0.05,-0.01
974,-0.13,-0.03,9.54
975,-0.06,-0.01,-0.01
976,-0.11,-0.06,4.42
977,-0.10,-0.05,-0.34
978,-0.10,-0.04,9.51
979,-0.05,-0.01,-0.01
980,-0.10,-0.05,-323.31
981,-0.11,-0.01,-0.01
982,-0.11,-0.07,9.53
983,-0.11,-0.03,9.55
984,-0.10,-0.06,-0.36
985,-0.13,-0.06,4.42
986,-0.12,-0.06,-0.35
987,-0.13,-0.06,9.55
988,-0.11,-0.05,-0.34
989,-0.12,-0.08,9.54
990,-0.12,-0.05,9.53
991,-0.11,-0.06,4.40
992,-0.11,-0.05,9.52
993,-0.14,-0.07,9.56
994,-0.11,-0.05,9.53
995,-0.11,-0.05,9.56
996,-0.12,-0.04,-0.01
997,-0.13,-0.05,9.55
998,-0.11,-0.01,-0.01
999,-0.11,-0.01,-0.01
1000,-0.11,-0.06,9.52
1001,-0.12,-0.07,9.53
1002,-0.12,-0.03,-0.01
1003,-0.13,-0.05,9.54
1004,-0.12,-0.05,9.53
1005,-0.13,-0.04,9.54
1006,-0.12,327.62,-0.01
1007,-0.11,-0.07,9.54
1008,-0.11,-0.07,9.54
1009,-0.11,-0.02,-0.01
1010,-0.12,-0.07,9.54
1011,-0.11,-0.05,9.52
1012,-0.11,-0.01,-0.01
1013,-0.09,-0.06,9.54
1014,-0.11,-0.05,-0.37
1015,-0.11,-0.03,9.54
1016,-0.05,-0.01,-0.01
1017,-0.06,-0.01,-0.01
1018,-0.11,-0.01,-0.01
1019,-0.11,-0.05,9.55
1020,-0.11,-0.06,9.52
1021,-1.34,-0.01,-0.01
1022,-0.12,-0.06,9.52
1023,-0.13,-0.03,-0.01
1024,-0.12,-0.05,9.54
1025,-0.11,-0.06,9.54
1026,-0.09,-0.04,9.56
1027,-0.13,-0.04,-0.37
1028,-0.12,-0.05,9.55
1029,-0.11,-0.05,9.52
1030,-1.34,-0.01,-0.01
1031,-0.11,-0.03,-0.36
1032,-0.12,-0.07,9.52
1033,-0.12,-0.02,-0.01
1034,-0.06,-0.01,-0.01
1035,-0.11,-0.05,9.54
1036,-0.11,-0.06,327.32
1037,-0.05,-0.01,-0.01
1038,-0.14,-0.03,-0.01
1039,-0.11,-0.05,9.54
1040,-0.13,-0.05,-323.27
1041,-0.13,-0.04,-323.25
1042,327.58,-0.01,-0.01
1043,-0.11,-0.06,9.54
1044,-0.11,-0.05,9.52
1045,-0.06,-0.01,-0.01
1046,-0.11,-0.06,9.54
1047,-0.13,-0.05,9.51
1048,-0.11,-0.06,9.51
1049,-0.12,-0.03,9.55
1050,-0.10,-0.05,-0.37
1051,-0.11,-0.02,-0.01
1052,-0.13,-0.04,9.54
1053,-0.11,327.62,-0.01
1054,-0.10,-0.05,9.54
1055,-0.11,-0.04,9.54
1056,-0.13,-0.05,9.56
1057,-0.11,-0.06,9.54
1058,-0.11,327.64,-0.01
1059,-0.12,-0.06,9.54
1060,-0.10,-0.04,-0.36
1061,-0.11,-0.05,9.53
1062,-0.11,-0.05,4.40
1063,-0.13,-0.06,9.50
1064,-0.13,-0.03,9.53
1065,-0.11,-0.05,9.55
1066,-0.11,-0.05,9.54
1067,-0.13,-0.04,9.51
1068,-0.13,-0.06,9.49
1069,-0.13,-0.05,4.40
1070,-0.11,-0.03,9.52
1071,-0.12,-0.06,9.55
1072,-0.10,-0.06,4.42
1073,-0.13,-0.04,9.53
1074,-0.12,-0.04,-0.01
1075,-0.11,-0.06,9.54
1076,-0.11,-0.03,-0.01
1077,-0.12,-0.06,9.55
1078,-0.11,-0.04,327.34
1079,-0.10,-0.03,9.53
1080,-0.11,-0.06,-0.36
1081,-0.10,-0.06,9.53
1082,-0.13,-0.05,-0.01
1083,-0.11,-0.05,9.55
1084,-0.11,-0.04,9.53
1085,-0.10,-0.04,9.52
1086,-0.12,-0.04,4.38
1087,-0.06,-0.01,-0.01
1088,-0.10,-0.05,9.51
1089,-0.10,-0.07,-323.29
1090,-7.69,-179.21,174.11
1091,-0.12,-0.04,9.50
1092,-0.11,-0.04,9.55
1093,-0.12,-0.05,9.53
1094,-0.11,-0.06,4.38
1095,-0.10,-0.03,-0.01
1096,-0.11,-0.04,9.55
1097,-0.10,-0.07,9.56
1098,-0.11,-0.05,9.54
1099,-0.12,-0.04,9.54
1100,-0.11,-0.04,-0.36
1101,-0.13,-0.02,-0.01
1102,-0.13,327.62,-0.01
1103,-0.11,-0.05,9.53
1104,-0.11,327.64,-0.01
1105,-0.11,-0.04,9.52
1106,-0.10,-0.06,9.51
1107,-0.11,-0.03,-0.01
1108,-0.07,-0.01,-0.01
1109,-0.09,-0.06,9.54
1110,-0.11,-0.05,-0.36
1111,-0.10,-0.05,9.54
1112,-0.11,-0.05,-0.36
1113,-0.11,-0.03,-0.01
1114,-0.14,-0.06,-0.35
1115,-0.12,327.62,-0.01
1116,-0.12,-0.05,9.54
1117,-0.11,-0.05,9.52
1118,327.58,-0.01,-0.01
1119,-0.13,-0.07,-0.35
1120,-1.34,-0.01,-0.01
1121,-0.11,-0.05,9.53
1122,-0.12,-0.05,9.50
1123,-0.10,-0.07,9.52
1124,-0.10,-0.06,9.52
1125,-0.12,-0.06,9.54
1126,-0.13,-0.04,9.55
1127,-0.11,-0.05,9.54
1128,-0.10,-0.04,9.54
1129,-0.11,-0.06,-0.36
1130,-0.11,-0.02,-0.01
1131,-0.11,-0.05,9.53
1132,-0.11,-0.07,9.55
1133,-0.11,-0.01,-0.01
1134,-0.10,-0.06,9.53
1135,-0.11,-0.06,-0.37
1136,-0.12,-0.08,9.53
1137,-0.12,327.62,-0.01
1138,-0.11,-0.06,9.53
1139,-0.11,-0.06,9.52
1140,-0.06,-0.01,-0.01
1141,-0.11,-0.06,9.51
1142,-0.11,327.62,-0.01
1143,-0.11,-0.05,9.55
1144,-0.12,-0.05,9.54
1145,-0.11,-0.04,9.52
1146,-0.10,-0.06,9.53
1147,-0.11,-0.07,9.54
1148,-0.11,-0.06,9.54
1149,-0.11,-0.07,327.34
1150,-0.11,-0.05,4.42
1151,-0.11,-0.03,9.55
1152,-0.11,-0.02,9.55
1153,-0.11,-0.06,9.50
1154,-0.11,-0.06,9.54
1155,-0.10,-0.05,9.52
1156,-0.11,-0.07,9.54
1157,-0.12,-0.05,9.53
1158,-0.13,-0.06,-0.37
1159,-0.13,-0.06,9.54
1160,-0.11,-0.05,9.53
1161,327.56,-0.01,-0.01
1162,-0.12,-0.05,9.54
1163,-0.12,-0.05,4.42
1164,-0.12,-0.05,9.52
1165,-0.11,-0.06,9.53
1166,-0.12,-0.04,9.53
1167,-0.10,-0.05,9.54
1168,-0.10,-0.05,9.55
1169,-0.12,-0.04,9.53
1170,-0.12,-0.07,9.55
1171,-0.12,-0.03,9.51
1172,-0.11,-0.07,4.40
1173,-0.11,-0.03,-0.01
1174,-0.11,-0.06,9.52
1175,-0.11,-0.05,9.57
1176,-0.13,-0.06,9.52
1177,-0.13,-0.01,-0.01
1178,-0.10,-0.05,9.52
1179,-0.10,-0.05,9.55
1180,-0.11,-0.06,327.32
1181,-0.11,-0.05,9.55
1182,-0.11,-0.03,4.40
1183,-0.11,-0.04,-0.01
1184,-0.14,-0.06,9.55
1185,-0.12,-0.05,9.53
1186,-0.10,-0.05,9.52
1187,-0.12,-0.05,4.42
1188,-0.07,-0.01,-0.01
1189,-0.05,-0.01,-0.01
1190,-0.13,-0.04,-0.35
1191,-0.13,-0.04,9.53
1192,-0.11,-0.04,9.52
1193,-0.11,-0.04,-0.01
1194,-0.12,-0.03,-0.01
1195,-0.11,-0.06,9.55
1196,-0.12,-0.04,9.54
1197,-0.12,-0.04,9.54
1198,-0.11,-0.06,9.55
1199,-0.13,-0.06,9.55
1200,-0.06,-0.01,-0.01
1201,-0.11,-0.03,9.52
1202,-0.12,-0.06,9.54
1203,-0.11,-0.04,9.54
1204,-0.10,-0.05,-0.36
1205,-0.11,-0.04,9.55
1206,-0.11,-0.03,9.53
1207,-0.13,-0.06,9.53
1208,-0.12,-0.08,9.55
1209,-0.11,-0.06,9.52
1210,-0.11,-0.04,-0.35
1211,-0.14,-0.07,9.54
1212,-0.10,-0.07,4.38
1213,-0.11,-0.05,-0.36
1214,-0.11,-0.01,-0.01
1215,327.58,-0.01,-0.01
1216,-0.11,-0.06,-323.27
1217,-0.11,-0.03,-0.01
1218,-0.11,-0.04,9.52
1219,-0.13,-0.05,9.54
1220,-0.12,-0.05,9.53
1221,-0.11,-0.05,9.55
1222,-0.13,-0.03,9.53
1223,327.58,-0.01,-0.01
1224,-0.12,-0.04,9.52
1225,-0.10,-0.02,-0.36
1226,-0.10,-0.04,9.54
1227,-0.13,-0.05,9.54
1228,327.56,-0.01,-0.01
1229,-0.12,-0.06,9.54
1230,-0.10,-0.04,9.51
1231,-0.12,-0.04,9.53
1232,-0.11,-0.05,-323.29
1233,-0.12,-0.05,9.53
1234,-0.05,-0.01,-0.01
1235,-0.12,-0.03,-0.01
1236,-0.13,-0.04,9.55
1237,-0.12,-0.05,9.55
1238,-0.12,-0.04,9.53
1239,-0.11,327.62,-0.01
1240,-0.11,-0.06,9.54
1241,-0.13,-0.05,9.54
1242,-0.11,-0.04,9.53
1243,-0.13,-0.05,-0.36
1244,-0.12,-0.06,9.54
1245,-0.11,-0.06,9.54
1246,-0.01,-0.01,-0.01
1247,-0.11,-0.04,4.42
1248,-0.10,-0.06,9.51
1249,-0.12,-0.05,-0.36
1250,-0.12,-0.05,-0.37
1251,-1.33,-0.01,-0.01
1252,-0.11,-0.02,-0.01
1253,-0.12,-0.05,9.53
1254,-0.11,-0.03,9.53
1255,-0.11,-0.05,9.55
1256,-0.11,-0.06,9.53
1257,-0.12,-0.06,-323.25
1258,-0.11,-0.05,-0.01
1259,-0.12,-0.05,-0.01
1260,-0.12,-0.05,9.55
1261,-0.11,-0.05,9.52
1262,-0.11,-0.06,9.54
1263,-0.11,-0.03,9.53
1264,-0.15,-0.05,-0.01
1265,-0.10,-0.05,9.56
1266,-12.81,-184.33,158.75
1267,-0.13,-0.06,9.53
1268,-1.34,-0.01,-0.01
1269,-0.13,327.66,-0.01
1270,-0.12,-0.03,9.53
1271,-0.11,-0.06,9.54
1272,-0.11,-0.04,9.53
1273,-0.11,-0.05,9.56
1274,-0.06,-0.01,-0.01
1275,-0.11,-0.05,-0.01
1276,-0.12,-0.03,-0.01
1277,-0.11,-0.07,-0.36
1278,-0.11,-0.04,9.53
1279,-0.13,-0.05,9.53
1280,-0.11,-0.06,9.52
1281,-0.12,-0.06,-323.25
1282,-0.11,-0.05,9.50
1283,-0.11,-0.05,9.54
1284,-0.13,-0.01,-0.01
1285,-0.11,-0.03,9.53
1286,-0.11,-0.04,9.52
1287,-0.12,-0.03,4.40
1288,-0.11,-0.06,-323.27
1289,-0.11,-0.05,9.53
1290,-0.13,-0.06,9.54
1291,-0.11,-0.05,-0.36
1292,-0.13,-0.06,9.53
1293,-0.11,-0.06,9.55
1294,-0.13,-0.04,9.54
1295,-0.11,-0.05,9.55
1296,-0.11,-0.05,9.55
1297,-0.12,-0.05,9.52
1298,-0.12,-0.07,4.38
1299,-0.11,-0.06,9.53
1300,-0.11,-0.05,9.53
1301,-0.11,-0.04,-0.36
1302,-0.06,-0.01,-0.01
1303,-0.11,-0.06,9.51
1304,-0.11,-0.06,9.56
1305,-0.11,-0.03,-0.01
1306,-0.09,-0.06,9.56
1307,-1.33,-0.01,-0.01
1308,-0.01,-0.01,-0.01
1309,-0.10,-0.04,9.53
1310,-0.10,-0.04,9.54
1311,-0.10,-0.06,9.53
1312,-0.12,-0.07,9.55
1313,-0.12,-0.02,9.56
1314,-0.01,-0.01,-0.01
1315,-0.01,-0.01,-0.01
1316,-0.11,-0.04,9.52
1317,-0.12,-0.08,9.54
1318,-0.11,-0.04,9.52
1319,327.58,-0.01,-0.01
1320,-0.09,-0.04,9.51
1321,-0.06,-0.01,-0.01
1322,-0.01,-0.01,-0.01
1323,-0.11,-0.07,9.52
1324,-0.12,-0.05,9.54
1325,-0.11,-0.04,9.52
1326,-0.10,-0.03,-0.01
1327,-0.11,-0.06,9.53
1328,-0.11,-0.05,9.57
1329,-0.11,-0.05,-0.34
1330,-0.13,-0.06,9.53
1331,-0.12,-0.04,-0.36
1332,-0.12,-0.04,9.55
1333,-0.13,-0.03,9.51
1334,-0.11,-0.05,9.52
1335,-0.06,-0.01,-0.01
1336,-0.12,-0.05,9.52
1337,-0.12,-0.05,9.54
1338,-0.11,-0.06,9.51
1339,-0.06,-0.01,-0.01
1340,-0.10,-0.04,-0.01
1341,-0.11,-0.07,327.32
1342,-0.11,-0.05,-0.34
1343,327.58,-0.01,-0.01
1344,-0.11,-0.06,9.52
1345,-0.11,-0.05,9.56
1346,-0.11,-0.05,9.51
1347,-0.09,-0.07,9.54
1348,-0.11,-0.06,9.55
1349,-0.12,-0.05,4.40
1350,-0.12,-0.05,9.54
1351,-0.13,-0.05,9.52
1352,-0.12,-0.06,9.55
1353,-0.06,-0.01,-0.01
1354,-0.12,-0.05,9.52
1355,-0.12,-0.06,327.50
1356,-0.11,-0.04,9.50
1357,-0.11,-0.02,9.54
1358,-0.12,-0.04,9.55
1359,-0.12,-0.05,-0.35
1360,-0.11,-0.06,9.55
1361,-0.11,-0.05,9.52
1362,-0.01,-0.01,-0.01
1363,-0.12,-0.04,-323.27
1364,-0.07,-0.01,-0.01
1365,-0.11,-0.03,-0.01
1366,327.58,-0.01,-0.01
1367,-0.11,-0.03,-0.01
1368,-0.11,-0.06,9.54
1369,-0.11,-0.05,9.50
1370,-0.11,-0.03,9.54
1371,-0.11,-0.03,-0.01
1372,-0.13,-0.05,-0.01
1373,-0.11,-0.05,-0.36
1374,-0.06,-0.01,-0.01
1375,-0.11,-0.03,-0.01
1376,-0.11,-0.06,4.40
1377,-0.10,-0.05,-0.37
1378,-0.12,-0.05,9.53
1379,-0.11,-0.04,9.53
1380,-0.11,-0.06,-323.27
1381,-0.07,-0.01,-0.01
1382,-0.12,-0.05,9.54
1383,-0.11,-0.04,4.42
1384,-0.12,-0.05,9.51
1385,-0.10,-0.04,4.44
1386,-0.12,-0.04,9.53
1387,-0.11,-0.02,-0.01
1388,-0.12,-0.04,-0.01
1389,-0.12,-0.04,9.54
1390,-0.09,-0.05,9.53
1391,-0.11,-0.03,9.54
1392,-0.13,-0.06,9.51
1393,-0.11,-0.07,9.53
1394,-0.10,-0.07,9.54
1395,-0.12,-0.07,9.52
1396,-1.34,-0.01,-0.01
1397,-0.12,-0.05,9.53
1398,-0.12,-0.07,9.53
1399,-0.12,-0.06,-0.36
1400,-0.13,-0.01,-0.01
1401,-0.10,-0.05,9.52
1402,-0.11,-0.06,9.52
1403,-0.11,-0.04,9.54
1404,-0.11,-0.05,9.55
1405,-0.10,-0.04,9.55
1406,-0.11,-0.05,9.53
1407,-0.11,-0.08,9.53
1408,-0.12,-0.03,9.52
1409,-0.11,-0.03,9.54
1410,-0.12,-0.03,9.50
1411,-0.13,-0.05,9.55
1412,-0.11,-0.05,9.54
1413,-0.11,-0.03,-0.01
1414,-0.11,-0.06,9.55
1415,-0.13,-0.06,9.54
1416,-0.06,-0.01,-0.01
1417,-0.11,-0.03,-0.34
1418,-0.11,-0.06,9.54
1419,-0.11,-0.05,9.53
1420,-0.11,-0.05,9.52
1421,-0.11,-0.05,9.50
1422,-0.10,-0.07,9.52
1423,-0.12,-0.03,-0.01
1424,-0.11,-0.03,9.55
1425,-0.11,-0.05,9.51
1426,-0.11,-0.03,4.42
1427,-0.13,-0.05,9.55
1428,-0.06,-0.01,-0.01
1429,-0.12,-0.05,9.50
1430,327.01,-0.01,-0.01
1431,-0.11,-0.07,9.54
1432,-0.07,-0.01,-0.01
1433,-0.11,-0.04,9.53
1434,-0.12,-0.03,9.55
1435,-0.12,-0.06,-323.27
1436,-0.10,-0.05,9.53
1437,-0.11,-0.05,9.54
1438,-0.10,-0.04,9.52
1439,-0.12,-0.04,9.54
1440,-0.12,-0.04,-0.01
1441,-0.09,-0.03,9.52
1442,-0.11,-0.04,9.52
1443,-0.11,-0.06,-0.35
1444,-0.14,-0.06,9.53
1445,-0.06,-0.01,-0.01
1446,-0.06,-0.01,-0.01
1447,-0.11,-0.05,9.53
1448,-0.12,-0.05,9.53
1449,-1.62,-0.01,-0.01
1450,-0.10,-0.06,-0.35
1451,-0.12,-0.05,9.53
1452,-0.11,-0.06,9.52
1453,-0.13,-0.04,4.44
1454,-0.06,-0.01,-0.01
1455,-0.11,-0.05,9.55
1456,-0.11,-0.03,-0.01
1457,-0.11,-0.04,9.52
1458,-0.12,-0.05,9.51
1459,-0.12,-0.06,-0.36
1460,-0.11,327.64,-0.01
1461,-0.11,-0.05,9.53
1462,-0.11,-0.04,9.51
1463,-0.11,-0.04,9.54
1464,-0.11,-0.05,9.51
1465,-0.10,-0.03,-0.01
1466,-0.11,-0.04,9.50
1467,-0.14,-0.05,9.51
1468,-0.11,-0.05,9.53
1469,-0.10,-0.05,9.54
1470,-0.10,-0.05,-0.36
1471,-0.14,-0.02,-0.01
1472,327.56,-0.01,-0.01
1473,-0.12,-0.04,-323.27
1474,-0.11,-0.04,9.55
1475,-0.01,-0.01,-0.01
1476,-0.11,-0.08,9.54
1477,-0.12,-0.06,9.53
1478,-0.11,-0.05,4.44
1479,-0.13,-0.04,9.55
1480,-0.11,-0.05,9.52
1481,-0.11,-0.07,9.54
1482,-0.12,-0.04,9.53
1483,-0.11,327.62,-0.01
1484,-0.12,-0.03,-0.01
1485,-0.05,-0.01,-0.01
1486,-0.13,-0.03,9.53
1487,-0.11,-0.03,9.54
1488,-1.34,-0.01,-0.01
1489,-0.06,-0.01,-0.01
1490,-0.11,-0.05,-0.36
1491,-0.12,-0.08,9.54
1492,-0.11,-0.05,9.55
1493,-0.12,-0.05,9.53
1494,-0.12,-0.05,9.52
1495,-0.12,-0.06,9.51
1496,-0.11,-0.06,9.54
1497,-0.11,-0.01,-0.01
1498,-0.01,-0.01,-0.01
1499,-0.11,-0.08,9.54
1500,-0.13,-0.05,-323.29
1501,-0.11,327.62,-0.01
1502,-0.12,-0.05,9.55
1503,-0.11,-0.05,-0.35
1504,-0.11,-0.03,-323.25
1505,-0.12,-0.05,9.55
1506,-0.11,-0.04,9.56
1507,-0.11,-0.03,9.54
1508,-0.11,-0.06,9.54
1509,-0.11,-0.04,-323.25
1510,-0.13,-0.06,9.55
1511,-0.11,-0.06,9.54
1512,-0.11,-0.06,9.52
1513,-0.11,-0.06,9.55
1514,-0.14,-0.07,9.54
1515,-0.12,-0.05,9.53
1516,-0.12,-0.03,-323.27
1517,-0.12,-0.04,9.53
1518,-0.13,-0.05,9.52
1519,-0.12,-0.05,4.42
1520,-0.12,-0.03,9.53
1521,327.56,-0.01,-0.01
1522,-0.12,-0.04,9.54
1523,-0.12,-0.05,9.54
1524,-0.06,-0.01,-0.01
1525,-0.11,-0.05,9.54
1526,-0.11,-0.03,9.55
1527,-0.11,-0.04,9.53
1528,-0.11,-0.05,9.55
1529,-0.11,-0.04,9.54
1530,-0.12,-0.04,9.55
1531,-0.13,-0.06,9.50
1532,-0.12,-0.04,9.53
1533,-0.11,-0.05,9.55
1534,-0.12,327.62,-0.01
1535,-0.05,-0.01,-0.01
1536,-0.10,-0.05,9.50
1537,-0.10,-0.06,9.53
1538,-0.11,-0.04,9.53
1539,-0.11,-0.01,-0.01
1540,-0.11,-0.04,-0.35
1541,-0.05,-0.01,-0.01
1542,-0.12,-0.04,9.54
1543,-0.11,-0.06,9.53
1544,-0.10,-0.04,9.55
1545,-0.11,-0.04,-0.01
1546,-0.12,-0.05,9.54
1547,-0.11,-0.06,9.56
1548,-0.06,-0.01,-0.01
1549,-0.12,-0.04,9.51
1550,-0.13,-0.05,9.53
1551,-0.14,-0.05,9.53
1552,-0.11,-0.03,4.44
1553,-0.11,-0.06,9.56
1554,-0.11,-0.01,-0.01
1555,-0.10,-0.03,9.55
1556,-0.08,-0.05,9.53
1557,-0.12,-0.06,9.57
1558,-0.10,-0.07,-0.36
1559,-0.13,-0.04,9.53
1560,-0.11,327.64,-0.01
1561,-0.11,-0.02,9.56
1562,-0.11,-0.04,9.53
1563,-0.11,-0.04,9.51
1564,-0.11,-0.03,9.54
1565,-0.10,-0.02,-0.01
1566,-0.11,-0.07,9.54
1567,-0.11,-0.05,9.54
1568,-0.11,-0.07,-0.01
1569,-0.06,-0.01,-0.01
1570,-0.14,-0.06,9.53
1571,-0.11,-0.04,9.56
1572,-0.12,327.62,-0.01
1573,-0.13,-0.06,9.54
1574,-0.12,-0.03,-0.01
1575,-0.12,-0.03,4.42
1576,-0.12,-0.06,9.54
1577,-0.12,-0.05,4.44
1578,-0.11,-0.05,9.56
1579,-0.12,-0.04,9.53
1580,-0.11,-0.05,9.53
1581,-0.07,-0.01,-0.01
1582,-0.14,-0.04,9.55
1583,-0.10,-0.04,-323.25
1584,-0.11,-0.05,9.54
1585,-0.14,-0.07,9.51
1586,-0.12,-0.04,-323.27
1587,-0.12,-0.05,4.42
1588,-0.11,-0.03,9.53
1589,-0.11,-0.04,9.54
1590,-0.11,-0.01,-0.01
1591,-0.11,-0.06,9.57
1592,-0.10,-0.02,-0.01
1593,-0.10,-0.02,165.69
1594,-0.06,-0.01,-0.01
1595,-0.12,-0.05,9.56
1596,-0.11,-0.05,9.52
1597,-0.11,-0.05,9.53
1598,-0.11,-0.06,9.57
1599,-0.14,-0.05,9.54
1600,-0.11,-0.03,-0.01
1601,-0.11,-0.07,9.53
1602,-0.06,-0.01,-0.01
1603,-0.12,-0.07,9.51
1604,-0.13,-0.05,-0.35
1605,-0.11,-0.06,9.55
1606,-0.12,-0.04,9.52
1607,-0.14,-0.06,9.55
1608,-0.06,-0.01,-0.01
1609,-1.34,-0.01,-0.01
1610,-0.11,-0.07,9.52
1611,327.56,-0.01,-0.01
1612,-0.11,-0.06,9.52
1613,-0.13,-0.03,9.52
1614,-0.12,-0.04,9.55
1615,-0.13,-0.05,9.53
1616,-0.12,-0.05,9.55
1617,-0.11,-0.05,9.54
1618,-0.06,-0.01,-0.01
1619,-0.11,-0.04,9.54
1620,-0.12,-0.05,-323.25
1621,-0.12,-0.03,-0.01
1622,-0.10,-0.05,9.54
1623,-0.10,-0.04,4.40
1624,-0.11,-0.01,-0.01
1625,-0.10,-0.05,9.54
1626,-1.34,-0.01,-0.01
1627,-0.10,-0.05,9.54
1628,-0.12,-0.05,9.52
1629,-0.06,-0.01,-0.01
1630,-0.12,-0.07,9.55
1631,-0.11,-0.05,9.54
1632,-0.11,-0.03,-0.01
1633,-0.12,-0.06,-0.36
1634,-0.06,-0.01,-0.01
1635,-1.34,-0.01,-0.01
1636,-0.01,-0.01,-0.01
1637,-0.14,-0.06,9.52
1638,-1.34,-0.01,-0.01
1639,-0.12,-0.04,9.55
1640,-0.13,-0.05,9.55
1641,-0.11,-0.07,-323.27
1642,-0.11,-0.05,9.56
1643,-0.12,-0.06,9.54
1644,-0.12,-0.06,-0.36
1645,-0.11,-0.05,4.40
1646,-0.11,-0.04,9.53
1647,-0.11,-0.01,-0.01
1648,-0.01,-0.01,-0.01
1649,-0.07,-0.01,-0.01
1650,-0.10,-0.03,-0.01
1651,-0.12,-0.05,9.55
1652,-0.11,-0.04,9.55
1653,-0.10,-0.07,9.54
1654,-0.11,-0.05,9.54
1655,-0.01,-0.01,-0.01
1656,-0.01,-0.01,-0.01
1657,-0.11,-0.04,9.50
1658,-0.11,-0.05,9.53
1659,-0.11,-0.04,9.52
1660,-0.13,-0.06,9.53
1661,327.56,-0.01,-0.01
1662,-0.12,-0.04,9.54
1663,-0.14,-0.05,9.51
1664,-0.11,-0.04,9.52
1665,-0.13,-0.06,9.51
1666,-0.11,-0.06,9.51
1667,-0.11,-0.04,9.54
1668,327.56,-0.01,-0.01
1669,-0.11,327.62,-0.01
1670,-0.13,-0.04,9.55
1671,-0.11,-0.05,9.54
1672,-0.10,-0.04,9.55
1673,-0.11,-0.05,9.54
1674,-0.11,-0.03,-0.36
1675,-0.06,-0.01,-0.01
1676,-0.13,-0.05,9.55
1677,-0.11,-0.07,9.54
1678,-0.09,-0.06,9.53
1679,-0.11,-0.04,9.54
1680,-0.12,-0.08,9.50
1681,-0.11,-0.04,9.52
1682,-0.13,-0.03,-0.01
1683,-0.11,-0.05,-0.35
1684,-0.11,-0.07,9.52
1685,-0.05,-0.01,-0.01
1686,-0.11,-0.06,9.54
1687,-0.11,-0.05,9.57
1688,-0.12,-0.07,9.53
1689,-0.10,-0.05,4.38
1690,-0.13,-0.07,9.53
1691,-0.13,-0.07,9.54
1692,-0.11,-0.07,9.56
1693,-0.11,-0.04,9.53
1694,-0.11,-0.05,9.54
1695,-0.14,-0.06,-0.36
1696,-0.12,-0.05,9.51
1697,-0.11,-0.04,9.53
1698,-0.10,-0.06,9.50
1699,-0.12,-0.05,9.54
1700,-0.12,-0.05,9.53
1701,-0.06,-0.01,-0.01
1702,-0.13,-0.04,9.53
1703,-0.09,-0.04,9.54
1704,-0.12,-0.06,9.56
1705,-0.10,-0.03,-0.34
1706,-0.10,-0.04,9.54
1707,-0.12,-0.07,-0.01
1708,-0.11,-0.05,9.51
1709,-0.11,-0.05,-323.27
1710,-0.12,-0.04,9.52
1711,-0.11,-0.02,9.55
1712,-0.12,-0.04,9.52
1713,-0.11,-0.05,-0.01
1714,-0.14,-0.06,9.52
1715,-0.11,-0.06,9.55
1716,-1.34,-0.01,-0.01
1717,-0.11,-0.06,9.53
1718,327.56,-0.01,-0.01
1719,-0.10,-0.05,9.52
1720,-0.13,-0.03,9.53
1721,-0.12,-0.04,9.56
1722,-0.11,-0.05,9.52
1723,-0.06,-0.01,-0.01
1724,-0.11,-0.05,9.54
1725,-0.11,-0.03,9.53
1726,-0.09,-0.01,-0.01
1727,-0.10,-0.05,9.54
1728,-0.11,-0.05,9.56
1729,-0.13,-0.06,9.53
1730,-0.11,-0.06,9.55
1731,-0.11,-0.02,-0.01
1732,-0.12,-0.02,-0.01
1733,-0.13,-0.06,9.53
1734,-0.11,-0.01,-0.01
1735,-0.13,-0.04,9.53
1736,-0.12,-0.06,4.38
1737,-0.11,-0.03,-0.01
1738,-0.12,-0.05,9.52
1739,-0.12,-0.07,9.53
1740,-0.10,-0.06,-323.25
1741,-0.13,-0.06,-0.36
1742,-0.14,327.64,-0.01
1743,-0.11,-0.07,-323.23
1744,-0.11,-0.04,9.56
1745,-0.11,-0.04,9.53
1746,-0.13,-0.05,9.55
1747,-0.13,-0.04,9.56
1748,-0.11,-0.04,9.54
1749,-0.11,-0.04,9.55
1750,-0.11,-0.04,9.54
1751,-0.11,-0.05,9.54
1752,-0.06,-0.01,-0.01
1753,-0.12,-0.04,9.52
1754,-0.12,327.62,-0.01
1755,-10.25,-89.61,-0.01
1756,-0.14,-0.04,-0.35
1757,-0.12,-0.05,9.55
1758,-0.12,-0.07,9.54
1759,-0.11,-0.07,9.55
1760,-0.11,-0.06,9.55
1761,-0.12,-0.06,9.54
1762,-0.11,-0.04,9.52
1763,-0.11,-0.06,-0.36
1764,-0.11,-0.07,9.53
1765,-0.12,-0.05,9.54
1766,-0.12,-0.01,-0.01
1767,-0.12,-0.04,9.53
1768,327.54,-0.01,-0.01
1769,-0.12,-0.06,4.40
1770,-0.11,-0.04,4.40
1771,-0.11,-0.05,9.56
1772,-0.13,-0.06,4.40
1773,-0.12,-0.04,9.55
1774,-0.11,-0.05,-0.01
1775,-0.12,-0.05,9.52
1776,-0.11,-0.05,9.53
1777,-0.11,-0.05,9.53
1778,-0.11,-0.04,9.54
1779,-0.11,-0.07,9.53
1780,-0.12,-0.04,9.53
1781,-0.12,-0.05,9.54
1782,-0.11,-0.04,-0.35
1783,-0.11,-0.03,9.56
1784,-0.11,-0.03,9.54
1785,-0.11,-0.01,-0.01
1786,-0.13,-0.06,9.52
1787,-0.06,-0.01,-0.01
1788,-0.14,-0.04,9.52
1789,-0.06,-0.01,-0.01
1790,-0.11,-0.06,9.53
1791,-0.12,-0.07,9.50
1792,-0.11,-0.05,9.53
1793,-0.11,-0.05,-323.27
1794,-0.11,-0.01,9.51
1795,-0.10,-0.06,9.54
1796,-1.33,-0.01,-0.01
1797,-0.12,-0.03,-0.01
1798,-0.12,-0.07,4.42
1799,-0.13,-0.01,-0.01
1800,-15.37,-0.01,-0.01
1801,-0.11,-0.04,9.52
1802,-0.12,-0.04,9.56
1803,-0.11,-0.06,9.54
1804,-0.11,-0.06,9.52
1805,-0.13,-0.05,9.54
1806,-0.13,-0.07,9.52
1807,-0.06,-0.01,-0.01
1808,-0.09,-0.05,9.53
1809,-0.13,-0.04,9.54
1810,-0.12,-0.05,9.53
1811,-0.12,-0.05,9.54
1812,-0.11,-0.07,9.53
1813,-0.11,-0.04,-0.36
1814,-0.13,-0.07,9.54
1815,-0.11,-0.06,9.55
1816,-0.12,-0.08,-323.27
1817,-0.06,-0.01,-0.01
1818,-0.12,-0.02,-0.01
1819,-0.13,-0.06,9.51
1820,-0.11,-0.04,9.54
1821,-0.12,-0.05,-0.01
1822,-0.14,-0.03,9.53
1823,-0.07,-0.01,-0.01
1824,-0.13,-0.07,9.52
1825,-0.11,-0.04,9.53
1826,-1.34,-0.01,-0.01
1827,-0.12,-0.08,9.57
1828,-0.11,-0.04,9.54
1829,-0.12,-0.03,9.54
1830,-0.12,-0.05,-0.36
1831,-0.10,-0.04,9.52
1832,-0.01,-0.01,-0.01
1833,-0.12,-0.06,9.55
1834,-0.06,-0.01,-0.01
1835,-0.12,-0.04,9.53
1836,-0.12,-0.05,9.56
1837,-0.12,-0.05,9.50
1838,-0.10,-0.05,9.53
1839,-0.13,-0.05,9.54
1840,-0.11,-0.03,-0.01
1841,-0.11,-0.04,9.52
1842,-0.13,-0.06,9.50
1843,-0.11,-0.05,9.52
1844,-0.11,-0.04,9.52
1845,-0.13,-0.03,9.52
1846,-0.11,-0.04,9.55
1847,-0.05,-0.01,-0.01
1848,-0.11,-0.04,9.53
1849,-0.06,-0.01,-0.01
1850,-0.11,-0.05,9.55
1851,-0.13,-0.05,9.54
1852,-0.12,-0.07,9.54
1853,-0.12,-0.04,9.52
1854,-0.06,-0.01,-0.01
1855,-0.12,-0.05,9.51
1856,-0.14,-0.05,9.54
1857,-0.12,-0.04,9.52
1858,-0.11,-0.01,-0.01
1859,-0.11,-0.07,9.53
1860,-0.12,-0.07,9.50
1861,-0.11,-0.05,-0.01
1862,-0.13,-0.05,4.38
1863,-0.10,-0.06,9.53
1864,-0.14,327.66,-0.01
1865,-0.11,-0.05,9.54
1866,-0.11,-0.03,-0.34
1867,-0.06,-0.01,-0.01
1868,-0.11,-0.06,9.52
1869,-0.11,-0.06,9.54
1870,-0.12,-0.03,9.54
1871,-0.11,-0.05,9.53
1872,-0.11,-0.04,9.53
1873,327.56,-0.01,-0.01
1874,-0.12,-0.04,9.56
1875,-0.11,-0.05,9.53
1876,-0.10,-0.06,9.54
1877,-0.09,-0.03,9.55
1878,-1.34,-0.01,-0.01
1879,-0.13,-0.05,4.44
1880,-0.11,327.64,-0.01
1881,-0.10,-0.03,-0.01
1882,-0.11,-0.06,-0.35
1883,-0.11,-0.05,9.52
1884,-0.11,-0.07,-0.35
1885,-0.11,-0.05,9.54
1886,-0.11,-0.05,9.53
1887,-0.12,-0.07,9.52
1888,-0.13,-0.06,9.51
1889,-0.11,-0.05,-323.27
1890,-0.14,-0.06,9.54
1891,-0.11,-0.05,9.53
1892,-0.13,-0.01,-0.01
1893,-0.12,-0.06,9.53
1894,-0.01,-0.01,-0.01
1895,-0.01,-0.01,-0.01
1896,-0.10,-0.06,9.53
1897,-0.11,-0.04,9.54
1898,-0.11,-0.07,9.58
1899,-0.11,-0.05,9.53
1900,-0.11,-0.03,9.53
1901,-0.12,-0.04,9.55
1902,-0.10,-0.05,9.55
1903,-0.11,-0.06,9.55
1904,-0.12,-0.02,-0.01
1905,-0.12,-0.04,4.42
1906,-0.11,-0.05,9.53
1907,-0.11,-0.05,9.54
1908,-0.11,-0.06,9.57
1909,-0.13,-0.07,9.54
1910,-0.11,-0.03,-0.01
1911,-0.12,-0.04,9.54
1912,-0.11,-0.05,9.52
1913,-0.12,-0.04,9.55
1914,-0.12,-0.07,9.56
1915,-0.06,-0.01,-0.01
1916,-0.10,-0.05,9.52
1917,-0.11,-0.04,9.53
1918,-0.13,-0.02,-323.25
1919,-0.12,-0.06,-0.35
1920,-0.11,-0.04,9.54
1921,-0.10,-0.05,9.55
1922,-0.10,-0.04,9.53
1923,-0.11,-0.06,4.40
1924,-0.06,-0.01,-0.01
1925,-0.12,-0.04,9.53
1926,-0.11,-0.04,9.52
1927,-0.11,-0.04,-0.01
1928,-0.12,-0.03,-0.01
1929,-0.11,-0.05,9.53
1930,-0.11,-0.06,9.52
1931,-0.12,-0.03,9.55
1932,327.56,-0.01,-0.01
1933,-0.11,-0.05,9.56
1934,-0.10,-0.02,-0.01
1935,-0.12,-0.03,-0.01
1936,-0.11,-0.06,9.52
1937,-0.12,-0.03,9.52
1938,-0.10,-0.05,9.52
1939,-0.11,-0.05,9.52
1940,-0.11,-0.05,-0.01
1941,-0.01,-0.01,-0.01
1942,-0.01,-0.01,-0.01
1943,-0.13,-0.03,9.54
1944,-0.12,-0.05,9.55
1945,-0.09,-0.04,-323.29
1946,-0.11,-0.05,9.55
1947,-0.10,-0.07,-323.25
1948,-0.11,-0.04,9.50
1949,-0.11,-0.04,9.55
1950,-0.12,-0.07,9.53
1951,-0.11,-0.05,-323.25
1952,-0.11,-0.07,-0.34
1953,-0.10,-0.04,-0.36
1954,-0.11,-0.04,9.51
1955,-0.12,-0.04,9.54
1956,-0.13,-0.06,9.53
1957,-0.12,-0.06,9.53
1958,-0.11,-0.06,9.55
1959,-0.09,-0.07,-0.36
1960,-0.10,-0.09,9.53
1961,-0.11,-0.07,4.42
1962,-0.07,-0.01,-0.01
1963,-0.12,-0.07,9.55
1964,-0.11,-0.05,9.52
1965,-0.11,-0.05,9.54
1966,-0.10,-0.05,9.52
1967,-0.12,-0.05,9.54
1968,-0.12,-0.04,-0.37
1969,-0.06,-0.01,-0.01
1970,-0.12,-0.07,9.54
1971,-0.12,-0.04,9.54
1972,-0.11,-0.07,-323.27
1973,-0.12,-0.05,9.52
1974,-0.11,-0.05,9.54
1975,-0.11,-0.05,9.52
1976,-0.12,-0.07,9.54
1977,-0.11,-0.06,9.53
1978,-0.11,-0.06,4.42
1979,-0.12,-0.07,9.53
1980,-0.12,-0.03,9.52
1981,-0.11,-0.07,-0.35
1982,-0.13,-0.05,9.51
1983,-0.13,-0.03,9.55
1984,-0.11,-0.03,9.53
1985,-0.13,-0.03,9.54
1986,-0.13,-0.05,9.52
1987,-0.11,-0.06,9.55
1988,-0.11,-0.07,9.54
1989,-0.01,-0.01,-0.01
1990,-0.13,-0.06,9.52
1991,-0.12,-0.07,9.52
1992,-0.11,-0.06,9.55
1993,-0.10,-0.07,9.54
1994,-0.12,-0.07,9.53
1995,-0.12,-0.06,9.55
1996,-0.12,-0.07,9.53
1997,-0.11,-0.04,9.51
1998,-0.13,-0.05,9.53
1999,-0.01,-0.01,-0.01
2000,-0.01,-0.01,-0.01
2001,-0.10,-0.05,9.56
2002,-0.11,-0.06,9.53
2003,-0.11,-0.03,-0.01
2004,-0.12,-0.06,-323.29
2005,-0.11,-0.03,9.53
2006,-0.11,-0.07,-0.37
2007,-1.34,-0.01,-0.01
2008,-0.12,-0.06,9.50
2009,-1.35,-0.01,-0.01
2010,-0.11,-0.04,9.53
2011,327.56,-0.01,-0.01
2012,-0.14,-0.06,9.53
2013,-0.12,-0.03,-0.35
2014,-0.11,-0.03,-0.01
2015,-0.12,-0.06,9.51
2016,-0.11,327.62,-0.01
2017,-0.11,-0.06,9.53
2018,-0.11,-0.04,9.51
2019,-0.07,-0.01,-0.01
2020,-0.11,-0.07,9.51
2021,-0.11,-0.07,-0.35
2022,-0.12,-0.04,4.38
2023,-0.11,-0.05,9.56
2024,-0.11,-0.06,9.54
2025,-0.13,-0.05,9.51
2026,-0.10,-0.04,9.54
2027,-0.11,-0.06,9.52
2028,-0.12,-0.06,9.53
2029,-0.11,-0.01,-0.01
2030,-0.11,-0.05,9.53
2031,327.62,-0.01,-0.01
2032,-0.01,-0.01,-0.01
2033,-0.01,-0.01,-0.01
2034,-0.13,-0.03,-0.36
2035,-0.10,-0.03,9.55
2036,-0.12,-0.04,9.54
2037,-0.12,-0.04,9.55
2038,-0.11,-0.05,9.52
2039,-0.11,-0.04,9.54
2040,-1.34,-0.01,-0.01
2041,-0.01,-0.01,-0.01
2042,-0.11,-0.03,9.52
2043,-0.12,-0.05,4.44
2044,-0.01,-0.01,-0.01
2045,-0.11,-0.05,9.53
2046,-0.11,-0.07,9.53
2047,-0.11,-0.04,9.52
2048,-0.01,-0.01,-0.01
2049,-0.12,-0.06,9.54
2050,-0.12,-0.05,9.54
2051,-0.06,-0.01,-0.01
2052,-0.10,-0.04,9.53
2053,-0.12,-0.04,9.53
2054,-0.12,-0.06,9.55
2055,-0.10,-0.05,9.54
2056,-0.12,-0.06,9.51
2057,-0.12,-0.04,9.54
2058,-0.12,-0.04,9.50
2059,-0.10,-0.05,-0.01
2060,-0.13,-0.05,9.54
2061,-0.01,-0.01,-0.01
2062,-0.11,-0.06,9.54
2063,-0.11,-0.01,-0.01
2064,-0.11,-0.06,9.54
2065,-0.12,-0.04,9.53
2066,-0.10,-0.03,9.54
2067,-0.11,-0.04,9.56
2068,327.56,-0.01,-0.01
2069,-0.12,-0.05,4.44
2070,-0.10,-0.04,9.53
2071,-0.11,-0.06,9.54
2072,-0.13,-0.06,9.56
2073,-0.07,-0.01,-0.01
2074,-0.07,-0.01,-0.01
2075,-0.13,-0.03,9.55
2076,-0.10,-0.05,9.51
2077,-0.10,327.64,-0.01
2078,-0.12,-0.06,-0.35
2079,327.56,-0.01,-0.01
2080,-0.11,-0.04,9.55
2081,-0.12,-0.05,9.54
2082,-0.11,-0.06,9.52
2083,-0.12,-0.05,9.55
2084,-0.12,-0.06,4.40
2085,-0.11,-0.07,-0.36
2086,-0.10,-0.05,4.42
2087,-0.10,-0.03,-0.01
2088,-0.11,-0.03,9.57
2089,-0.11,-0.05,9.55
2090,-0.07,-0.01,-0.01
2091,-0.12,-0.06,9.54
2092,-0.11,-0.04,9.53
2093,-0.06,-0.01,-0.01
2094,-0.11,-0.05,9.51
2095,-0.06,-0.01,-0.01
2096,-0.12,-0.06,9.56
2097,-0.01,-0.01,-0.01
2098,-0.11,-0.06,9.52
2099,-0.07,-0.01,-0.01
2100,-0.12,-0.04,9.54
2101,-0.12,-0.05,4.42
2102,-0.11,327.62,-0.01
2103,-1.35,-0.01,-0.01
2104,327.58,-0.01,-0.01
2105,-0.13,-0.04,9.53
2106,-0.12,-0.06,9.53
2107,-0.13,-0.04,-0.01
2108,-0.11,-0.07,9.50
2109,-0.11,-0.05,9.52
2110,-0.12,-0.06,9.51
2111,-0.11,-0.01,-0.01
2112,-0.10,-0.04,9.51
2113,-0.01,-0.01,-0.01
2114,-0.12,-0.05,9.53
2115,-0.11,-0.04,9.52
2116,-0.11,-0.04,9.53
2117,-0.14,-0.05,9.54
2118,-0.14,-0.04,-0.36
2119,-0.11,-0.05,9.55
2120,-0.12,-0.05,9.55
2121,-0.11,-0.03,9.55
2122,-0.01,-0.01,-0.01
2123,-0.11,-0.05,-0.34
2124,-0.11,-0.05,9.53
2125,-0.11,-0.06,9.55
2126,-0.11,-0.05,4.42
2127,-0.13,-0.03,9.51
2128,-0.12,-0.05,9.53
2129,-0.10,-0.05,-0.01
2130,-0.01,-0.01,-0.01
2131,-0.11,-0.05,9.53
2132,-0.12,-0.06,-323.27
2133,327.01,-0.01,-0.01
2134,-0.11,-0.05,9.53
2135,-0.12,-0.06,9.52
2136,-0.09,-0.05,9.55
2137,-0.12,-0.05,9.52
2138,-0.08,-0.07,9.50
2139,-0.13,-0.05,9.54
2140,-0.11,-0.03,-0.01
2141,-0.11,-0.05,9.54
2142,327.54,-0.01,-0.01
2143,-0.12,-0.07,9.55
2144,-0.12,-0.05,4.38
2145,327.56,-0.01,-0.01
2146,-0.11,-0.04,-0.36
2147,-0.11,-0.05,9.52
2148,-0.09,-0.05,9.52
2149,-0.11,-0.05,-0.01
2150,-0.12,-0.05,-323.23
2151,-0.13,-0.04,9.52
2152,-0.12,-0.06,9.50
2153,327.58,-0.01,-0.01
2154,-0.11,-0.07,9.53
2155,-0.11,-0.01,-0.01
2156,-0.10,-0.05,9.55
2157,-0.11,-0.05,4.42
2158,-0.13,-0.02,-0.01
2159,-0.13,-0.05,-323.25
2160,-0.11,-0.03,9.54
2161,-0.12,-0.04,9.55
2162,-0.13,-0.01,-0.01
2163,-0.06,-0.01,-0.01
2164,-0.11,-0.05,-0.37
2165,-0.13,-0.06,9.55
2166,-0.12,-0.07,9.53
2167,-0.11,-0.02,4.44
2168,-0.11,-0.05,9.55
2169,-0.11,-0.06,9.53
2170,-0.10,-0.06,9.53
2171,-0.12,-0.03,-0.01
2172,-0.12,-0.05,9.56
2173,-0.11,-0.01,-0.01
2174,-0.11,-0.05,9.53
2175,-0.13,-0.04,9.53
2176,-0.12,-0.06,9.56
2177,-0.12,-0.05,9.54
2178,-1.34,-0.01,-0.01
2179,-0.11,-0.04,9.54
2180,-0.11,-0.05,-0.01
2181,-0.10,-0.06,9.54
2182,-0.12,-0.05,9.54
2183,-0.12,-0.05,9.51
2184,-0.12,-0.06,9.50
2185,-0.12,-0.05,9.52
2186,-0.11,-0.04,9.55
2187,-0.06,-0.01,-0.01
2188,-0.11,-0.05,9.53
2189,-0.12,-0.02,-0.01
2190,-0.11,-0.05,-0.35
2191,-0.13,-0.03,9.55
2192,-0.12,327.64,-0.01
2193,-0.12,-0.04,9.56
2194,-0.12,-0.04,9.54
2195,-0.12,-0.02,9.54
2196,-0.10,-0.05,9.55
2197,-0.12,-0.05,9.52
2198,-0.11,-0.04,9.55
2199,-0.12,-0.04,9.54
2200,-0.06,-0.01,-0.01
2201,-0.11,-0.02,-0.01
2202,-0.11,-0.06,9.51
2203,-1.34,-0.01,-0.01
2204,-0.11,327.64,-0.01
2205,-0.12,-0.03,-0.01
2206,-0.11,-0.05,9.55
2207,-0.11,-0.04,9.57
2208,-0.13,-0.04,9.55
2209,-0.11,-0.01,-0.01
2210,-0.11,-0.05,4.44
2211,-0.14,-0.05,-323.27
2212,-0.10,-0.04,9.55
2213,-0.06,-0.01,-0.01
2214,-0.10,-0.04,-0.37
2215,327.58,-0.01,-0.01
2216,-0.12,-0.05,9.55
2217,-0.13,-0.04,9.57
2218,-0.11,-0.05,9.53
2219,-0.11,-0.08,9.54
2220,-0.12,-0.08,9.55
2221,-0.09,-0.03,-0.01
2222,-0.10,-0.04,9.52
2223,-0.09,-0.05,9.54
2224,-0.11,-0.05,9.54
2225,-0.11,-0.05,9.54
2226,-0.13,-0.01,-0.01
2227,-0.12,-0.06,-323.25
2228,-0.12,-0.07,9.53
2229,-0.11,-0.04,9.54
2230,-0.10,-0.05,9.53
2231,-0.11,-0.06,9.52
2232,-0.14,-0.05,-0.01
2233,-0.06,-0.01,-0.01
2234,-0.13,-0.02,-0.01
2235,-0.11,-0.05,9.54
2236,-0.12,-0.04,9.54
2237,-0.11,-0.01,-0.01
2238,-0.11,-0.03,-0.36
2239,-0.11,-0.03,9.54
2240,-0.11,-0.03,-0.01
2241,-0.12,-0.05,9.54
2242,327.56,-0.01,-0.01
2243,-0.11,-0.03,-0.01
2244,-0.12,-0.05,-0.01
2245,-0.11,-0.06,4.42
2246,-10.25,-0.01,-0.01
2247,-0.12,-0.04,9.54
2248,-0.11,-0.03,9.54
2249,-0.11,-0.07,-0.34
2250,-0.11,-0.03,-0.01
2251,-0.11,-0.06,9.50
2252,-0.11,-0.06,9.52
2253,-0.06,-0.01,-0.01
2254,-0.13,-0.02,-323.27
2255,-0.05,-0.01,-0.01
2256,-0.10,-0.02,9.51
2257,-0.11,-0.04,9.55
2258,-0.11,-0.05,9.52
2259,-0.01,-0.01,-0.01
2260,-0.11,-0.06,9.53
2261,-0.11,-0.06,4.42
2262,-0.13,-0.05,9.53
2263,-0.11,-0.06,9.52
2264,-0.10,-0.03,9.54
2265,-0.12,-0.04,9.53
2266,-0.11,-0.05,9.55
2267,-0.11,-0.06,9.53
2268,-0.12,-0.05,9.54
2269,-0.11,-0.05,9.51
2270,-0.10,-0.05,9.55
2271,-0.11,-0.04,9.53
2272,-0.11,-0.04,9.53
2273,-0.11,-0.05,9.51
2274,-0.13,-0.06,9.50
2275,-0.12,-0.03,-0.01
2276,-0.11,-0.06,9.55
2277,-0.11,-0.02,-0.01
2278,-0.10,-0.05,9.56
2279,-0.11,-0.04,9.52
2280,-0.11,-0.06,9.51
2281,-0.11,-0.05,9.54
2282,-0.11,-0.03,9.54
2283,-0.11,327.64,-0.01
2284,-0.06,-0.01,-0.01
2285,-0.06,-0.01,-0.01
2286,-0.13,-0.05,9.55
2287,-0.12,-0.07,-323.29
2288,-0.12,-0.06,9.54
2289,-0.12,-0.05,9.55
2290,-0.13,-0.06,9.54
2291,-0.12,-0.07,9.52
2292,-0.11,-0.05,9.49
2293,-0.13,-0.06,9.55
2294,327.56,-0.01,-0.01
2295,-0.11,-0.06,4.42
2296,-0.11,-0.05,9.55
2297,-0.06,-0.01,-0.01
2298,-0.10,-0.06,9.55
2299,-0.12,-0.05,9.55
2300,-0.11,-0.06,9.55
2301,-0.11,-0.05,9.54
2302,-0.11,-0.05,9.54
2303,-0.10,-0.04,9.54
2304,-0.11,-0.05,-323.25
2305,-0.12,-0.06,9.53
2306,-0.10,-0.05,9.52
2307,-0.11,-0.04,9.56
2308,-0.11,-0.04,9.52
2309,-0.11,-0.02,-0.01
2310,-0.11,-0.06,9.51
2311,-0.13,-0.04,9.56
2312,-0.01,-0.01,-0.01
2313,-0.06,-0.01,-0.01
2314,-0.13,-0.04,9.56
2315,-0.12,327.64,-0.01
2316,-0.11,-0.05,9.55
2317,-1.34,-0.01,-0.01
2318,-0.12,-0.05,9.55
2319,-0.13,-0.04,4.40
2320,-0.10,-0.04,-0.01
2321,-0.12,-0.04,-0.01
2322,-0.11,-0.05,9.53
2323,-0.10,327.64,-0.01
2324,-0.11,-0.06,9.56
2325,-0.11,-0.05,4.42
2326,-0.15,-0.03,9.52
2327,-0.11,-0.04,9.52
2328,-0.11,-0.06,9.51
2329,-0.11,-0.06,9.53
2330,-0.07,-0.01,-0.01
2331,-0.12,-0.07,9.52
2332,-0.12,-0.06,9.53
2333,-0.13,-0.04,4.40
2334,-0.11,-0.01,-0.01
2335,-0.01,-0.01,-0.01
2336,-0.11,-0.05,9.54
2337,-0.14,-0.07,9.55
2338,-0.06,-0.01,-0.01
2339,-0.12,-0.07,9.54
2340,-0.11,327.66,-0.01
2341,-0.12,-0.03,9.50
2342,-0.11,-0.06,9.53
2343,-0.12,-0.05,9.54
2344,-0.01,-0.01,-0.01
2345,-0.11,-0.01,-0.01
2346,-0.11,-0.04,-0.01
2347,-0.13,-0.04,9.52
2348,-0.09,-0.04,9.51
2349,-0.11,-0.03,-0.01
2350,-0.11,-0.01,-0.01
2351,-0.11,-0.03,9.54
2352,-0.11,-0.05,9.52
2353,-0.11,-0.06,-323.25
2354,-0.11,-0.05,9.53
2355,-0.12,-0.06,9.54
2356,-0.11,-0.01,-0.01
2357,-0.11,-0.05,9.54
2358,-0.12,-0.03,9.55
2359,-0.11,-0.03,-0.01
2360,-1.34,-0.01,-0.01
2361,-0.12,-0.04,9.52
2362,-0.12,-0.05,-0.36
2363,-0.12,-0.03,9.54
2364,-0.13,-0.06,9.54
2365,-0.13,-0.04,9.55
2366,-0.11,-0.02,9.52
2367,-0.11,-0.05,4.44
2368,-0.05,-0.01,-0.01
2369,-0.12,-0.03,9.54
2370,-0.11,-0.06,4.42
2371,-0.13,-0.04,9.53
2372,-0.13,-0.06,9.53
2373,327.56,-0.01,-0.01
2374,-0.12,-0.05,9.55
2375,-0.11,-0.06,9.55
2376,-0.14,-0.03,-0.36
2377,-0.11,-0.04,9.51
2378,-0.06,-0.01,-0.01
2379,-0.13,-0.03,-0.01
2380,-0.10,-0.05,9.52
2381,-0.11,-0.04,9.53
2382,-0.11,-0.04,9.49
2383,-0.12,-0.03,-0.01
2384,-0.11,-0.07,-0.37
2385,-0.14,-0.03,9.53
2386,-0.11,-0.04,9.54
2387,-0.11,-0.04,4.42
2388,-0.06,-0.01,-0.01
2389,-0.11,-0.03,-0.01
2390,-0.11,-0.06,4.42
2391,-0.13,-0.06,-0.35
2392,-0.11,-0.06,9.54
2393,-0.11,-0.05,-0.01
2394,-0.12,-0.05,9.54
2395,-0.10,-0.04,9.50
2396,-0.11,-0.07,-323.25
2397,-0.14,-0.06,9.54
2398,-0.13,-0.05,9.54
2399,-0.11,-0.05,4.44
2400,-0.13,-0.05,9.51
2401,-0.06,-0.01,-0.01
2402,-0.05,-0.01,-0.01
2403,-0.11,-0.05,9.56
2404,-0.06,-0.01,-0.01
2405,-0.11,-0.06,9.55
2406,-0.10,-0.06,9.54
2407,-0.06,-0.01,-0.01
2408,-0.12,-0.03,-0.01
2409,-0.12,-0.05,9.53
2410,-0.11,-0.04,9.54
2411,-0.11,-0.06,9.54
2412,-0.11,-0.05,9.54
2413,-0.12,-0.04,9.51
2414,-0.06,-0.01,-0.01
2415,-0.13,-0.06,9.53
2416,-0.10,-0.05,9.53
2417,-0.01,-0.01,-0.01
2418,-0.11,-0.07,9.51
2419,-0.11,-0.04,9.55
2420,-0.13,-0.05,9.53
2421,-0.11,-0.05,9.54
2422,-0.12,-0.05,-0.35
2423,-0.11,-0.03,9.55
2424,-0.10,-0.05,9.53
2425,-0.06,-0.01,-0.01
2426,-0.06,-0.01,-0.01
2427,-0.12,-0.05,9.55
2428,-0.12,-0.06,9.53
2429,-0.12,-0.06,9.52
2430,-0.10,-0.04,9.54
2431,-0.11,-0.05,4.38
2432,-0.13,-0.07,9.55
2433,-0.12,-0.06,9.54
2434,-0.11,-0.04,-0.36
2435,-0.10,-0.06,4.40
2436,-0.13,-0.06,9.54
2437,-0.13,-0.04,9.53
2438,-0.11,-0.06,-0.36
2439,-0.11,-0.04,9.57
2440,-0.12,-0.06,4.42
2441,-0.12,-0.05,9.55
2442,-0.13,-0.04,9.54
2443,-0.06,-0.01,-0.01
2444,-0.07,-0.01,-0.01
2445,-0.10,-0.04,9.52
2446,-0.01,-0.01,-0.01
2447,-0.12,-0.04,9.55
2448,-0.06,-0.01,-0.01
2449,-0.12,-0.06,-323.27
2450,-0.11,-0.03,-0.01
2451,-0.11,-0.06,9.55
2452,-0.11,-0.04,-323.25
2453,-0.11,-0.03,9.56
2454,-0.13,-0.03,9.52
2455,-0.12,-0.06,9.54
2456,-0.11,-0.05,9.51
2457,-1.34,-0.01,-0.01
2458,-0.13,-0.05,9.52
2459,-0.12,-0.04,4.42
2460,-0.11,-0.05,9.53
2461,-0.07,-0.01,-0.01
2462,-0.11,-0.04,9.53
2463,-0.11,-0.04,4.40
2464,-0.11,-0.02,9.52
2465,-0.01,-0.01,-0.01
2466,-0.01,-0.01,-0.01
2467,-0.01,-0.01,-0.01
2468,-0.01,-0.01,-0.01
2469,-0.11,327.64,-0.01
2470,-0.11,-0.05,9.52
2471,-0.12,-0.06,9.53
2472,-0.12,-0.05,9.50
2473,-0.13,-0.06,-323.25
2474,-0.13,-0.06,9.53
2475,-0.12,-0.06,9.51
2476,-0.11,-0.05,-323.27
2477,-0.06,-0.01,-0.01
2478,-0.11,-0.07,9.53
2479,-0.13,-0.04,9.53
2480,-0.11,-0.07,9.55
2481,-0.06,-0.01,-0.01
2482,-0.12,-0.04,9.55
2483,-0.13,-0.06,9.55
2484,-0.11,-0.05,9.55
2485,-0.10,-0.07,-323.29
2486,-0.11,-0.06,9.54
2487,-0.09,-0.05,9.54
2488,-0.12,-0.05,9.53
2489,-0.10,-0.05,9.54
2490,-0.13,-0.05,9.51
2491,-0.11,-0.06,9.52
2492,-0.10,-0.05,9.53
2493,-0.67,-0.01,-0.01
2494,-0.11,-0.03,9.55
2495,-0.11,-0.05,-0.01
2496,-0.11,-0.06,9.53
2497,-0.13,-0.05,9.54
2498,-0.11,-0.05,-0.35
2499,-0.11,-0.06,9.54
2500,-0.12,-0.06,-323.25
2501,-0.11,-0.05,-0.35
2502,-0.11,-0.06,9.55
2503,-0.01,-0.01,-0.01
2504,-0.12,-0.07,9.55
2505,-0.11,-0.04,-323.29
2506,-0.01,-0.01,-0.01
2507,-0.12,-0.07,4.44
2508,-0.10,-0.05,9.51
2509,-0.13,327.62,-0.01
2510,-0.06,-0.01,-0.01
2511,-0.11,-0.06,9.51
2512,-0.12,-0.06,9.51
2513,-0.11,-0.02,9.56
2514,-0.12,-0.04,9.56
2515,-0.10,-0.06,9.53
2516,-0.09,-0.05,-0.01
2517,-0.01,-0.01,-0.01
2518,-0.01,-0.01,-0.01
2519,-0.11,-0.05,9.54
2520,-0.12,-0.04,9.55
2521,-0.11,-0.04,9.56
2522,-0.11,-0.04,9.53
2523,-0.11,-0.04,9.51
2524,-0.09,-0.06,4.42
2525,-0.10,-0.05,9.55
2526,327.58,-0.01,-0.01
2527,-0.11,-0.04,-0.01
2528,-0.13,-0.06,-323.27
2529,-0.10,-0.05,-323.27
2530,-0.11,-0.05,-0.36
2531,-0.12,-0.06,-323.25
2532,-0.06,-0.01,-0.01
2533,-0.11,327.64,-0.01
2534,-0.12,-0.04,9.55
2535,-0.11,-0.07,9.55
2536,-0.11,-0.05,9.52
2537,-0.13,-0.07,9.53
2538,-0.10,-0.07,9.55
2539,-0.13,-0.05,9.55
2540,-0.12,-0.04,9.54
2541,-0.11,-0.05,9.54
2542,-0.10,-0.06,9.54
2543,-0.11,-0.01,-0.01
2544,-0.13,-0.05,-0.01
2545,-0.11,-0.05,9.54
2546,-0.11,-0.04,9.55
2547,-0.13,-0.01,-0.01
2548,-0.13,-0.03,9.54
2549,-0.11,-0.05,9.54
2550,-0.12,-0.03,9.53
2551,-0.11,-0.06,9.50
2552,-0.11,-0.04,9.54
2553,-0.11,-0.06,9.54
2554,-0.11,-0.07,9.54
2555,-0.11,-0.04,-0.34
2556,-0.06,-0.01,-0.01
2557,-1.34,-0.01,-0.01
2558,-0.11,-0.05,-323.27
2559,-0.11,-0.01,-0.01
2560,-0.07,-0.01,-0.01
2561,-0.11,-0.04,9.53
2562,-1.34,-0.01,-0.01
2563,-0.11,-0.03,-0.01
2564,-0.13,-0.05,9.51
2565,-0.10,-0.06,-323.27
2566,-0.01,-0.01,-0.01
2567,-0.12,-0.05,9.55
2568,-0.12,-0.04,9.53
2569,-1.34,-0.01,-0.01
2570,-0.11,-0.01,-0.01
2571,-0.13,-0.06,9.53
2572,-0.12,-0.05,9.53
2573,-0.13,-0.05,9.54
2574,-0.11,-0.04,9.52
2575,-0.11,-0.04,4.42
2576,-0.12,-0.04,9.53
2577,-0.11,-0.04,9.53
2578,-0.14,-0.07,9.52
2579,-0.12,-0.03,9.54
2580,-0.11,-0.05,4.42
2581,-0.06,-0.01,-0.01
2582,-0.10,-0.05,9.53
2583,-0.12,-0.07,-0.01
2584,-0.12,-0.06,-0.35
2585,-0.12,-0.04,9.57
2586,-0.10,-0.03,9.56
2587,-0.10,-0.05,9.51
2588,-0.12,-0.04,9.53
2589,-0.11,-0.04,9.54
2590,-0.11,-0.04,9.52
2591,-0.11,-0.07,-0.36
2592,-0.12,-0.07,9.54
2593,-0.11,-0.02,-0.01
2594,-0.10,-0.07,9.52
2595,-0.11,-0.03,-0.35
2596,-0.11,-0.04,9.52
2597,-0.11,-0.06,9.53
2598,-0.11,-0.05,9.52
2599,-0.10,-0.03,9.53
2600,-0.12,-0.07,9.53
2601,-0.11,-0.07,9.54
2602,-0.12,-0.06,9.53
2603,-0.11,-0.04,-323.25
2604,-0.13,-0.07,9.54
2605,-0.11,-0.06,9.53
2606,-0.12,-0.05,4.44
2607,-0.11,-0.06,9.55
2608,-0.11,-0.05,9.55
2609,-0.11,-0.06,9.55
2610,-0.13,-0.05,9.54
2611,-0.11,-0.06,9.53
2612,-0.12,-0.06,9.54
2613,-0.11,-0.06,9.54
2614,-0.12,-0.05,9.50
2615,-0.11,-0.06,9.56
2616,-0.11,-0.05,9.52
2617,-0.12,-0.03,9.57
2618,-0.11,-0.04,9.53
2619,-0.11,-0.05,-0.35
2620,-0.11,-0.05,9.54
2621,-0.12,-0.05,9.53
2622,327.56,-0.01,-0.01
2623,326.34,-0.01,-0.01
2624,-0.11,-0.06,4.40
2625,-0.06,-0.01,-0.01
2626,-1.35,-0.01,-0.01
2627,-0.11,-0.04,9.54
2628,-0.12,-0.06,-0.18
2629,-0.10,-0.04,9.50
2630,327.62,-0.01,-0.01
2631,-0.11,-0.06,9.54
2632,-0.10,-0.03,-0.01
2633,-0.11,-0.04,9.52
2634,-0.11,-0.04,4.40
2635,-0.11,-0.03,9.54
2636,-0.11,-0.06,9.54
2637,-0.10,-0.06,-0.36
2638,-0.12,-0.03,9.55
2639,-0.11,-0.05,9.54
2640,-0.11,-0.04,9.54
2641,-0.06,-0.01,-0.01
2642,-0.11,-0.05,9.54
2643,-0.11,-0.06,9.54
2644,-0.10,-0.04,9.55
2645,-0.11,-0.05,9.51
2646,-0.13,-0.05,9.58
2647,-0.11,-0.09,9.51
2648,-0.05,-0.03,9.50
2649,-0.07,-0.05,9.57
2650,-0.11,-0.06,9.56
2651,-0.11,-0.04,9.51
2652,-0.15,-0.08,4.40
2653,-0.20,-0.10,9.59
2654,-0.13,-0.05,9.50
2655,-0.11,-0.06,9.53
2656,-0.13,-0.01,-0.01
2657,-0.05,-0.04,9.52
2658,-0.11,-0.04,9.55
2659,-0.18,-0.04,-0.34
2660,-0.15,-0.07,4.38
2661,-0.15,-0.03,-0.01
2662,-0.08,-0.01,-0.01
2663,-0.04,-0.01,-0.36
2664,-0.05,-0.01,9.55
2665,-0.11,-0.07,-0.36
2666,-0.12,-0.06,9.52
2667,-0.17,-0.06,9.57
2668,-0.23,-0.07,-0.01
2669,-0.27,-0.10,9.54
2670,-0.23,-0.05,9.53
2671,-0.21,-0.01,-0.01
2672,-0.22,-0.07,9.52
2673,-0.16,-0.07,-0.35
2674,-0.04,-0.01,-0.01
2675,-0.01,0.00,9.53
2676,-0.02,-0.01,9.55
2677,-0.06,-0.01,-0.01
2678,-0.22,-0.06,9.52
2679,-0.24,-0.05,9.56
2680,-0.15,-0.09,9.54
2681,-0.05,-0.04,9.52
2682,0.00,-0.01,-0.01
2683,-0.06,-0.02,-323.27
2684,-0.10,-0.04,9.50
2685,-0.16,-0.05,9.54
2686,-0.14,-0.04,9.50
2687,327.00,-0.01,-0.01
2688,-0.17,-0.03,9.54
2689,-1.39,-0.01,-0.01
2690,-0.17,-0.07,9.47
2691,-0.15,-0.04,-0.01
2692,-0.12,-0.06,9.61
2693,-0.02,-0.01,9.57
2694,-0.06,-0.03,9.53
2695,-0.12,-0.03,9.53
2696,-0.11,-0.02,9.55
2697,-0.13,-0.03,-0.01
2698,-0.12,-0.05,9.54
2699,-0.09,-0.06,9.51
2700,-0.07,-0.04,9.52
2701,-0.10,327.64,-0.01
2702,-0.13,-0.02,-0.01
2703,-0.14,-0.07,9.53
2704,-0.15,-0.03,9.54
2705,-0.14,-0.05,9.55
2706,-0.12,-0.04,9.52
2707,-0.13,-0.05,9.57
2708,-0.12,-0.05,9.52
2709,-0.13,-0.03,9.57
2710,-0.08,-0.03,9.54
2711,-0.11,-0.04,-0.37
2712,-0.11,-0.03,9.50
2713,-0.15,327.64,-0.01
2714,-0.12,-0.05,9.55
2715,-0.08,-0.05,9.56
2716,-0.08,-0.05,9.52
2717,-0.11,-0.05,9.52
2718,-0.12,-0.07,-0.37
2719,-0.12,-0.03,9.51
2720,-0.09,-0.04,9.55
2721,-0.11,-0.05,9.57
2722,-0.09,-0.04,9.51
2723,-0.11,-0.06,9.55
2724,-0.11,-0.03,9.52
2725,-0.09,-0.03,-0.37
2726,-0.12,-0.05,9.53
2727,-0.12,-0.02,-0.01
2728,-0.12,-0.03,9.55
2729,-0.06,-0.01,-0.01
2730,-0.10,-0.05,9.53
2731,-0.10,-0.06,-0.36
2732,-0.11,-0.06,4.44
2733,-0.11,-0.03,4.44
2734,-0.05,-0.01,-0.01
2735,-0.11,-0.06,9.53
2736,-0.11,-0.04,9.53
2737,-0.11,-0.05,9.50
2738,-0.12,-0.05,9.55
2739,-0.12,-0.04,9.53
2740,-0.12,-0.05,9.53
2741,-0.14,-0.05,-0.34
2742,-0.14,-0.04,-0.37
2743,-0.06,-0.01,-0.01
2744,-0.10,-0.01,9.53
2745,-0.12,-0.05,-0.37
2746,-0.11,-0.06,9.51
2747,-0.10,-0.04,9.51
2748,-0.10,-0.05,-0.01
2749,-0.13,-0.03,9.52
2750,-0.12,-0.05,9.54
2751,-0.13,-0.03,4.42
2752,-0.12,-0.04,9.56
2753,-1.34,-0.01,-0.01
2754,-0.09,-0.04,9.54
2755,-0.01,-0.01,-0.01
2756,-0.12,-0.02,-0.01
2757,-0.11,-0.04,9.51
2758,-0.11,-0.04,9.53
2759,-0.13,-0.03,9.55
2760,-0.11,-0.01,-0.01
2761,-0.09,-0.04,9.54
2762,-0.13,-0.05,-0.36
2763,-0.10,-0.05,9.53
2764,-0.12,-0.05,9.54
2765,-0.13,-0.03,9.56
2766,-0.10,-0.05,4.40
2767,-0.11,-0.03,9.52
2768,-0.10,-0.05,9.55
2769,-0.12,-0.08,9.53
2770,-1.33,-0.01,-0.01
2771,-0.01,-0.01,-0.01
2772,-0.12,-0.04,327.50
2773,-0.11,-0.05,9.54
2774,-0.10,-0.04,-0.35
2775,-0.11,-0.05,9.54
2776,-0.14,-0.03,9.53
2777,-0.06,-0.01,-0.01
2778,-0.13,-0.06,9.53
2779,-0.07,-0.01,-0.01
2780,-0.11,-0.04,9.53
2781,-0.11,-0.03,9.51
2782,-0.11,-0.04,9.54
2783,-0.11,-0.01,-0.01
2784,-0.13,-0.03,9.53
2785,-0.11,-0.05,9.54
2786,-0.11,-0.04,9.53
2787,-0.14,-0.03,9.54
2788,-0.09,-0.02,9.51
2789,-0.08,-0.02,9.54
2790,-0.10,-0.05,9.52
2791,-0.13,-0.01,-0.01
2792,-0.11,-0.04,9.52
2793,-0.12,-0.05,9.53
2794,-0.10,-0.03,9.54
2795,-0.11,-0.03,9.52
2796,-0.10,-0.05,9.50
2797,-0.11,-0.04,-0.01
2798,-0.12,-0.05,9.54
2799,-0.06,-0.01,-0.01
2800,-0.07,-0.01,-0.01
2801,-0.12,-0.04,9.54
2802,-0.11,-0.04,9.53
2803,-0.01,-0.01,-0.01
2804,-0.01,-0.01,-0.01
2805,-0.15,-0.03,9.55
2806,-0.08,-0.04,9.54
2807,-0.11,-0.07,9.55
2808,-0.13,-0.03,9.53
2809,-0.13,-0.06,9.51
2810,-0.13,-0.06,9.54
2811,-0.12,-0.04,-0.01
2812,-0.11,-0.05,9.52
2813,-0.11,-0.07,9.55
2814,-0.11,-0.04,9.52
2815,-0.10,-0.04,-323.29
2816,-0.06,-0.01,-0.01
2817,-0.09,-0.01,-0.01
2818,-0.11,-0.04,9.55
2819,-0.13,-0.04,9.53
2820,-0.12,-0.08,9.56
2821,-0.12,-0.05,9.58
2822,-0.10,-0.04,9.50
2823,-0.11,-0.05,9.54
2824,-0.12,-0.03,9.52
2825,-0.14,-0.06,9.57
2826,-0.12,-0.02,9.51
2827,-0.13,-0.03,9.55
2828,-0.11,-0.03,9.53
2829,-0.05,-0.01,-0.01
2830,-0.11,-0.05,9.52
2831,-0.09,-0.02,9.55
2832,-0.09,-0.02,9.51
2833,-0.09,-0.02,4.42
2834,-0.12,-0.05,-323.25
2835,-0.13,-0.03,9.54
2836,-10.25,-171.53,204.83
2837,-0.11,-0.04,-0.36
2838,-0.11,-0.04,9.52
2839,-0.11,-0.06,4.42
2840,327.56,-0.01,-0.01
2841,-0.14,-0.06,9.54
2842,-0.11,-0.02,9.52
2843,-0.11,-0.05,9.54
2844,-0.15,-0.04,9.54
2845,-0.11,-0.05,9.52
2846,-0.12,-0.05,9.52
2847,-0.11,-0.06,9.53
2848,-0.11,-0.05,9.51
2849,-0.11,-0.04,9.55
2850,-0.12,-0.04,9.48
2851,-0.11,-0.05,9.52
2852,-0.11,-0.04,9.53
2853,-0.11,-0.03,-0.01
2854,-0.11,-0.03,9.54
2855,-0.10,-0.05,4.44
2856,-0.10,-0.06,9.52
2857,-0.11,-0.03,9.53
2858,-0.12,-0.03,9.54
2859,-0.11,-0.03,9.54
2860,-0.10,-0.02,9.52
2861,-0.11,-0.05,9.55
2862,-0.11,-0.05,9.56
2863,-0.12,-0.04,4.38
2864,-0.14,-0.02,9.54
2865,-0.12,-0.03,9.53
2866,-0.11,-0.06,9.53
2867,-0.12,-0.04,9.56
2868,-0.01,-0.01,-0.01
2869,-0.12,-0.06,9.52
2870,-0.11,-0.05,9.54
2871,-0.12,-0.03,9.52
2872,-0.06,-0.01,-0.01
2873,-0.11,-0.07,9.55
2874,-0.11,-0.05,9.56
2875,-0.13,-0.01,-0.01
2876,-0.12,-0.03,9.53
2877,-0.09,-0.07,4.44
2878,-0.01,-0.01,-0.01
2879,-0.01,-0.01,-0.01
2880,-0.13,-0.03,9.54
2881,-0.12,-0.04,9.53
2882,-0.13,-0.04,9.53
2883,-1.35,-0.01,-0.01
2884,-0.13,-0.05,-0.34
2885,-0.13,-0.02,9.54
2886,-0.11,-0.03,-0.36
2887,-0.11,-0.03,-0.01
2888,-0.11,-0.05,-0.35
2889,-0.10,-0.02,-0.01
2890,-0.10,-0.07,9.54
2891,-0.11,-0.01,-0.01
2892,-0.12,-0.05,9.54
2893,-0.13,-0.05,9.53
2894,-0.13,-0.03,9.57
2895,-0.10,-0.03,9.52
2896,-0.12,-0.03,9.51
2897,-0.11,-0.05,9.55
2898,-0.13,-0.03,9.54
2899,-0.11,-0.06,9.54
2900,-0.06,-0.01,-0.01
2901,-0.06,-0.01,-0.01
2902,-0.12,-0.04,-0.01
2903,-0.10,-0.02,9.52
2904,-0.11,-0.05,9.50
2905,-0.08,-0.01,-0.01
2906,-0.10,-0.04,9.51
2907,-0.07,-0.01,-0.01
2908,-0.11,-0.04,4.42
2909,-0.11,-0.05,9.53
2910,-0.07,-0.01,-0.01
2911,-0.11,-0.03,9.52
2912,-0.11,-0.03,9.53
2913,-0.11,-0.06,-323.29
2914,-0.10,-0.04,9.52
2915,-0.01,-0.01,-0.01
2916,-0.11,-0.04,9.52
2917,-0.14,-0.06,9.52
2918,-0.08,-0.05,9.54
2919,-0.14,-0.05,9.54
2920,-0.10,-0.05,9.54
2921,-0.11,-0.05,4.42
2922,-0.11,-0.04,9.54
2923,-0.12,-0.04,9.53
2924,-0.12,-0.05,9.57
2925,-0.14,-0.02,4.46
2926,-0.13,-0.05,9.56
2927,-0.10,-0.05,9.57
2928,-0.01,-0.01,-0.01
2929,-0.12,-0.05,9.54
2930,-0.09,-0.02,9.52
2931,-0.10,-0.06,9.54
2932,-0.11,-0.02,-0.01
2933,-0.10,-0.05,9.55
2934,-0.10,-0.05,9.52
2935,-0.17,-0.07,9.56
2936,-0.16,-0.04,-0.34
2937,-0.13,-0.06,9.53
2938,-0.11,-0.03,9.52
2939,-0.11,-0.04,-323.25
2940,-0.11,-0.05,9.50
2941,-0.11,-0.03,9.53
2942,-0.11,-0.03,9.55
2943,-0.11,-0.04,-0.34
2944,-0.14,-0.04,9.56
2945,327.56,-0.01,-0.01
2946,327.56,-0.01,-0.01
2947,-0.13,-0.03,9.57
2948,-0.11,-0.01,9.54
2949,327.56,-0.01,-0.01
2950,-0.12,-0.06,9.52
2951,-0.15,-0.03,9.55
2952,-0.11,-0.06,9.54
2953,-0.11,-0.02,9.54
2954,-5.13,-179.21,174.11
2955,-0.12,-0.06,9.54
2956,-1.34,-0.01,-0.01
2957,-0.13,-0.03,-0.01
2958,-0.13,-0.03,9.52
2959,-0.10,-0.03,9.54
2960,-0.14,-0.05,9.54
2961,-0.11,-0.01,-0.01
2962,-0.10,-0.02,-0.35
2963,-0.12,-0.05,9.55
2964,-0.13,-0.03,9.56
2965,-0.01,-0.01,-0.01
2966,-0.13,-0.05,-323.29
2967,-0.12,-0.02,-0.01
2968,-0.11,-0.06,9.55
2969,-0.15,-0.01,9.55
2970,-0.14,-0.04,9.56
2971,-0.13,-0.02,9.51
2972,-0.11,-0.05,9.54
2973,-0.12,-0.05,9.53
2974,-0.01,-0.01,-0.01
2975,-0.01,-0.01,-0.01
2976,-0.10,-0.03,9.51
2977,-0.12,-0.02,-0.01
2978,-0.12,-0.02,-0.01
2979,-0.09,-0.03,-0.01
2980,-0.12,-0.05,9.55
2981,-0.12,-0.03,9.58
2982,-0.11,-0.05,9.54
2983,-0.10,-0.01,9.51
2984,-0.11,-0.05,9.56
2985,-0.09,-0.06,9.53
2986,-0.18,-0.06,-323.27
2987,-0.16,-0.04,-0.35
2988,-1.32,-0.01,-0.01
2989,-0.15,-0.04,9.53
2990,-0.08,-0.02,9.54
2991,-0.06,-0.03,9.53
2992,-0.03,-0.03,9.52
2993,-0.11,-0.01,9.55
2994,-0.14,-0.05,9.50
2995,-0.11,-0.05,9.51
2996,-0.14,-0.04,9.51
2997,-0.09,-0.01,-0.01
2998,-0.14,-0.06,-0.34
2999,-0.11,-0.01,-0.01
3000,-0.12,-0.02,9.57
3001,-0.11,-0.01,-0.01
3002,-0.15,-0.06,9.56
3003,-0.11,-0.03,9.52
3004,-0.06,-0.01,-0.01
3005,-0.13,-0.05,9.54
3006,-0.13,-0.06,4.40
3007,-0.14,-0.05,9.52
3008,-0.12,-0.06,9.53
3009,-0.11,-0.04,4.42
3010,-0.10,-0.04,9.55
3011,-0.10,-0.05,9.55
3012,-0.11,-0.03,9.51
3013,-0.14,-0.05,9.56
3014,-0.15,-0.06,9.50
3015,-0.12,-0.08,9.55
3016,-0.11,-0.02,9.53
3017,-0.09,-0.04,9.56
3018,-0.13,-0.03,9.56
3019,-0.06,-0.01,-0.01
3020,-0.11,-0.05,9.48
3021,-0.14,-0.04,9.55
3022,-0.11,-0.04,9.56
3023,-0.12,-0.03,9.54
3024,-0.14,-0.05,9.56
3025,-0.15,-0.06,9.52
3026,-0.11,-0.03,9.49
3027,-0.11,-0.05,9.55
3028,-0.12,-0.05,9.56
3029,-0.11,-0.04,9.52
3030,-0.09,-0.01,9.54
3031,-0.13,-0.04,4.46
3032,-0.11,-0.04,9.52
3033,-0.12,-0.04,9.55
3034,-0.12,-0.05,9.53
3035,-0.11,-0.03,-0.01
3036,-0.11,-0.06,9.52
3037,-0.11,-0.02,9.56
3038,-0.11,-0.02,9.55
3039,-0.13,-0.03,9.55
3040,-0.11,-0.06,4.42
3041,-0.13,-0.06,9.53
3042,-0.10,-0.02,-0.35
3043,-0.09,-0.05,9.52
3044,-0.11,-0.04,9.55
3045,327.62,-0.01,-0.01
3046,-0.13,-0.05,9.52
3047,-0.11,-0.04,9.55
3048,327.56,-0.01,-0.01
3049,-0.13,-0.04,9.56
3050,-0.11,-0.04,9.53
3051,-0.12,-0.05,9.52
3052,327.62,-0.01,-0.01
3053,-0.12,-0.05,9.54
3054,-0.10,-0.05,9.52
3055,-0.10,-0.04,9.55
3056,-0.10,-0.03,9.54
3057,-0.13,-0.05,9.52
3058,-0.13,-0.03,-0.01
3059,-0.11,-0.04,-323.25
3060,327.56,-0.01,-0.01
3061,-0.11,-0.03,9.55
3062,327.56,-0.01,-0.01
3063,-0.11,-0.05,9.51
3064,-0.14,-0.05,9.56
3065,-0.12,-0.03,9.56
3066,-0.11,-0.04,9.51
3067,-0.09,-0.06,9.53
3068,-0.12,-0.02,9.53
3069,-0.06,-0.01,-0.01
3070,-0.13,-0.06,9.54
3071,-0.13,-0.03,9.55
3072,-0.08,-0.06,9.54
3073,-0.11,-0.03,9.54
3074,-0.12,-0.05,9.54
3075,-0.11,-0.03,9.55
3076,-5.13,-174.09,158.75
3077,-0.06,-0.01,-0.01
3078,-0.12,-0.04,9.54
3079,-0.11,-0.07,9.52
3080,-0.01,-0.01,-0.01
3081,-0.12,-0.05,9.55
3082,-0.11,-0.03,9.54
3083,-0.11,327.66,-0.01
3084,-0.11,-0.02,9.54
3085,-0.12,-0.04,9.53
3086,-0.12,-0.03,9.52
3087,-0.11,-0.06,9.51
3088,-0.11,-0.06,9.55
3089,-0.12,-0.04,9.53
3090,-0.12,-0.05,9.55
3091,-0.11,-0.04,9.55
3092,-0.13,-0.06,9.55
3093,-0.13,-0.05,9.52
3094,-0.12,-0.01,4.44
3095,-0.12,-0.02,-0.01
3096,-0.13,-0.04,9.53
3097,-0.05,-0.01,-0.01
3098,-0.12,-0.05,-323.25
3099,-0.12,-0.04,9.53
3100,-0.11,-0.05,9.54
3101,-0.12,-0.05,9.54
3102,-0.11,-0.02,9.51
3103,-0.11,-0.03,-0.01
3104,-0.12,-0.03,9.53
3105,-0.13,-0.02,9.53
3106,-0.11,-0.03,9.53
3107,-0.11,-0.06,9.54
3108,-0.10,-0.04,9.54
3109,-0.10,-0.04,9.50
3110,-0.13,-0.04,-0.34
3111,-0.12,-0.06,9.56
3112,-0.11,-0.04,9.51
3113,-0.01,-0.01,-0.01
3114,-0.01,-0.01,-0.01
3115,-0.13,-0.04,9.57
3116,-0.11,-0.05,9.51
3117,-0.10,-0.05,9.55
3118,-0.10,-0.03,9.55
3119,-0.13,-0.04,9.53
3120,-0.09,-0.03,9.50
3121,-0.14,-0.03,9.56
3122,-0.12,-0.05,9.54
3123,-0.16,-0.05,-323.27
3124,-0.13,-0.04,9.53
3125,-0.12,-0.04,9.52
3126,-0.11,-0.05,-0.36
3127,-0.06,-0.01,-0.01
3128,-0.12,-0.04,-323.27
3129,-0.10,-0.02,-0.01
3130,-0.10,-0.04,-0.35
3131,-0.12,-0.04,9.53
3132,-0.12,-0.05,9.53
3133,-0.12,-0.07,9.54
3134,-0.11,-0.03,9.51
3135,-1.33,-0.01,-0.01
3136,-0.10,-0.08,9.53
3137,-0.10,-0.05,9.56
3138,-0.13,-0.05,9.54
3139,-0.13,-0.02,-0.01
3140,-0.12,-0.01,9.51
3141,-0.11,-0.04,4.40
3142,-0.09,-0.04,9.56
3143,-0.11,-0.04,9.53
3144,-0.16,-0.06,9.54
3145,-0.12,-0.05,9.52
3146,-0.09,-0.03,4.42
3147,-0.05,-0.01,-0.01
3148,-0.13,327.66,-0.01
3149,-0.10,-0.04,9.57
3150,-0.09,-0.03,9.53
3151,-0.12,-0.06,9.54
3152,-0.14,-0.05,9.51
3153,327.56,-0.01,-0.01
3154,-0.12,-0.03,-0.01
3155,-0.11,-0.04,-0.36
3156,-0.11,327.66,-0.01
3157,-0.11,-0.03,9.53
3158,-0.11,-0.03,9.53
3159,-1.29,-0.01,-0.01
3160,-0.12,-0.04,9.55
3161,-0.10,-0.03,-0.01
3162,-0.10,-0.03,-0.01
3163,-0.11,-0.01,-0.01
3164,-0.13,-0.03,9.54
3165,-0.12,-0.02,9.57
3166,-0.12,-0.04,9.53
3167,-0.14,-0.05,9.52
3168,-0.11,-0.04,9.56
3169,-0.11,-0.05,9.55
3170,-0.10,-0.05,9.56
3171,-0.14,-0.04,9.55
3172,-0.12,-0.06,9.56
3173,-1.34,-0.01,-0.01
3174,-0.12,-0.04,9.52
3175,-0.13,-0.04,9.52
3176,-0.11,-0.05,9.52
3177,-0.12,-0.05,9.52
3178,-0.12,327.64,-0.01
3179,-0.11,-0.03,9.54
3180,-0.11,-0.05,9.52
3181,-0.13,-0.04,9.55
3182,-0.12,-0.07,-323.27
3183,-0.11,-0.05,9.52
3184,-0.12,-0.03,9.56
3185,-0.11,-0.05,9.51
3186,-0.13,-0.05,9.53
3187,-0.10,-0.04,9.49
3188,-0.12,-0.05,9.56
3189,-0.67,-0.01,-0.01
3190,-0.11,-0.04,9.53
3191,-0.12,-0.05,4.44
3192,-0.12,-0.03,9.51
3193,-0.10,-0.03,-0.01
3194,-0.11,-0.02,-0.01
3195,-0.12,-0.04,9.50
3196,-0.09,-0.02,9.51
3197,-0.09,-0.04,-323.25
3198,-0.07,-0.01,-0.01
3199,-0.10,-0.05,9.53
3200,-0.12,-0.05,9.53
3201,-0.14,-0.07,9.54
3202,-0.12,-0.04,4.42
3203,-0.11,-0.03,4.42
3204,-0.12,-0.03,9.53
3205,-0.13,-0.03,9.54
3206,-0.12,-0.04,9.54
3207,327.56,-0.01,-0.01
3208,-0.10,-0.06,-0.35
3209,-0.11,-0.04,9.52
3210,-0.13,-0.05,9.54
3211,-0.12,-0.03,9.55
3212,-0.12,-0.05,9.55
3213,-0.12,-0.04,9.54
3214,-0.10,-0.04,9.54
3215,-0.11,-0.02,-0.01
3216,-0.14,-0.05,9.53
3217,-0.11,-0.04,9.54
3218,-0.11,-0.04,9.54
3219,-0.11,-0.05,-0.35
3220,-0.11,-0.05,9.54
3221,-0.13,-0.03,9.55
3222,-0.11,-0.03,9.56
3223,-0.12,-0.04,9.50
3224,-0.11,-0.03,9.56
3225,-0.13,-0.04,9.55
3226,-0.12,-0.04,9.50
3227,-0.11,-0.03,-0.34
3228,-0.10,-0.03,9.53
3229,-0.09,-0.04,9.55
3230,-0.06,-0.01,-0.01
3231,-0.10,-0.04,9.55
3232,-0.11,-0.06,9.51
3233,-0.12,-0.05,9.53
3234,-0.09,-0.03,9.51
3235,-0.18,327.62,-0.01
3236,-0.12,-0.07,9.53
3237,-0.13,-0.04,9.51
3238,-0.11,-0.04,4.42
3239,-0.12,-0.04,9.54
3240,-0.11,-0.03,-0.01
3241,-0.14,-0.06,9.50
3242,-0.07,-0.01,-0.01
3243,-0.13,-0.05,9.53
3244,-0.13,-0.04,-0.35
3245,-0.12,-0.06,-0.35
3246,-0.10,-0.04,9.50
3247,-0.09,-0.05,9.53
3248,-0.12,-0.03,9.56
3249,-0.01,-0.01,-0.01
3250,-0.17,-0.05,9.53
3251,-0.14,-0.05,9.51
3252,-0.10,-0.04,9.54
3253,-0.04,0.00,9.53
3254,-0.06,-0.01,9.56
3255,-0.15,-0.02,9.54
3256,-0.15,-0.05,9.59
3257,-0.11,-0.02,9.48
3258,-0.12,-0.03,9.54
3259,-0.12,-0.02,-0.01
3260,-0.08,-0.05,9.55
3261,-0.11,-0.03,9.57
3262,-0.13,-0.07,4.42
3263,-0.11,-0.04,9.54
3264,-0.13,-0.05,9.50
3265,-0.19,-0.03,9.56
3266,-0.18,-0.07,9.54
3267,-0.13,-0.01,-0.01
3268,-0.14,-0.07,-0.34
3269,-0.10,-0.04,9.52
3270,-0.04,-0.01,-0.01
3271,-0.07,-0.03,9.56
3272,-0.11,-0.03,9.55
3273,-0.14,-0.07,9.54
3274,-0.12,-0.07,9.54
3275,-0.08,-0.02,9.51
3276,-0.11,-0.03,9.53
3277,-0.11,-0.04,-323.23
3278,-0.08,-0.05,9.51
3279,-0.11,-0.04,9.55
3280,-0.09,-0.03,9.52
3281,-0.10,-0.01,-0.01
3282,-0.14,-0.03,-0.01
3283,-0.12,-0.05,9.54
3284,-0.12,-0.06,-0.36
3285,-0.14,-0.02,9.54
3286,-0.06,-0.01,-0.01
3287,-0.01,-0.01,-0.01
3288,-0.08,-0.02,-0.01
3289,-0.09,327.66,-0.01
3290,-0.12,-0.02,-0.01
3291,-0.01,-0.01,-0.01
3292,-0.06,-0.01,-0.01
3293,-0.13,-0.05,9.53
3294,-0.10,-0.03,-323.25
3295,-0.04,-0.01,-0.01
3296,-0.13,-0.04,-323.23
3297,-0.14,-0.03,9.61
3298,-0.13,-0.02,9.43
3299,-0.08,-0.01,-0.01
3300,-0.15,-0.03,9.51
3301,-0.13,-0.06,9.51
3302,-0.14,-0.07,9.54
3303,-0.12,-0.06,9.53
3304,-0.08,-0.06,9.51
3305,-0.09,-0.05,9.53
3306,-0.12,-0.04,9.54
3307,-0.14,-0.05,9.50
3308,-0.14,-0.05,9.51
3309,-0.11,-0.04,-0.35
3310,-0.09,-0.03,9.54
3311,-0.09,0.00,9.49
3312,-0.14,-0.02,9.50
3313,327.54,-0.01,-0.01
3314,-0.15,-0.06,9.54
3315,-0.09,-0.02,-0.41
3316,-0.14,-0.05,9.63
3317,-0.07,-0.05,9.50
3318,-0.09,-0.03,9.46
3319,-0.10,-0.01,9.51
3320,-0.08,-0.03,9.48
3321,-0.09,-0.05,9.50
3322,-0.10,-0.05,9.50
3323,-0.14,-0.05,9.51
3324,-0.16,-0.06,9.53
3325,327.56,-0.01,-0.01
3326,-0.10,-0.03,-0.01
3327,-0.11,-0.06,9.54
3328,-0.11,-0.02,-0.01
3329,-0.10,-0.07,9.54
3330,-0.13,-0.05,9.54
3331,-0.13,-0.06,9.55
3332,-0.11,-0.03,9.52
3333,-0.12,-0.05,9.55
3334,-0.12,-0.04,9.51
3335,-0.12,-0.04,9.57
3336,-0.12,-0.04,9.53
3337,-0.11,-0.05,9.50
3338,-0.11,-0.02,9.54
3339,-0.14,-0.05,-0.01
3340,-0.11,-0.04,4.42
3341,-0.14,-0.02,9.53
3342,-0.11,-0.05,9.53
3343,-0.09,-0.03,9.53
3344,-0.13,-0.01,9.54
3345,-0.09,-0.02,9.53
3346,-0.16,-0.05,9.54
3347,-0.15,-0.04,9.58
3348,-0.11,-0.07,9.58
3349,-1.35,-0.01,-0.01
3350,-0.12,-0.04,9.55
3351,-0.09,-0.03,9.57
3352,-0.10,-0.04,9.50
3353,-0.11,-0.04,9.54
3354,-0.11,-0.04,9.52
3355,-0.10,-0.05,9.55
3356,-0.12,-0.03,9.53
3357,-0.11,-0.04,9.54
3358,-0.16,-0.03,-323.23
3359,-0.11,-0.04,-323.27
3360,-0.13,-0.04,9.54
3361,-0.10,-0.04,9.52
3362,-0.10,-0.03,9.50
3363,-0.13,-0.04,9.59
3364,-0.12,-0.03,9.55
3365,-0.13,-0.04,9.53
3366,-0.06,-0.01,-0.01
3367,-0.11,-0.04,9.53
3368,-0.11,-0.07,9.53
3369,-0.11,327.66,-0.01
3370,-0.14,-0.04,9.55
3371,-0.11,-0.01,-0.01
3372,-0.08,-0.03,-0.01
3373,-0.11,-0.02,4.42
3374,-0.11,-0.05,9.53
3375,-0.10,-0.05,-323.27
3376,-0.13,-0.03,9.53
3377,-0.12,-0.05,9.54
3378,-0.14,-0.04,-0.34
3379,-0.05,-0.01,-0.01
3380,-0.09,-0.07,9.55
3381,-0.10,-0.05,9.51
3382,-0.11,-0.03,9.55
3383,-0.15,-0.05,9.53
3384,-0.13,-0.04,9.52
3385,-0.11,-0.01,9.53
3386,-0.14,-0.05,9.56
3387,-0.12,327.66,-0.01
3388,-0.11,-0.02,9.54
3389,-0.11,-0.02,9.56
3390,-0.10,-0.05,4.38
3391,-0.09,327.66,-0.01
3392,-0.12,-0.04,4.38
3393,-0.10,-0.02,-323.23
3394,-0.14,-0.03,-0.01
3395,-0.13,-0.04,9.54
3396,-0.10,-0.05,9.55
3397,-0.14,-0.02,-0.01
3398,327.58,-0.01,-0.01
3399,-0.11,-0.02,9.56
3400,-0.11,-0.03,9.54
3401,-0.11,-0.03,9.54
3402,-0.13,-0.06,9.53
3403,-0.12,-0.04,9.51
3404,-0.11,-0.03,-0.01
3405,-0.13,-0.03,9.54
3406,-0.11,-0.07,-323.25
3407,-0.11,-0.04,9.56
3408,-0.09,-0.04,9.52
3409,-0.10,-0.02,9.52
3410,-0.11,-0.02,9.52
3411,-0.13,-0.05,9.54
3412,-0.13,-0.05,9.53
3413,-0.15,-0.02,9.56
3414,-0.06,-0.01,-0.01
3415,-0.12,-0.06,9.53
3416,-0.13,-0.03,9.53
3417,-0.10,-0.05,9.54
3418,-0.11,-0.04,-323.23
3419,-0.10,-0.06,9.55
3420,327.56,-0.01,-0.01
3421,-0.11,-0.01,-0.01
3422,-0.12,-0.07,9.52
3423,-0.10,-0.05,-323.27
3424,-0.12,-0.03,9.56
3425,-0.10,-0.03,9.56
3426,-0.11,-0.05,9.51
3427,-0.11,-0.04,9.52
3428,-0.11,-0.05,9.50
3429,-0.07,-0.01,-0.01
3430,-0.13,-0.02,9.53
3431,-0.11,-0.05,9.54
3432,-0.12,327.64,-0.01
3433,-0.12,-0.04,9.54
3434,-0.13,-0.04,9.55
3435,-0.06,-0.01,-0.01
3436,-0.11,-0.04,9.56
3437,-0.11,-0.02,-0.01
3438,-0.13,-0.05,9.56
3439,-0.12,-0.04,9.51
3440,-0.13,-0.04,9.53
3441,-0.11,-0.04,-0.36
3442,-0.12,-0.04,9.54
3443,-0.14,-0.05,9.55
3444,-0.06,-0.01,-0.01
3445,-0.11,-0.04,9.54
3446,-0.13,-0.03,9.51
3447,-0.12,-0.04,9.54
3448,-0.11,-0.03,9.55
3449,-0.08,-0.03,9.55
3450,-0.12,327.66,-0.01
3451,-0.11,-0.02,9.54
3452,-0.11,-0.04,9.52
3453,-0.11,-0.05,9.55
3454,-0.14,-0.03,9.58
3455,-0.13,-0.04,9.53
3456,-0.13,-0.04,9.54
3457,-0.11,-0.06,9.50
3458,-0.10,-0.05,9.53
3459,-0.13,-0.04,9.57
3460,-0.11,-0.04,9.53
3461,-0.11,-0.04,9.53
3462,-0.12,-0.03,9.53
3463,-0.11,-0.05,9.54
3464,-0.11,-0.05,9.49
3465,-0.11,-0.05,-0.01
3466,-0.11,-0.04,9.52
3467,-0.12,-0.04,9.54
3468,-0.12,-0.07,9.56
3469,-0.11,-0.05,-0.36
3470,-1.34,-0.01,-0.01
3471,-0.11,-0.02,9.54
3472,-0.12,-0.06,9.52
3473,-0.05,-0.01,-0.01
3474,-0.12,-0.05,9.54
3475,-0.11,-0.04,9.55
3476,-0.10,-0.04,9.54
3477,-0.11,-0.05,9.53
3478,-0.13,-0.04,9.52
3479,-0.13,-0.02,9.52
3480,-0.11,-0.03,9.49
3481,-0.11,-0.04,9.53
3482,-0.14,-0.03,-0.01
3483,-0.11,-0.01,-0.01
3484,-0.13,-0.04,9.55
3485,-0.11,-0.03,9.51
3486,327.56,-0.01,-0.01
3487,-0.07,-0.01,-0.01
3488,-0.10,-0.05,327.51
3489,-0.11,-0.02,-0.01
3490,-0.10,-0.03,9.55
3491,-0.11,-0.06,4.40
3492,-0.13,-0.07,9.52
3493,-0.12,-0.02,9.50
3494,-0.11,-0.05,9.54
3495,-0.11,327.64,-0.01
3496,-0.11,-0.05,4.42
3497,-0.11,-0.04,9.54
3498,-0.08,-0.03,9.51
3499,-0.10,-0.04,9.55
3500,-0.10,-0.05,9.54
3501,-0.13,-0.03,9.53
3502,-17.93,-181.77,-2.55
3503,-10.25,-179.21,158.75
3504,-0.13,-0.07,-0.34
3505,-0.11,-0.03,-0.01
3506,-0.13,-0.06,9.54
3507,-0.13,-0.03,9.56
3508,-0.11,-0.03,9.54
3509,-0.11,-0.04,9.55
3510,-0.13,-0.04,9.53
3511,-0.12,-0.04,9.54
3512,-0.09,-0.03,-0.01
3513,-0.01,-0.01,-0.01
3514,-10.25,-181.77,174.11
3515,-0.12,-0.06,9.51
3516,-0.12,-0.02,9.52
3517,-0.12,-0.05,9.53
3518,-0.12,-0.05,9.53
3519,-0.11,-0.04,9.50
3520,-0.11,-0.02,9.55
3521,-0.10,-0.05,9.54
3522,-0.11,-0.04,9.54
3523,-0.14,-0.06,-323.25
3524,327.56,-0.01,-0.01
3525,-0.12,-0.04,9.52
3526,-0.11,-0.05,9.55
3527,-0.09,-0.05,9.54
3528,-0.11,-0.03,-0.35
3529,-0.13,-0.02,-0.37
3530,-0.01,-0.01,-0.01
3531,-0.05,-0.01,-0.01
3532,327.56,-0.01,-0.01
3533,-0.14,-0.05,9.55
3534,-0.14,327.62,-0.01
3535,-0.13,-0.02,4.44
3536,-0.11,-0.04,9.52
3537,-0.10,-0.03,9.51
3538,-0.07,-0.03,9.51
3539,-0.06,-0.02,9.52
3540,-0.20,327.62,-0.01
3541,-0.15,-0.06,9.55
3542,-0.17,-0.05,9.52
3543,-0.11,-0.02,9.54
3544,-0.07,-0.03,9.54
3545,-0.10,-0.02,9.54
3546,-0.11,-0.06,9.52
3547,-1.35,-0.01,-0.01
3548,-0.16,-0.05,9.54
3549,-0.13,-0.05,9.57
3550,-0.11,-0.06,9.50
3551,-0.14,-0.03,9.53
3552,-0.14,-0.06,9.51
3553,-0.13,-0.03,9.53
3554,-0.09,-0.01,-0.35
3555,-0.09,-0.03,9.51
3556,-0.10,-0.04,9.52
3557,-0.11,-0.05,-0.38
3558,-0.11,-0.06,9.54
3559,-0.01,-0.01,-0.01
3560,-0.01,-0.01,-0.01
3561,-0.13,-0.03,9.52
3562,-0.12,-0.04,9.54
3563,-0.11,-0.04,9.54
3564,-0.11,-0.04,9.55
3565,-0.12,-0.04,9.55
3566,-0.11,-0.05,9.55
3567,-0.10,-0.03,9.55
3568,-0.11,-0.04,9.52
3569,-0.11,-0.05,9.53
3570,-0.12,-0.04,9.49
3571,-0.14,-0.05,9.53
3572,-0.13,-0.04,9.53
3573,-0.11,-0.05,9.52
3574,-0.11,-0.04,9.53
3575,-0.09,-0.07,9.52
3576,-0.13,-0.03,9.54
3577,-0.14,-0.06,9.55
3578,-0.10,-0.04,4.42
3579,-0.12,-0.05,9.55
3580,-0.11,-0.05,9.50
3581,-0.11,-0.02,9.51
3582,-0.11,-0.01,9.45
3583,-0.13,-0.02,-0.01
3584,-0.10,-0.05,9.53
3585,-0.10,-0.08,9.58
3586,-0.12,-0.06,9.60
3587,-0.13,-0.05,9.55
3588,-0.11,-0.04,4.36
3589,-0.13,-0.03,4.44
3590,-0.12,-0.06,9.52
3591,-0.17,-0.01,-0.01
3592,-0.08,-0.04,9.54
3593,-0.09,-0.06,-0.35
3594,-0.09,-0.04,9.51
3595,-0.15,-0.06,9.53
3596,-0.13,-0.05,9.54
3597,-0.09,-0.03,9.56
3598,-0.11,-0.03,9.54
3599,-0.08,-0.05,9.54
3600,-0.10,-0.04,9.56
3601,-0.12,-0.03,-0.01
3602,-0.11,-0.04,9.50
3603,-0.12,-0.05,9.55
3604,-1.35,-0.01,-0.01
3605,-0.11,-0.04,-323.27
3606,-0.11,-0.04,9.57
3607,-0.14,-0.05,9.54
3608,-0.09,-0.04,9.50
3609,327.58,-0.01,-0.01
3610,-0.11,-0.03,9.54
3611,-0.12,-0.04,9.54
3612,-0.11,-0.05,9.53
3613,-0.15,-0.04,9.56
3614,-0.11,-0.03,9.56
3615,-0.12,-0.03,9.57
3616,-0.09,-0.05,9.55
3617,-0.13,-0.05,9.56
3618,-0.13,-0.05,9.52
3619,-0.13,-0.03,9.51
3620,-0.13,-0.05,-0.36
3621,-0.13,-0.04,9.54
3622,-0.11,-0.07,-0.01
3623,-0.10,-0.05,9.53
3624,-0.01,-0.01,-0.01
3625,-0.11,-0.03,9.53
3626,-0.09,-0.05,9.52
3627,-0.14,-0.03,9.54
3628,-0.12,-0.03,9.54
3629,-0.09,-0.01,9.50
3630,-0.11,-0.05,9.51
3631,-0.14,-0.05,9.56
3632,-0.11,-0.03,9.54
3633,-0.13,-0.04,4.40
3634,-0.10,-0.03,9.51
3635,-0.11,-0.01,9.52
3636,-0.11,-0.03,9.56
3637,-0.12,-0.03,9.52
3638,-0.12,-0.03,9.50
3639,-0.16,-0.05,9.55
3640,-0.13,-0.02,9.54
3641,327.56,-0.01,-0.01
3642,-0.13,-0.03,9.51
3643,-0.14,-0.03,9.55
3644,-0.08,-0.04,9.51
3645,-0.07,-0.01,-0.01
3646,-0.12,-0.03,9.54
3647,-0.11,-0.01,-0.01
3648,-0.13,-0.03,-0.36
3649,-0.11,-0.03,9.53
3650,-0.11,-0.03,9.53
3651,-0.05,-0.01,-0.01
3652,-0.13,-0.05,9.55
3653,-0.13,-0.06,9.55
3654,-0.13,-0.03,9.55
3655,-0.12,-0.06,9.53
3656,-0.05,-0.01,-0.01
3657,-0.11,-0.03,9.53
3658,-0.11,-0.05,9.56
3659,-0.13,-0.05,9.52
3660,-0.13,-0.03,-0.37
3661,-0.11,-0.05,9.54
3662,-0.12,-0.03,9.54
3663,-1.33,-0.01,-0.01
3664,-0.12,-0.05,9.53
3665,-0.11,0.00,9.54
3666,-0.13,-0.04,9.53
3667,327.56,-0.01,-0.01
3668,-0.11,-0.04,9.54
3669,-0.11,-0.04,9.53
3670,-0.13,-0.04,9.54
3671,-0.13,-0.04,9.58
3672,-0.11,-0.01,-0.01
3673,-0.14,-0.04,4.42
3674,-0.12,-0.04,9.50
3675,-0.12,-0.03,9.54
3676,-0.13,-0.04,9.52
3677,-0.12,-0.05,-323.29
3678,-0.13,-0.05,9.54
3679,-0.11,327.64,-0.01
3680,-0.13,-0.05,9.53
3681,-0.06,-0.01,-0.01
3682,-0.11,-0.04,9.52
3683,-0.11,-0.05,9.55
3684,-0.11,-0.03,4.42
3685,-0.13,-0.04,9.56
3686,-0.13,-0.06,9.53
3687,-0.11,-0.05,9.53
3688,-0.11,-0.04,-323.27
3689,-0.10,-0.06,4.44
3690,-0.13,-0.05,9.52
3691,-0.11,-0.03,9.51
3692,-0.01,-0.01,-0.01
3693,-0.13,-0.03,9.53
3694,-0.12,-0.06,9.48
3695,-0.12,-0.06,9.55
3696,-0.14,-0.04,9.55
3697,-0.09,-0.01,-0.01
3698,-0.10,-0.04,-0.35
3699,-0.12,-0.04,9.57
3700,-0.12,-0.05,9.53
3701,-0.11,-0.03,9.54
3702,-0.13,-0.04,9.55
3703,-0.12,-0.05,9.52
3704,-0.11,-0.01,-0.01
3705,-0.12,-0.03,9.54
3706,327.56,-0.01,-0.01
3707,-0.06,-0.01,-0.01
3708,-0.13,-0.04,9.55
3709,-0.12,-0.06,9.55
3710,-0.10,-0.06,9.54
3711,-0.09,-0.02,9.46
3712,-0.16,-0.06,9.67
3713,-0.18,-0.06,9.73
3714,-0.12,-0.04,9.42
3715,-1.33,-0.01,-0.01
3716,-0.13,-0.02,-0.01
3717,-0.12,-0.05,9.60
3718,-0.12,-0.06,9.54
3719,-0.11,-0.05,9.54
3720,-0.13,-0.04,9.56
3721,-0.12,-0.05,9.55
3722,-0.11,-0.01,-0.01
3723,-0.10,-0.04,-323.27
3724,-0.13,-0.05,9.53
3725,-0.11,-0.05,9.52
3726,-0.08,-0.01,-0.01
3727,-0.11,-0.03,9.55
3728,-0.11,-0.01,-0.01
3729,-0.10,0.00,9.52
3730,-0.13,-0.05,9.61
3731,-0.07,-0.05,9.47
3732,-0.11,-0.01,9.50
3733,-0.12,-0.08,9.53
3734,-0.11,-0.02,-0.01
3735,-0.12,-0.04,9.50
3736,-0.11,-0.05,9.53
3737,-0.11,-0.06,9.53
3738,-0.12,-0.04,9.55
3739,-0.11,-0.08,9.53
3740,-0.11,-0.03,9.53
3741,-0.11,-0.03,9.53
3742,-0.11,-0.05,9.53
3743,-0.12,-0.05,9.53
3744,-0.15,-0.06,9.55
3745,-0.13,-0.04,-323.27
3746,-0.13,-0.04,-323.27
3747,-0.14,-0.06,9.56
3748,-0.12,-0.03,9.54
3749,-0.11,-0.04,9.52
3750,-0.13,-0.05,-323.27
3751,-0.11,-0.03,9.54
3752,-0.11,-0.07,9.56
3753,-0.09,-0.05,9.53
3754,-0.10,-0.05,9.53
3755,-0.11,-0.04,9.54
3756,-0.01,-0.01,-0.01
3757,-0.13,-0.05,9.56
3758,-0.12,-0.05,9.52
3759,-0.13,-0.05,9.51
3760,327.56,-0.01,-0.01
3761,-0.12,-0.04,9.56
3762,-0.11,-0.04,9.53
3763,-0.11,-0.04,9.53
3764,-0.11,-0.04,9.53
3765,-0.12,-0.05,9.52
3766,-0.11,-0.02,-0.01
3767,-0.11,-0.04,-323.27
3768,-1.34,-0.01,-0.01
3769,-0.01,-0.01,-0.01
3770,-0.13,-0.04,9.57
3771,-0.11,-0.03,9.54
3772,-0.11,-0.06,9.60
3773,-0.11,-0.07,9.52
3774,-0.09,-0.01,-0.01
3775,-0.11,-0.07,9.53
3776,-0.12,-0.05,-0.36
3777,-0.11,-0.05,9.50
3778,-0.10,-0.05,9.56
3779,-0.09,-0.04,9.52
3780,-0.10,-0.03,9.52
3781,-0.12,-0.04,9.55
3782,-0.14,0.00,9.55
3783,-0.12,-0.04,-0.37
3784,-0.11,-0.05,9.55
3785,-0.10,-0.04,9.55
3786,-0.12,-0.04,9.51
3787,-0.10,-0.04,9.53
3788,-0.15,-0.05,9.57
3789,-0.11,-0.04,327.34
3790,-0.11,-0.05,9.55
3791,-0.11,-0.03,9.54
3792,-0.06,-0.01,-0.01
3793,-0.12,-0.04,9.53
3794,-0.10,-0.04,9.53
3795,-0.13,-0.02,9.52
3796,-0.11,-0.04,9.54
3797,-0.12,-0.03,9.53
3798,-0.13,-0.02,9.51
3799,-0.13,-0.05,9.57
3800,-0.11,-0.03,9.52
3801,-0.01,-0.01,-0.01
3802,-0.12,-0.06,9.55
3803,-0.14,-0.02,9.58
3804,-0.16,-0.07,9.48
3805,-0.09,-0.04,9.49
3806,-0.11,-0.05,9.53
3807,-0.14,-0.04,9.57
3808,-0.10,-0.02,9.58
3809,-0.12,-0.05,9.55
3810,-0.15,-0.05,9.52
3811,-0.12,-0.05,9.54
3812,-1.34,-0.01,-0.01
3813,-0.11,-0.02,9.50
3814,-0.11,-0.04,9.50
3815,-0.09,-0.03,9.53
3816,-0.12,-0.02,9.56
3817,-0.13,-0.05,9.55
3818,-0.11,-0.05,9.51
3819,-0.01,-0.01,-0.01
3820,-0.01,-0.01,-0.01
3821,-0.67,-0.01,-0.01
3822,-0.10,-0.03,-323.31
3823,-0.12,-0.02,-0.01
3824,-0.11,-0.02,-323.27
3825,-0.11,-0.03,-0.01
3826,-0.13,-0.05,9.54
3827,-0.11,-0.05,9.54
3828,-0.14,-0.04,9.56
3829,-0.11,-0.03,9.54
3830,-0.10,-0.04,-0.36
3831,-0.11,-0.01,-0.01
3832,-0.06,-0.01,-0.01
3833,-0.11,-0.05,9.52
3834,-0.11,-0.02,-0.01
3835,-0.12,-0.06,9.55
3836,-0.13,-0.04,9.58
3837,-0.10,-0.04,4.44
3838,-0.10,-0.05,9.55
3839,-0.13,-0.02,-323.29
3840,-0.10,-0.05,9.53
3841,-0.01,-0.01,-0.01
3842,-0.12,-0.03,9.55
3843,-0.13,-0.06,9.50
3844,-0.13,-0.05,9.54
3845,-0.11,-0.03,9.52
3846,-0.11,-0.04,9.55
3847,-0.11,-0.03,9.55
3848,-0.13,-0.04,9.54
3849,-0.11,-0.07,9.54
3850,-0.11,-0.03,9.52
3851,-0.08,-0.03,9.53
3852,-0.12,-0.03,9.55
3853,-0.11,-0.07,9.54
3854,-0.05,-0.01,-0.01
3855,-0.14,-0.06,9.53
3856,-0.11,-0.04,9.52
3857,-0.15,-0.06,9.55
3858,-0.14,-0.07,9.51
3859,-0.11,-0.04,9.51
3860,-0.11,-0.04,9.56
3861,-0.11,-0.04,9.54
3862,-0.12,-0.04,9.52
3863,-0.07,-0.03,9.50
3864,-0.08,-0.05,9.52
3865,-0.12,-0.04,-323.29
3866,-0.12,-0.05,9.54
3867,-0.01,-0.01,-0.01
3868,-0.14,-0.05,9.53
3869,-0.11,-0.03,9.55
3870,-0.10,-0.04,9.55
3871,-0.08,-0.03,9.55
3872,-0.07,-0.04,-323.31
3873,-0.07,-0.03,9.53
3874,-0.10,-0.04,9.51
3875,-0.11,-0.04,9.53
3876,-0.14,-0.05,9.54
3877,-0.06,-0.01,-0.01
3878,-0.15,-0.04,9.52
3879,-0.17,-0.08,9.55
3880,-0.16,-0.04,-0.35
3881,-0.10,-0.03,9.56
3882,-0.06,-0.03,9.54
3883,-0.10,-0.03,9.52
3884,-0.15,-0.05,9.54
3885,-0.15,-0.07,9.55
3886,-0.13,-0.06,9.54
3887,-0.10,-0.04,9.51
3888,-0.09,-0.05,9.50
3889,-0.09,-0.01,9.55
3890,-0.12,-0.04,9.59
3891,-0.05,-0.01,-0.01
3892,-0.05,-0.01,-0.01
3893,-0.13,-0.05,-323.29
3894,-0.14,-0.05,4.38
3895,-0.17,-0.04,9.58
3896,-0.12,-0.08,9.51
3897,-0.13,-0.05,9.53
3898,-0.10,-0.04,9.52
3899,-0.08,-0.02,-0.36
3900,-0.10,-0.05,9.53
3901,-0.13,-0.05,9.52
3902,-0.20,-0.05,9.54
3903,-0.15,-0.03,-0.01
3904,-0.12,-0.02,9.56
3905,-0.07,-0.01,-0.01
3906,-0.08,-0.01,9.53
3907,-0.11,-0.04,9.54
3908,-0.08,-0.01,-0.01
3909,-0.13,-0.04,9.52
3910,-0.11,-0.05,9.50
3911,-0.18,-0.07,9.56
3912,-0.21,-0.05,9.53
3913,-0.16,-0.07,9.52
3914,-0.14,-0.04,-0.37
3915,-0.10,-0.05,-0.33
3916,-0.02,-0.03,9.52
3917,-0.05,-0.01,9.56
3918,-0.14,-0.05,9.52
3919,-0.16,-0.09,9.51
3920,-0.18,-0.07,9.53
3921,-0.16,-0.05,-323.25
3922,-0.07,-0.02,9.55
3923,-0.08,-0.02,9.55
3924,-0.01,-0.01,-0.01
3925,-0.01,-0.01,-0.01
3926,-0.16,-0.06,-323.25
3927,-0.13,-0.06,9.51
3928,-0.11,-0.05,9.56
3929,-0.09,-0.05,9.54
3930,-0.08,-0.04,9.51
3931,-0.08,-0.01,9.57
3932,-0.11,-0.03,9.52
3933,-0.07,-0.04,9.50
3934,-0.12,-0.05,9.51
3935,-0.14,-0.05,9.49
3936,-0.14,-0.07,-0.37
3937,-0.13,-0.05,9.56
3938,-0.10,-0.04,9.58
3939,-0.09,-0.05,9.53
3940,-0.11,-0.04,9.52
3941,-0.13,-0.03,9.55
3942,-0.13,-0.01,-0.01
3943,-0.11,-0.06,9.53
3944,327.54,-0.01,-0.01
3945,-0.10,327.64,-0.01
3946,-0.11,-0.05,9.54
3947,-0.11,-0.02,-0.01
3948,-0.11,-0.04,9.53
3949,-0.11,-0.03,9.52
3950,-0.13,-0.03,9.50
3951,-0.01,-0.01,-0.01
3952,-0.01,-0.01,-0.01
3953,-0.11,-0.02,-0.01
3954,-0.11,-0.05,9.57
3955,-0.11,-0.03,9.53
3956,-0.11,-0.05,9.54
3957,-0.11,-0.04,9.50
3958,-0.11,-0.04,9.54
3959,-0.11,-0.06,9.57
3960,-0.10,-0.06,-323.29
3961,-0.12,-0.04,9.55
3962,-0.13,-0.04,9.54
3963,-0.13,-0.06,9.53
3964,-0.15,-0.05,4.42
3965,-0.13,-0.07,9.56
3966,-0.13,-0.04,9.50
3967,-0.13,-0.06,-0.34
3968,-0.11,-0.07,9.54
3969,-0.11,-0.05,-0.35
3970,-0.11,-0.06,9.54
3971,-0.11,-0.06,9.54
3972,-0.01,-0.01,-0.01
3973,-0.12,-0.06,9.54
3974,-0.12,-0.05,4.42
3975,-0.12,-0.04,9.54
3976,-0.13,-0.05,9.55
3977,-0.11,-0.06,9.54
3978,-0.10,-0.04,9.51
3979,-0.11,-0.04,9.53
3980,-0.10,-0.05,9.54
3981,-0.06,-0.01,-0.01
3982,-0.11,-0.03,9.56
3983,-0.10,-0.05,-0.01
3984,-0.11,-0.03,9.51
3985,-0.13,-0.04,-323.25
3986,-0.13,-0.05,9.52
3987,-1.34,-0.01,-0.01
3988,327.58,-0.01,-0.01
3989,-0.09,-0.01,-0.01
3990,-0.10,-0.02,-0.01
3991,-0.13,-0.06,9.54
3992,-0.13,-0.06,9.55
3993,-0.12,-0.04,-323.25
3994,-0.10,-0.05,9.53
3995,-0.11,-0.04,9.53
3996,-0.11,-0.03,-0.01
3997,-0.09,-0.01,-0.01
3998,-0.10,-0.06,9.51
3999,-0.14,-0.06,9.54
4000,-0.14,-0.05,9.50
4001,-0.12,-0.04,9.53
4002,-0.12,-0.05,9.53
4003,-0.11,-0.05,9.54
4004,-10.25,-179.21,174.11
4005,-0.12,-0.06,9.54
4006,-0.10,-0.02,9.55
4007,-0.06,-0.01,-0.01
4008,-0.11,-0.01,9.54
4009,-0.16,-0.05,9.52
4010,-0.13,-0.05,9.53
4011,-0.12,-0.04,9.56
4012,-0.12,-0.03,9.54
4013,-0.13,-0.04,9.56
4014,-0.12,-0.06,9.55
4015,-10.25,-179.21,220.19
4016,-0.12,-0.07,9.54
4017,-0.01,-0.01,-0.01
4018,-0.06,-0.01,-0.01
4019,-0.12,-0.08,9.55
4020,-0.11,-0.04,9.50
4021,-0.10,-0.06,9.56
4022,-0.10,-0.03,9.53
4023,-0.11,-0.06,-0.38
4024,-0.11,-0.04,9.52
4025,-0.13,-0.06,9.54
4026,-0.12,-0.03,9.54
4027,-0.12,-0.05,4.42
4028,-0.11,-0.04,9.52
4029,-0.11,-0.02,9.51
4030,-0.11,-0.04,9.55
4031,-0.12,-0.02,4.40
4032,-0.12,-0.05,-0.35
4033,-0.11,-0.05,9.50
4034,-0.13,327.64,-0.01
4035,-0.14,-0.04,9.53
4036,-0.12,327.64,-0.01
4037,-0.09,-0.07,9.55
4038,-0.11,-0.03,-0.01
4039,-0.12,-0.05,9.55
4040,-0.11,327.64,-0.01
4041,-0.10,-0.04,4.44
4042,-0.10,-0.02,-0.01
4043,-0.10,-0.05,9.54
4044,-0.12,-0.05,-0.01
4045,-0.13,-0.05,9.56
4046,-0.11,-0.05,9.52
4047,-0.11,-0.05,9.54
4048,-0.12,-0.05,9.53
4049,-0.09,-0.03,9.53
4050,-0.11,-0.03,4.40
4051,-0.07,-0.01,-0.01
4052,-0.14,-0.06,9.56
4053,-0.12,-0.04,9.55
4054,-0.12,-0.04,-0.35
4055,-0.11,-0.04,9.55
4056,-0.11,-0.05,9.50
4057,-0.11,-0.05,9.55
4058,-0.09,-0.06,9.50
4059,327.62,-0.01,-0.01
4060,-0.13,-0.05,9.54
4061,-0.12,-0.05,9.54
4062,-0.14,-0.06,9.51
4063,-0.09,-0.06,-323.25
4064,-0.12,-0.05,4.42
4065,-0.10,-0.04,9.52
4066,-0.09,-0.05,9.53
4067,-0.11,-0.05,9.57
4068,-0.13,-0.06,9.55
4069,-0.13,-0.05,9.53
4070,-0.13,-0.07,9.55
4071,-0.05,-0.01,-0.01
4072,-0.11,-0.04,9.55
4073,-0.13,-0.06,9.54
4074,-0.11,-0.04,9.52
4075,-0.11,-0.03,9.53
4076,-0.13,-0.05,9.53
4077,-0.11,-0.05,9.56
4078,-0.11,-0.07,9.51
4079,-0.10,-0.05,9.55
4080,-0.12,-0.05,-0.35
4081,-0.11,-0.07,9.55
4082,-0.11,-0.04,9.55
4083,-0.12,-0.05,-0.37
4084,-0.06,-0.01,-0.01
4085,-0.10,-0.06,9.56
4086,-0.12,-0.06,9.54
4087,-0.01,-0.01,-0.01
4088,-0.01,-0.01,-0.01
4089,-0.13,-0.05,9.55
4090,-0.06,-0.01,-0.01
4091,-0.13,-0.04,9.54
4092,-0.11,-0.04,9.52
4093,-0.08,-0.03,9.54
4094,-0.12,-0.05,9.51
4095,-0.11,-0.03,9.50
4096,-0.10,-0.05,9.53
4097,-0.13,-0.03,9.56
4098,-0.14,-0.05,9.58
4099,-0.16,-0.07,9.55
4100,-0.13,-0.05,9.53
4101,0.02,-0.03,-0.01
4102,-0.08,-0.03,9.60
4103,-0.10,-0.02,9.56
4104,-0.19,-0.08,9.54
4105,-1.39,-0.01,-0.01
4106,-0.22,-0.08,9.53
4107,-0.15,-0.06,9.53
4108,-0.15,-0.06,9.50
4109,-0.16,-0.05,9.55
4110,-0.15,-0.06,-323.23
4111,-0.07,-0.06,-0.36
4112,-0.06,-0.02,9.54
4113,-1.31,-0.01,-0.01
4114,-0.10,-0.05,9.55
4115,-0.11,-0.05,-0.34
4116,-0.21,-0.07,9.56
4117,-0.07,-0.01,-0.01
4118,-0.12,-0.05,9.54
4119,-0.06,-0.02,9.54
4120,-0.10,-0.04,-0.36
4121,-0.11,-0.04,9.55
4122,-0.16,-0.07,9.55
4123,-0.20,-0.07,9.54
4124,-0.14,-0.06,9.53
4125,-0.13,-0.03,9.52
4126,-0.13,-0.04,9.54
4127,-0.11,-0.05,9.53
4128,-0.06,-0.01,-0.01
4129,-0.11,-0.05,9.54
4130,-0.08,-0.03,9.50
4131,-0.07,-0.02,9.52
4132,-0.11,-0.05,9.52
4133,-0.16,-0.05,9.54
4134,-0.12,-0.05,9.55
4135,-0.11,-0.05,9.53
4136,-0.11,-0.04,-0.35
4137,-0.12,-0.06,9.54
4138,-0.12,-0.06,9.56
4139,-0.12,-0.05,9.55
4140,-0.11,-0.05,9.53
4141,-0.10,-0.05,-0.36
4142,-0.11,-0.05,9.54
4143,-0.10,-0.03,9.53
4144,-1.34,-0.01,-0.01
4145,-0.11,-0.06,-323.25
4146,-0.09,-0.03,9.50
4147,-0.11,-0.04,9.53
4148,-0.01,-0.01,-0.01
