<?xml version="1.0"?>
<!DOCTYPE svg PUBLIC '-//W3C//DTD SVG 1.0//EN'
          'http://www.w3.org/TR/2001/REC-SVG-20010904/DTD/svg10.dtd'>
<svg xmlns:xlink="http://www.w3.org/1999/xlink" style="fill-opacity:1; color-rendering:auto; color-interpolation:auto; text-rendering:auto; stroke:black; stroke-linecap:square; stroke-miterlimit:10; shape-rendering:auto; stroke-opacity:1; fill:black; stroke-dasharray:none; font-weight:normal; stroke-width:1; font-family:'Dialog'; font-style:normal; stroke-linejoin:miter; font-size:12px; stroke-dashoffset:0; image-rendering:auto;" width="1388" height="957" xmlns="http://www.w3.org/2000/svg"
><!--Generated by the Batik Graphics2D SVG Generator--><defs id="genericDefs"
  /><g
  ><defs id="defs1"
    ><clipPath clipPathUnits="userSpaceOnUse" id="clipPath1"
      ><path d="M0 0 L1388 0 L1388 957 L0 957 L0 0 Z"
      /></clipPath
      ><font horiz-adv-x="75.0" id="font1"
      ><font-face ascent="100.53711" descent="21.972656" units-per-em="100" style="font-style:normal; font-family:Dialog; font-weight:normal;"
        /><missing-glyph horiz-adv-x="75.0" d="M12.5 0 L12.5 62.5 L62.5 62.5 L62.5 0 L12.5 0 ZM14.0625 1.5625 L60.9375 1.5625 L60.9375 60.9375 L14.0625 60.9375 L14.0625 1.5625 Z"
        /><glyph unicode="0" horiz-adv-x="55.615234" d="M4.1562 35.2969 Q4.1562 48 6.7656 55.7422 Q9.375 63.4844 14.5234 67.6797 Q19.6719 71.875 27.4844 71.875 Q33.25 71.875 37.5938 69.5547 Q41.9375 67.2344 44.7734 62.8672 Q47.6094 58.5 49.2188 52.2266 Q50.8281 45.9531 50.8281 35.2969 Q50.8281 22.7031 48.2422 14.9688 Q45.6562 7.2344 40.5078 3.0078 Q35.3594 -1.2188 27.4844 -1.2188 Q17.1406 -1.2188 11.2344 6.2031 Q4.1562 15.1406 4.1562 35.2969 ZM13.1875 35.2969 Q13.1875 17.6719 17.3125 11.8359 Q21.4375 6 27.4844 6 Q33.5469 6 37.6719 11.8594 Q41.7969 17.7188 41.7969 35.2969 Q41.7969 52.9844 37.6719 58.7891 Q33.5469 64.5938 27.3906 64.5938 Q21.3438 64.5938 17.7188 59.4688 Q13.1875 52.9375 13.1875 35.2969 Z"
        /><glyph unicode="1" horiz-adv-x="55.615234" d="M37.25 0 L28.4688 0 L28.4688 56 Q25.2969 52.9844 20.1406 49.9531 Q14.9844 46.9219 10.8906 45.4062 L10.8906 53.9062 Q18.2656 57.375 23.7812 62.3047 Q29.2969 67.2344 31.5938 71.875 L37.25 71.875 L37.25 0 Z"
        /><glyph unicode="2" horiz-adv-x="55.615234" d="M50.3438 8.4531 L50.3438 0 L3.0312 0 Q2.9375 3.1719 4.0469 6.1094 Q5.8594 10.9375 9.8359 15.625 Q13.8125 20.3125 21.3438 26.4688 Q33.0156 36.0312 37.1172 41.625 Q41.2188 47.2188 41.2188 52.2031 Q41.2188 57.4219 37.4766 61.0078 Q33.7344 64.5938 27.7344 64.5938 Q21.3906 64.5938 17.5781 60.7891 Q13.7656 56.9844 13.7188 50.25 L4.6875 51.1719 Q5.6094 61.2812 11.6641 66.5781 Q17.7188 71.875 27.9375 71.875 Q38.2344 71.875 44.2422 66.1641 Q50.25 60.4531 50.25 52 Q50.25 47.7031 48.4922 43.5547 Q46.7344 39.4062 42.6562 34.8125 Q38.5781 30.2188 29.1094 22.2188 Q21.1875 15.5781 18.9453 13.2109 Q16.7031 10.8438 15.2344 8.4531 L50.3438 8.4531 Z"
        /><glyph unicode="3" horiz-adv-x="55.615234" d="M4.2031 18.8906 L12.9844 20.0625 Q14.5 12.5938 18.1406 9.2969 Q21.7812 6 27 6 Q33.2031 6 37.4766 10.2969 Q41.75 14.5938 41.75 20.9531 Q41.75 27 37.7969 30.9297 Q33.8438 34.8594 27.7344 34.8594 Q25.25 34.8594 21.5312 33.8906 L22.5156 41.6094 Q23.3906 41.5 23.9219 41.5 Q29.5469 41.5 34.0391 44.4297 Q38.5312 47.3594 38.5312 53.4688 Q38.5312 58.2969 35.2578 61.4766 Q31.9844 64.6562 26.8125 64.6562 Q21.6875 64.6562 18.2656 61.4297 Q14.8438 58.2031 13.875 51.7656 L5.0781 53.3281 Q6.6875 62.1562 12.3984 67.0156 Q18.1094 71.875 26.6094 71.875 Q32.4688 71.875 37.3984 69.3594 Q42.3281 66.8438 44.9453 62.5 Q47.5625 58.1562 47.5625 53.2656 Q47.5625 48.6406 45.0703 44.8281 Q42.5781 41.0156 37.7031 38.7656 Q44.0469 37.3125 47.5625 32.6953 Q51.0781 28.0781 51.0781 21.1406 Q51.0781 11.7656 44.2422 5.25 Q37.4062 -1.2656 26.9531 -1.2656 Q17.5312 -1.2656 11.3047 4.3516 Q5.0781 9.9688 4.2031 18.8906 Z"
        /><glyph unicode="4" horiz-adv-x="55.615234" d="M32.3281 0 L32.3281 17.1406 L1.2656 17.1406 L1.2656 25.2031 L33.9375 71.5781 L41.1094 71.5781 L41.1094 25.2031 L50.7812 25.2031 L50.7812 17.1406 L41.1094 17.1406 L41.1094 0 L32.3281 0 ZM32.3281 25.2031 L32.3281 57.4688 L9.9062 25.2031 L32.3281 25.2031 Z"
        /><glyph unicode="5" horiz-adv-x="55.615234" d="M4.1562 18.75 L13.375 19.5312 Q14.4062 12.7969 18.1406 9.3984 Q21.875 6 27.1562 6 Q33.5 6 37.8906 10.7891 Q42.2812 15.5781 42.2812 23.4844 Q42.2812 31 38.0625 35.3516 Q33.8438 39.7031 27 39.7031 Q22.75 39.7031 19.3359 37.7734 Q15.9219 35.8438 13.9688 32.7656 L5.7188 33.8438 L12.6406 70.6094 L48.25 70.6094 L48.25 62.2031 L19.6719 62.2031 L15.8281 42.9688 Q22.2656 47.4688 29.3438 47.4688 Q38.7188 47.4688 45.1641 40.9688 Q51.6094 34.4688 51.6094 24.2656 Q51.6094 14.5469 45.9531 7.4688 Q39.0625 -1.2188 27.1562 -1.2188 Q17.3906 -1.2188 11.2109 4.25 Q5.0312 9.7188 4.1562 18.75 Z"
        /><glyph unicode="6" horiz-adv-x="55.615234" d="M49.75 54.0469 L41.0156 53.375 Q39.8438 58.5469 37.7031 60.8906 Q34.125 64.6562 28.9062 64.6562 Q24.7031 64.6562 21.5312 62.3125 Q17.3906 59.2812 14.9922 53.4688 Q12.5938 47.6562 12.5 36.9219 Q15.6719 41.75 20.2656 44.0938 Q24.8594 46.4375 29.8906 46.4375 Q38.6719 46.4375 44.8516 39.9688 Q51.0312 33.5 51.0312 23.25 Q51.0312 16.5 48.125 10.7188 Q45.2188 4.9375 40.1406 1.8594 Q35.0625 -1.2188 28.6094 -1.2188 Q17.625 -1.2188 10.6953 6.8594 Q3.7656 14.9375 3.7656 33.5 Q3.7656 54.25 11.4219 63.6719 Q18.1094 71.875 29.4375 71.875 Q37.8906 71.875 43.2891 67.1406 Q48.6875 62.4062 49.75 54.0469 ZM13.875 23.1875 Q13.875 18.6562 15.7969 14.5078 Q17.7188 10.3594 21.1875 8.1797 Q24.6562 6 28.4688 6 Q34.0312 6 38.0391 10.4922 Q42.0469 14.9844 42.0469 22.7031 Q42.0469 30.125 38.0859 34.3984 Q34.125 38.6719 28.125 38.6719 Q22.1719 38.6719 18.0234 34.3984 Q13.875 30.125 13.875 23.1875 Z"
        /><glyph unicode="7" horiz-adv-x="55.615234" d="M4.7344 62.2031 L4.7344 70.6562 L51.0781 70.6562 L51.0781 63.8125 Q44.2344 56.5469 37.5234 44.4844 Q30.8125 32.4219 27.1562 19.6719 Q24.5156 10.6875 23.7812 0 L14.75 0 Q14.8906 8.4531 18.0625 20.4141 Q21.2344 32.375 27.1719 43.4844 Q33.1094 54.5938 39.7969 62.2031 L4.7344 62.2031 Z"
        /><glyph unicode="8" horiz-adv-x="55.615234" d="M17.6719 38.8125 Q12.2031 40.8281 9.5703 44.5391 Q6.9375 48.25 6.9375 53.4219 Q6.9375 61.2344 12.5547 66.5547 Q18.1719 71.875 27.4844 71.875 Q36.8594 71.875 42.5781 66.4297 Q48.2969 60.9844 48.2969 53.1719 Q48.2969 48.1875 45.6797 44.5078 Q43.0625 40.8281 37.75 38.8125 Q44.3438 36.6719 47.7812 31.8828 Q51.2188 27.0938 51.2188 20.4531 Q51.2188 11.2812 44.7266 5.0312 Q38.2344 -1.2188 27.6406 -1.2188 Q17.0469 -1.2188 10.5469 5.0547 Q4.0469 11.3281 4.0469 20.7031 Q4.0469 27.6875 7.5938 32.3984 Q11.1406 37.1094 17.6719 38.8125 ZM15.9219 53.7188 Q15.9219 48.6406 19.1953 45.4141 Q22.4688 42.1875 27.6875 42.1875 Q32.7656 42.1875 36.0156 45.3828 Q39.2656 48.5781 39.2656 53.2188 Q39.2656 58.0625 35.9141 61.3594 Q32.5625 64.6562 27.5938 64.6562 Q22.5625 64.6562 19.2422 61.4297 Q15.9219 58.2031 15.9219 53.7188 ZM13.0938 20.6562 Q13.0938 16.8906 14.875 13.375 Q16.6562 9.8594 20.1719 7.9297 Q23.6875 6 27.7344 6 Q34.0312 6 38.1328 10.0547 Q42.2344 14.1094 42.2344 20.3594 Q42.2344 26.7031 38.0156 30.8594 Q33.7969 35.0156 27.4375 35.0156 Q21.2344 35.0156 17.1641 30.9141 Q13.0938 26.8125 13.0938 20.6562 Z"
        /><glyph unicode="9" horiz-adv-x="55.615234" d="M5.4688 16.5469 L13.9219 17.3281 Q14.9844 11.375 18.0156 8.6875 Q21.0469 6 25.7812 6 Q29.8281 6 32.8828 7.8594 Q35.9375 9.7188 37.8906 12.8203 Q39.8438 15.9219 41.1641 21.1953 Q42.4844 26.4688 42.4844 31.9375 Q42.4844 32.5156 42.4375 33.6875 Q39.7969 29.5 35.2344 26.8828 Q30.6719 24.2656 25.3438 24.2656 Q16.4531 24.2656 10.3047 30.7109 Q4.1562 37.1562 4.1562 47.7031 Q4.1562 58.5938 10.5781 65.2344 Q17 71.875 26.6562 71.875 Q33.6406 71.875 39.4297 68.1172 Q45.2188 64.3594 48.2188 57.3984 Q51.2188 50.4375 51.2188 37.25 Q51.2188 23.5312 48.2422 15.4062 Q45.2656 7.2812 39.3828 3.0312 Q33.5 -1.2188 25.5938 -1.2188 Q17.1875 -1.2188 11.8672 3.4453 Q6.5469 8.1094 5.4688 16.5469 ZM41.4531 48.1406 Q41.4531 55.7188 37.4297 60.1562 Q33.4062 64.5938 27.7344 64.5938 Q21.875 64.5938 17.5312 59.8125 Q13.1875 55.0312 13.1875 47.4062 Q13.1875 40.5781 17.3125 36.3047 Q21.4375 32.0312 27.4844 32.0312 Q33.5938 32.0312 37.5234 36.3047 Q41.4531 40.5781 41.4531 48.1406 Z"
        /><glyph unicode="]" horiz-adv-x="27.783203" d="M21.2969 -19.875 L1.9062 -19.875 L1.9062 -12.5938 L12.5 -12.5938 L12.5 64.3125 L1.9062 64.3125 L1.9062 71.5781 L21.2969 71.5781 L21.2969 -19.875 Z"
        /><glyph unicode="z" horiz-adv-x="50.0" d="M1.9531 0 L1.9531 7.125 L34.9688 45.0156 Q29.3438 44.7344 25.0469 44.7344 L3.9062 44.7344 L3.9062 51.8594 L46.2969 51.8594 L46.2969 46.0469 L18.2188 13.1406 L12.7969 7.125 Q18.7031 7.5625 23.875 7.5625 L47.8594 7.5625 L47.8594 0 L1.9531 0 Z"
        /><glyph unicode="H" horiz-adv-x="72.2168" d="M8.0156 0 L8.0156 71.5781 L17.4844 71.5781 L17.4844 42.1875 L54.6875 42.1875 L54.6875 71.5781 L64.1562 71.5781 L64.1562 0 L54.6875 0 L54.6875 33.7344 L17.4844 33.7344 L17.4844 0 L8.0156 0 Z"
        /><glyph unicode="[" horiz-adv-x="27.783203" d="M6.7812 -19.875 L6.7812 71.5781 L26.1719 71.5781 L26.1719 64.3125 L15.5781 64.3125 L15.5781 -12.5938 L26.1719 -12.5938 L26.1719 -19.875 L6.7812 -19.875 Z"
        /><glyph unicode=" " horiz-adv-x="27.783203" d=""
        /><glyph unicode="s" horiz-adv-x="50.0" d="M3.0781 15.4844 L11.7656 16.8438 Q12.5 11.625 15.8438 8.8438 Q19.1875 6.0625 25.2031 6.0625 Q31.25 6.0625 34.1797 8.5234 Q37.1094 10.9844 37.1094 14.3125 Q37.1094 17.2812 34.5156 19 Q32.7188 20.1719 25.5312 21.9688 Q15.875 24.4219 12.1406 26.2031 Q8.4062 27.9844 6.4766 31.1328 Q4.5469 34.2812 4.5469 38.0938 Q4.5469 41.5469 6.1328 44.5078 Q7.7188 47.4688 10.4531 49.4219 Q12.5 50.9219 16.0391 51.9766 Q19.5781 53.0312 23.6406 53.0312 Q29.7344 53.0312 34.3516 51.2734 Q38.9688 49.5156 41.1641 46.5078 Q43.3594 43.5 44.1875 38.4844 L35.5938 37.3125 Q35.0156 41.3125 32.2031 43.5547 Q29.3906 45.7969 24.2656 45.7969 Q18.2188 45.7969 15.625 43.7969 Q13.0312 41.7969 13.0312 39.1094 Q13.0312 37.4062 14.1094 36.0312 Q15.1875 34.625 17.4844 33.6875 Q18.7969 33.2031 25.25 31.4531 Q34.5781 28.9531 38.2578 27.3672 Q41.9375 25.7812 44.0391 22.7578 Q46.1406 19.7344 46.1406 15.2344 Q46.1406 10.8438 43.5781 6.9609 Q41.0156 3.0781 36.1797 0.9531 Q31.3438 -1.1719 25.25 -1.1719 Q15.1406 -1.1719 9.8438 3.0312 Q4.5469 7.2344 3.0781 15.4844 Z"
        /><glyph unicode="i" horiz-adv-x="22.216797" d="M6.6406 61.4688 L6.6406 71.5781 L15.4375 71.5781 L15.4375 61.4688 L6.6406 61.4688 ZM6.6406 0 L6.6406 51.8594 L15.4375 51.8594 L15.4375 0 L6.6406 0 Z"
        /><glyph unicode="c" horiz-adv-x="50.0" d="M40.4375 19 L49.0781 17.875 Q47.6562 8.9375 41.8203 3.8828 Q35.9844 -1.1719 27.4844 -1.1719 Q16.8438 -1.1719 10.375 5.7891 Q3.9062 12.75 3.9062 25.7344 Q3.9062 34.125 6.6875 40.4297 Q9.4688 46.7344 15.1562 49.8828 Q20.8438 53.0312 27.5469 53.0312 Q35.9844 53.0312 41.3594 48.7578 Q46.7344 44.4844 48.25 36.625 L39.7031 35.2969 Q38.4844 40.5312 35.3828 43.1641 Q32.2812 45.7969 27.875 45.7969 Q21.2344 45.7969 17.0859 41.0391 Q12.9375 36.2812 12.9375 25.9844 Q12.9375 15.5312 16.9453 10.7969 Q20.9531 6.0625 27.3906 6.0625 Q32.5625 6.0625 36.0312 9.2344 Q39.5 12.4062 40.4375 19 Z"
        /><glyph unicode="n" horiz-adv-x="55.615234" d="M6.5938 0 L6.5938 51.8594 L14.5 51.8594 L14.5 44.4844 Q20.2188 53.0312 31 53.0312 Q35.6875 53.0312 39.625 51.3438 Q43.5625 49.6562 45.5156 46.9219 Q47.4688 44.1875 48.25 40.4375 Q48.7344 37.9844 48.7344 31.8906 L48.7344 0 L39.9375 0 L39.9375 31.5469 Q39.9375 36.9219 38.9141 39.5781 Q37.8906 42.2344 35.2812 43.8203 Q32.6719 45.4062 29.1562 45.4062 Q23.5312 45.4062 19.4531 41.8438 Q15.375 38.2812 15.375 28.3281 L15.375 0 L6.5938 0 Z"
        /><glyph unicode="u" horiz-adv-x="55.615234" d="M40.5781 0 L40.5781 7.625 Q34.5156 -1.1719 24.125 -1.1719 Q19.5312 -1.1719 15.5547 0.5859 Q11.5781 2.3438 9.6484 5.0078 Q7.7188 7.6719 6.9375 11.5312 Q6.3906 14.1094 6.3906 19.7344 L6.3906 51.8594 L15.1875 51.8594 L15.1875 23.0938 Q15.1875 16.2188 15.7188 13.8125 Q16.5469 10.3594 19.2344 8.375 Q21.9219 6.3906 25.875 6.3906 Q29.8281 6.3906 33.2969 8.4219 Q36.7656 10.4531 38.2109 13.9453 Q39.6562 17.4375 39.6562 24.0781 L39.6562 51.8594 L48.4375 51.8594 L48.4375 0 L40.5781 0 Z"
        /><glyph unicode="q" horiz-adv-x="55.615234" d="M39.6562 -19.875 L39.6562 5.5156 Q37.5938 2.6406 33.9062 0.7344 Q30.2188 -1.1719 26.0781 -1.1719 Q16.8438 -1.1719 10.1797 6.2031 Q3.5156 13.5781 3.5156 26.4219 Q3.5156 34.2344 6.2266 40.4297 Q8.9375 46.625 14.0859 49.8281 Q19.2344 53.0312 25.3906 53.0312 Q35.0156 53.0312 40.5312 44.9219 L40.5312 51.8594 L48.4375 51.8594 L48.4375 -19.875 L39.6562 -19.875 ZM12.5469 26.0781 Q12.5469 16.0625 16.75 11.0625 Q20.9531 6.0625 26.8125 6.0625 Q32.4219 6.0625 36.4766 10.8203 Q40.5312 15.5781 40.5312 25.2969 Q40.5312 35.6406 36.2578 40.8672 Q31.9844 46.0938 26.2188 46.0938 Q20.5156 46.0938 16.5312 41.2344 Q12.5469 36.375 12.5469 26.0781 Z"
        /><glyph unicode="e" horiz-adv-x="55.615234" d="M42.0938 16.7031 L51.1719 15.5781 Q49.0312 7.625 43.2188 3.2266 Q37.4062 -1.1719 28.375 -1.1719 Q17 -1.1719 10.3281 5.8359 Q3.6562 12.8438 3.6562 25.4844 Q3.6562 38.5781 10.3984 45.8047 Q17.1406 53.0312 27.875 53.0312 Q38.2812 53.0312 44.875 45.9531 Q51.4688 38.875 51.4688 26.0312 Q51.4688 25.25 51.4219 23.6875 L12.75 23.6875 Q13.2344 15.1406 17.5781 10.6016 Q21.9219 6.0625 28.4219 6.0625 Q33.25 6.0625 36.6719 8.6016 Q40.0938 11.1406 42.0938 16.7031 ZM13.2344 30.9062 L42.1875 30.9062 Q41.6094 37.4531 38.875 40.7188 Q34.6719 45.7969 27.9844 45.7969 Q21.9219 45.7969 17.7969 41.75 Q13.6719 37.7031 13.2344 30.9062 Z"
        /><glyph unicode="r" horiz-adv-x="33.30078" d="M6.5 0 L6.5 51.8594 L14.4062 51.8594 L14.4062 44 Q17.4375 49.5156 20 51.2734 Q22.5625 53.0312 25.6406 53.0312 Q30.0781 53.0312 34.6719 50.2031 L31.6406 42.0469 Q28.4219 43.9531 25.2031 43.9531 Q22.3125 43.9531 20.0156 42.2188 Q17.7188 40.4844 16.75 37.4062 Q15.2812 32.7188 15.2812 27.1562 L15.2812 0 L6.5 0 Z"
        /><glyph unicode="F" horiz-adv-x="61.083984" d="M8.2031 0 L8.2031 71.5781 L56.5 71.5781 L56.5 63.1406 L17.6719 63.1406 L17.6719 40.9688 L51.2656 40.9688 L51.2656 32.5156 L17.6719 32.5156 L17.6719 0 L8.2031 0 Z"
        /><glyph unicode="." horiz-adv-x="27.783203" d="M9.0781 0 L9.0781 10.0156 L19.0938 10.0156 L19.0938 0 L9.0781 0 Z"
      /></font
      ><font horiz-adv-x="75.0" id="font2"
      ><font-face ascent="65.42969" descent="22.558594" units-per-em="100" style="font-style:normal; font-family:mwb_cmsy10; font-weight:normal;"
        /><missing-glyph horiz-adv-x="75.0" d="M12.5 0 L12.5 62.5 L62.5 62.5 L62.5 0 L12.5 0 ZM60.8906 1.6094 L60.8906 60.8906 L14.1094 60.8906 L14.1094 1.6094 L60.8906 1.6094 Z"
        /><glyph unicode="#" horiz-adv-x="77.68555" d="M14.7031 2.875 Q14.7031 3.6562 15.1875 4.2969 L35.9844 25 L15.1875 45.7969 Q14.7031 46.2969 14.7031 47.125 Q14.7031 47.8594 15.2891 48.4922 Q15.875 49.125 16.7031 49.125 Q17.3906 49.125 18.2188 48.4844 L38.9219 27.7812 L59.5156 48.4844 Q60.3594 49.125 60.9844 49.125 Q61.8125 49.125 62.3984 48.5391 Q62.9844 47.9531 62.9844 47.125 Q62.9844 46.2969 62.5 45.7969 L41.7031 25 L62.5 4.2969 Q62.9844 3.6562 62.9844 2.875 Q62.9844 2.0469 62.3984 1.4609 Q61.8125 0.875 60.9844 0.875 Q60.25 0.875 59.5156 1.6094 L38.9219 22.2188 L18.2188 1.6094 Q17.4844 0.875 16.7031 0.875 Q15.875 0.875 15.2891 1.5156 Q14.7031 2.1562 14.7031 2.875 Z"
      /></font
      ><font horiz-adv-x="75.0" id="font3"
      ><font-face ascent="100.53711" descent="21.972656" units-per-em="100" style="font-style:normal; font-family:Dialog; font-weight:bold;"
        /><missing-glyph horiz-adv-x="75.0" d="M12.5 0 L12.5 62.5 L62.5 62.5 L62.5 0 L12.5 0 ZM14.0625 1.5625 L60.9375 1.5625 L60.9375 60.9375 L14.0625 60.9375 L14.0625 1.5625 Z"
        /><glyph unicode="t" horiz-adv-x="33.30078" d="M30.9531 51.8594 L30.9531 40.9219 L21.5781 40.9219 L21.5781 20.0156 Q21.5781 13.6719 21.8516 12.625 Q22.125 11.5781 23.0781 10.8906 Q24.0312 10.2031 25.3906 10.2031 Q27.2969 10.2031 30.9062 11.5312 L32.0781 0.875 Q27.2969 -1.1719 21.2344 -1.1719 Q17.5312 -1.1719 14.5547 0.0703 Q11.5781 1.3125 10.1875 3.2969 Q8.7969 5.2812 8.25 8.6406 Q7.8125 11.0312 7.8125 18.3125 L7.8125 40.9219 L1.5156 40.9219 L1.5156 51.8594 L7.8125 51.8594 L7.8125 62.1562 L21.5781 70.1719 L21.5781 51.8594 L30.9531 51.8594 Z"
        /><glyph unicode="l" horiz-adv-x="27.783203" d="M7.1719 0 L7.1719 71.5781 L20.9062 71.5781 L20.9062 0 L7.1719 0 Z"
        /><glyph unicode="c" horiz-adv-x="55.615234" d="M52.3906 36.5312 L38.875 34.0781 Q38.1875 38.1406 35.7656 40.1875 Q33.3438 42.2344 29.5 42.2344 Q24.3594 42.2344 21.3125 38.6953 Q18.2656 35.1562 18.2656 26.8594 Q18.2656 17.625 21.3672 13.8203 Q24.4688 10.0156 29.6875 10.0156 Q33.5938 10.0156 36.0859 12.2344 Q38.5781 14.4531 39.5938 19.875 L53.0781 17.5781 Q50.9844 8.2969 45.0234 3.5625 Q39.0625 -1.1719 29.0469 -1.1719 Q17.6719 -1.1719 10.9141 6.0078 Q4.1562 13.1875 4.1562 25.875 Q4.1562 38.7188 10.9375 45.875 Q17.7188 53.0312 29.2969 53.0312 Q38.7656 53.0312 44.3594 48.9531 Q49.9531 44.875 52.3906 36.5312 Z"
        /><glyph unicode="n" horiz-adv-x="61.083984" d="M54.3438 0 L40.625 0 L40.625 26.4688 Q40.625 34.8594 39.75 37.3281 Q38.875 39.7969 36.8906 41.1641 Q34.9062 42.5312 32.125 42.5312 Q28.5625 42.5312 25.7344 40.5781 Q22.9062 38.625 21.8516 35.3984 Q20.7969 32.1719 20.7969 23.4844 L20.7969 0 L7.0781 0 L7.0781 51.8594 L19.8281 51.8594 L19.8281 44.2344 Q26.6094 53.0312 36.9219 53.0312 Q41.4531 53.0312 45.2109 51.3906 Q48.9688 49.75 50.8984 47.2109 Q52.8281 44.6719 53.5859 41.4531 Q54.3438 38.2344 54.3438 32.2344 L54.3438 0 Z"
        /><glyph unicode="u" horiz-adv-x="61.083984" d="M41.3125 0 L41.3125 7.7656 Q38.4844 3.6094 33.8672 1.2188 Q29.25 -1.1719 24.125 -1.1719 Q18.8906 -1.1719 14.7422 1.125 Q10.5938 3.4219 8.7422 7.5703 Q6.8906 11.7188 6.8906 19.0469 L6.8906 51.8594 L20.6094 51.8594 L20.6094 28.0312 Q20.6094 17.0938 21.3672 14.625 Q22.125 12.1562 24.125 10.7188 Q26.125 9.2812 29.2031 9.2812 Q32.7188 9.2812 35.5 11.2109 Q38.2812 13.1406 39.3047 15.9922 Q40.3281 18.8438 40.3281 29.9844 L40.3281 51.8594 L54.0469 51.8594 L54.0469 0 L41.3125 0 Z"
        /><glyph unicode="x" horiz-adv-x="55.615234" d="M0.5938 0 L19.2812 26.7031 L1.375 51.8594 L18.1094 51.8594 L27.2969 37.5938 L36.9688 51.8594 L53.0781 51.8594 L35.5 27.2969 L54.6875 0 L37.8438 0 L27.2969 16.0625 L16.6562 0 L0.5938 0 Z"
        /><glyph unicode="m" horiz-adv-x="88.916016" d="M6.1562 51.8594 L18.7969 51.8594 L18.7969 44.7812 Q25.5938 53.0312 34.9688 53.0312 Q39.9375 53.0312 43.6016 50.9766 Q47.2656 48.9219 49.6094 44.7812 Q53.0312 48.9219 56.9844 50.9766 Q60.9375 53.0312 65.4375 53.0312 Q71.1406 53.0312 75.0938 50.7109 Q79.0469 48.3906 81 43.8906 Q82.4219 40.5781 82.4219 33.1562 L82.4219 0 L68.7031 0 L68.7031 29.6406 Q68.7031 37.3594 67.2812 39.5938 Q65.375 42.5312 61.4219 42.5312 Q58.5469 42.5312 56.0078 40.7734 Q53.4688 39.0156 52.3438 35.625 Q51.2188 32.2344 51.2188 24.9062 L51.2188 0 L37.5 0 L37.5 28.4219 Q37.5 35.9844 36.7656 38.1797 Q36.0312 40.375 34.4922 41.4531 Q32.9531 42.5312 30.3281 42.5312 Q27.1562 42.5312 24.6172 40.8203 Q22.0781 39.1094 20.9766 35.8906 Q19.875 32.6719 19.875 25.2031 L19.875 0 L6.1562 0 L6.1562 51.8594 Z"
        /><glyph unicode="y" horiz-adv-x="55.615234" d="M0.6875 51.8594 L15.2812 51.8594 L27.6875 15.0469 L39.7969 51.8594 L54 51.8594 L35.6875 1.9531 L32.4219 -7.0781 Q30.6094 -11.625 28.9766 -14.0156 Q27.3438 -16.4062 25.2188 -17.8984 Q23.0938 -19.3906 19.9922 -20.2188 Q16.8906 -21.0469 12.9844 -21.0469 Q9.0312 -21.0469 5.2188 -20.2188 L4 -9.4688 Q7.2344 -10.1094 9.8125 -10.1094 Q14.5938 -10.1094 16.8906 -7.3047 Q19.1875 -4.5 20.4062 -0.1406 L0.6875 51.8594 Z"
        /><glyph unicode="b" horiz-adv-x="61.083984" d="M6.5938 0 L6.5938 71.5781 L20.3125 71.5781 L20.3125 45.7969 Q26.6562 53.0312 35.3594 53.0312 Q44.8281 53.0312 51.0312 46.1719 Q57.2344 39.3125 57.2344 26.4688 Q57.2344 13.1875 50.9062 6.0078 Q44.5781 -1.1719 35.5469 -1.1719 Q31.1094 -1.1719 26.7891 1.0469 Q22.4688 3.2656 19.3438 7.625 L19.3438 0 L6.5938 0 ZM20.2188 27.0469 Q20.2188 19 22.75 15.1406 Q26.3125 9.6719 32.2344 9.6719 Q36.7656 9.6719 39.9688 13.5547 Q43.1719 17.4375 43.1719 25.7812 Q43.1719 34.6719 39.9453 38.6016 Q36.7188 42.5312 31.6875 42.5312 Q26.7656 42.5312 23.4922 38.6953 Q20.2188 34.8594 20.2188 27.0469 Z"
        /><glyph unicode="i" horiz-adv-x="27.783203" d="M7.1719 58.8906 L7.1719 71.5781 L20.9062 71.5781 L20.9062 58.8906 L7.1719 58.8906 ZM7.1719 0 L7.1719 51.8594 L20.9062 51.8594 L20.9062 0 L7.1719 0 Z"
        /><glyph unicode="d" horiz-adv-x="61.083984" d="M54.7344 0 L42 0 L42 7.625 Q38.8125 3.1719 34.4922 1 Q30.1719 -1.1719 25.7812 -1.1719 Q16.8438 -1.1719 10.4766 6.0312 Q4.1094 13.2344 4.1094 26.125 Q4.1094 39.3125 10.3047 46.1719 Q16.5 53.0312 25.9844 53.0312 Q34.6719 53.0312 41.0156 45.7969 L41.0156 71.5781 L54.7344 71.5781 L54.7344 0 ZM18.1094 27.0469 Q18.1094 18.75 20.4062 15.0469 Q23.7344 9.6719 29.6875 9.6719 Q34.4219 9.6719 37.7422 13.6953 Q41.0625 17.7188 41.0625 25.7344 Q41.0625 34.6719 37.8438 38.6016 Q34.625 42.5312 29.5938 42.5312 Q24.7031 42.5312 21.4062 38.6484 Q18.1094 34.7656 18.1094 27.0469 Z"
        /><glyph unicode="w" horiz-adv-x="77.7832" d="M16.8438 0 L0.4375 51.8594 L13.7656 51.8594 L23.4844 17.875 L32.4219 51.8594 L45.6562 51.8594 L54.2969 17.875 L64.2031 51.8594 L77.7344 51.8594 L61.0781 0 L47.9062 0 L38.9688 33.3438 L30.1719 0 L16.8438 0 Z"
        /><glyph unicode="o" horiz-adv-x="61.083984" d="M4 26.6562 Q4 33.5 7.375 39.8984 Q10.75 46.2969 16.9219 49.6641 Q23.0938 53.0312 30.7188 53.0312 Q42.4844 53.0312 50 45.3906 Q57.5156 37.75 57.5156 26.0781 Q57.5156 14.3125 49.9219 6.5703 Q42.3281 -1.1719 30.8125 -1.1719 Q23.6875 -1.1719 17.2188 2.0547 Q10.75 5.2812 7.375 11.5 Q4 17.7188 4 26.6562 ZM18.0625 25.9219 Q18.0625 18.2188 21.7266 14.1172 Q25.3906 10.0156 30.7656 10.0156 Q36.1406 10.0156 39.7734 14.1172 Q43.4062 18.2188 43.4062 26.0312 Q43.4062 33.6406 39.7734 37.7422 Q36.1406 41.8438 30.7656 41.8438 Q25.3906 41.8438 21.7266 37.7422 Q18.0625 33.6406 18.0625 25.9219 Z"
        /><glyph unicode="p" horiz-adv-x="61.083984" d="M6.7812 51.8594 L19.5781 51.8594 L19.5781 44.2344 Q22.0781 48.1406 26.3203 50.5859 Q30.5625 53.0312 35.75 53.0312 Q44.7812 53.0312 51.0781 45.9531 Q57.375 38.875 57.375 26.2188 Q57.375 13.2344 51.0234 6.0312 Q44.6719 -1.1719 35.6406 -1.1719 Q31.3438 -1.1719 27.8516 0.5391 Q24.3594 2.25 20.5156 6.3906 L20.5156 -19.7344 L6.7812 -19.7344 L6.7812 51.8594 ZM20.3594 26.8125 Q20.3594 18.0625 23.8281 13.8906 Q27.2969 9.7188 32.2812 9.7188 Q37.0625 9.7188 40.2344 13.5547 Q43.4062 17.3906 43.4062 26.125 Q43.4062 34.2812 40.1328 38.2344 Q36.8594 42.1875 32.0312 42.1875 Q27 42.1875 23.6797 38.3047 Q20.3594 34.4219 20.3594 26.8125 Z"
        /><glyph unicode=" " horiz-adv-x="27.783203" d=""
        /><glyph unicode="g" horiz-adv-x="61.083984" d="M5.9062 -3.4219 L21.5781 -5.3281 Q21.9688 -8.0625 23.3906 -9.0781 Q25.3438 -10.5469 29.5469 -10.5469 Q34.9062 -10.5469 37.5938 -8.9375 Q39.4062 -7.8594 40.3281 -5.4688 Q40.9688 -3.7656 40.9688 0.8281 L40.9688 8.4062 Q34.8125 0 25.4375 0 Q14.9844 0 8.8906 8.8438 Q4.1094 15.8281 4.1094 26.2188 Q4.1094 39.2656 10.3828 46.1484 Q16.6562 53.0312 25.9844 53.0312 Q35.5938 53.0312 41.8438 44.5781 L41.8438 51.8594 L54.6875 51.8594 L54.6875 5.3281 Q54.6875 -3.8594 53.1719 -8.3984 Q51.6562 -12.9375 48.9219 -15.5234 Q46.1875 -18.1094 41.625 -19.5781 Q37.0625 -21.0469 30.0781 -21.0469 Q16.8906 -21.0469 11.375 -16.5312 Q5.8594 -12.0156 5.8594 -5.0781 Q5.8594 -4.3906 5.9062 -3.4219 ZM18.1719 27 Q18.1719 18.75 21.3672 14.9141 Q24.5625 11.0781 29.25 11.0781 Q34.2812 11.0781 37.75 15.0156 Q41.2188 18.9531 41.2188 26.6562 Q41.2188 34.7188 37.8984 38.625 Q34.5781 42.5312 29.5 42.5312 Q24.5625 42.5312 21.3672 38.6953 Q18.1719 34.8594 18.1719 27 Z"
        /><glyph unicode="a" horiz-adv-x="55.615234" d="M17.4375 36.0312 L4.9844 38.2812 Q7.0781 45.7969 12.2031 49.4141 Q17.3281 53.0312 27.4375 53.0312 Q36.625 53.0312 41.1172 50.8594 Q45.6094 48.6875 47.4375 45.3438 Q49.2656 42 49.2656 33.0625 L49.125 17.0469 Q49.125 10.2031 49.7812 6.9609 Q50.4375 3.7188 52.25 0 L38.6719 0 Q38.1406 1.375 37.3594 4.0469 Q37.0156 5.2812 36.8594 5.6719 Q33.3438 2.25 29.3438 0.5391 Q25.3438 -1.1719 20.7969 -1.1719 Q12.7969 -1.1719 8.1797 3.1719 Q3.5625 7.5156 3.5625 14.1562 Q3.5625 18.5625 5.6641 22 Q7.7656 25.4375 11.5469 27.2734 Q15.3281 29.1094 22.4688 30.4688 Q32.0781 32.2812 35.7969 33.8438 L35.7969 35.2031 Q35.7969 39.1562 33.8438 40.8438 Q31.8906 42.5312 26.4688 42.5312 Q22.7969 42.5312 20.75 41.0938 Q18.7031 39.6562 17.4375 36.0312 ZM35.7969 24.9062 Q33.1562 24.0312 27.4453 22.8047 Q21.7344 21.5781 19.9688 20.4062 Q17.2812 18.5 17.2812 15.5781 Q17.2812 12.7031 19.4297 10.6016 Q21.5781 8.5 24.9062 8.5 Q28.6094 8.5 31.9844 10.9375 Q34.4688 12.7969 35.25 15.4844 Q35.7969 17.2344 35.7969 22.1719 L35.7969 24.9062 Z"
        /><glyph unicode="r" horiz-adv-x="38.916016" d="M20.3125 0 L6.5938 0 L6.5938 51.8594 L19.3438 51.8594 L19.3438 44.4844 Q22.6094 49.7031 25.2188 51.3672 Q27.8281 53.0312 31.1562 53.0312 Q35.8438 53.0312 40.1875 50.4375 L35.9375 38.4844 Q32.4688 40.7188 29.5 40.7188 Q26.6094 40.7188 24.6094 39.1328 Q22.6094 37.5469 21.4609 33.3984 Q20.3125 29.25 20.3125 16.0156 L20.3125 0 Z"
        /><glyph unicode="e" horiz-adv-x="55.615234" d="M37.2031 16.5 L50.875 14.2031 Q48.25 6.6875 42.5547 2.7578 Q36.8594 -1.1719 28.3281 -1.1719 Q14.7969 -1.1719 8.2969 7.6719 Q3.1719 14.75 3.1719 25.5312 Q3.1719 38.4219 9.9141 45.7266 Q16.6562 53.0312 26.9531 53.0312 Q38.5312 53.0312 45.2188 45.3906 Q51.9062 37.75 51.6094 21.9688 L17.2344 21.9688 Q17.3906 15.875 20.5625 12.4766 Q23.7344 9.0781 28.4688 9.0781 Q31.6875 9.0781 33.8828 10.8359 Q36.0781 12.5938 37.2031 16.5 ZM37.9844 30.375 Q37.8438 36.3281 34.9141 39.4297 Q31.9844 42.5312 27.7812 42.5312 Q23.2969 42.5312 20.3594 39.2656 Q17.4375 35.9844 17.4844 30.375 L37.9844 30.375 Z"
        /><glyph unicode="v" horiz-adv-x="55.615234" d="M21.4375 0 L0.5312 51.8594 L14.9375 51.8594 L24.7031 25.3906 L27.5469 16.5469 Q28.6562 19.9219 28.9531 21 Q29.6406 23.1875 30.4219 25.3906 L40.2812 51.8594 L54.3906 51.8594 L33.7969 0 L21.4375 0 Z"
        /><glyph unicode="A" horiz-adv-x="72.2168" d="M71.8281 0 L56.1094 0 L49.8594 16.2656 L21.2344 16.2656 L15.3281 0 L0 0 L27.875 71.5781 L43.1719 71.5781 L71.8281 0 ZM45.2188 28.3281 L35.3594 54.8906 L25.6875 28.3281 L45.2188 28.3281 Z"
      /></font
    ></defs
    ><g style="fill:white; stroke:white;"
    ><rect x="0" y="0" width="1388" style="clip-path:url(#clipPath1); stroke:none;" height="957"
    /></g
    ><g style="fill:white; text-rendering:optimizeSpeed; color-rendering:optimizeSpeed; image-rendering:optimizeSpeed; shape-rendering:crispEdges; stroke:white; color-interpolation:sRGB;"
    ><rect x="0" width="1388" height="957" y="0" style="stroke:none;"
      /><path style="stroke:none;" d="M181 852 L1257 852 L1257 72 L181 72 Z"
    /></g
    ><g style="fill-opacity:0.251; color-rendering:optimizeQuality; color-interpolation:linearRGB; text-rendering:geometricPrecision; stroke:rgb(26,26,26); stroke-linecap:butt; stroke-miterlimit:1; stroke-opacity:0.251; fill:rgb(26,26,26); stroke-dasharray:1,3; stroke-width:0.8333; stroke-linejoin:bevel; image-rendering:optimizeQuality;"
    ><line y2="72" style="fill:none;" x1="181" x2="181" y1="852"
      /><line y2="72" style="fill:none;" x1="191.76" x2="191.76" y1="852"
      /><line y2="72" style="fill:none;" x1="202.52" x2="202.52" y1="852"
      /><line y2="72" style="fill:none;" x1="213.28" x2="213.28" y1="852"
      /><line y2="72" style="fill:none;" x1="224.04" x2="224.04" y1="852"
      /><line y2="72" style="fill:none;" x1="234.8" x2="234.8" y1="852"
      /><line y2="72" style="fill:none;" x1="245.56" x2="245.56" y1="852"
      /><line y2="72" style="fill:none;" x1="256.32" x2="256.32" y1="852"
      /><line y2="72" style="fill:none;" x1="267.08" x2="267.08" y1="852"
      /><line y2="72" style="fill:none;" x1="277.84" x2="277.84" y1="852"
      /><line y2="72" style="fill:none;" x1="288.6" x2="288.6" y1="852"
      /><line y2="72" style="fill:none;" x1="299.36" x2="299.36" y1="852"
      /><line y2="72" style="fill:none;" x1="310.12" x2="310.12" y1="852"
      /><line y2="72" style="fill:none;" x1="320.88" x2="320.88" y1="852"
      /><line y2="72" style="fill:none;" x1="331.64" x2="331.64" y1="852"
      /><line y2="72" style="fill:none;" x1="342.4" x2="342.4" y1="852"
      /><line y2="72" style="fill:none;" x1="353.16" x2="353.16" y1="852"
      /><line y2="72" style="fill:none;" x1="363.92" x2="363.92" y1="852"
      /><line y2="72" style="fill:none;" x1="374.68" x2="374.68" y1="852"
      /><line y2="72" style="fill:none;" x1="385.44" x2="385.44" y1="852"
      /><line y2="72" style="fill:none;" x1="396.2" x2="396.2" y1="852"
      /><line y2="72" style="fill:none;" x1="406.96" x2="406.96" y1="852"
      /><line y2="72" style="fill:none;" x1="417.72" x2="417.72" y1="852"
      /><line y2="72" style="fill:none;" x1="428.48" x2="428.48" y1="852"
      /><line y2="72" style="fill:none;" x1="439.24" x2="439.24" y1="852"
      /><line y2="72" style="fill:none;" x1="450" x2="450" y1="852"
      /><line y2="72" style="fill:none;" x1="460.76" x2="460.76" y1="852"
      /><line y2="72" style="fill:none;" x1="471.52" x2="471.52" y1="852"
      /><line y2="72" style="fill:none;" x1="482.28" x2="482.28" y1="852"
      /><line y2="72" style="fill:none;" x1="493.04" x2="493.04" y1="852"
      /><line y2="72" style="fill:none;" x1="503.8" x2="503.8" y1="852"
      /><line y2="72" style="fill:none;" x1="514.56" x2="514.56" y1="852"
      /><line y2="72" style="fill:none;" x1="525.32" x2="525.32" y1="852"
      /><line y2="72" style="fill:none;" x1="536.08" x2="536.08" y1="852"
      /><line y2="72" style="fill:none;" x1="546.84" x2="546.84" y1="852"
      /><line y2="72" style="fill:none;" x1="557.6" x2="557.6" y1="852"
      /><line y2="72" style="fill:none;" x1="568.36" x2="568.36" y1="852"
      /><line y2="72" style="fill:none;" x1="579.12" x2="579.12" y1="852"
      /><line y2="72" style="fill:none;" x1="589.88" x2="589.88" y1="852"
      /><line y2="72" style="fill:none;" x1="600.64" x2="600.64" y1="852"
      /><line y2="72" style="fill:none;" x1="611.4" x2="611.4" y1="852"
      /><line y2="72" style="fill:none;" x1="622.16" x2="622.16" y1="852"
      /><line y2="72" style="fill:none;" x1="632.92" x2="632.92" y1="852"
      /><line y2="72" style="fill:none;" x1="643.68" x2="643.68" y1="852"
      /><line y2="72" style="fill:none;" x1="654.44" x2="654.44" y1="852"
      /><line y2="72" style="fill:none;" x1="665.2" x2="665.2" y1="852"
      /><line y2="72" style="fill:none;" x1="675.96" x2="675.96" y1="852"
      /><line y2="72" style="fill:none;" x1="686.72" x2="686.72" y1="852"
      /><line y2="72" style="fill:none;" x1="697.48" x2="697.48" y1="852"
      /><line y2="72" style="fill:none;" x1="708.24" x2="708.24" y1="852"
      /><line y2="72" style="fill:none;" x1="719" x2="719" y1="852"
      /><line y2="72" style="fill:none;" x1="729.76" x2="729.76" y1="852"
      /><line y2="72" style="fill:none;" x1="740.52" x2="740.52" y1="852"
      /><line y2="72" style="fill:none;" x1="751.28" x2="751.28" y1="852"
      /><line y2="72" style="fill:none;" x1="762.04" x2="762.04" y1="852"
      /><line y2="72" style="fill:none;" x1="772.8" x2="772.8" y1="852"
      /><line y2="72" style="fill:none;" x1="783.56" x2="783.56" y1="852"
      /><line y2="72" style="fill:none;" x1="794.32" x2="794.32" y1="852"
      /><line y2="72" style="fill:none;" x1="805.08" x2="805.08" y1="852"
      /><line y2="72" style="fill:none;" x1="815.84" x2="815.84" y1="852"
      /><line y2="72" style="fill:none;" x1="826.6" x2="826.6" y1="852"
      /><line y2="72" style="fill:none;" x1="837.36" x2="837.36" y1="852"
      /><line y2="72" style="fill:none;" x1="848.12" x2="848.12" y1="852"
      /><line y2="72" style="fill:none;" x1="858.88" x2="858.88" y1="852"
      /><line y2="72" style="fill:none;" x1="869.64" x2="869.64" y1="852"
      /><line y2="72" style="fill:none;" x1="880.4" x2="880.4" y1="852"
      /><line y2="72" style="fill:none;" x1="891.16" x2="891.16" y1="852"
      /><line y2="72" style="fill:none;" x1="901.92" x2="901.92" y1="852"
      /><line y2="72" style="fill:none;" x1="912.68" x2="912.68" y1="852"
      /><line y2="72" style="fill:none;" x1="923.44" x2="923.44" y1="852"
      /><line y2="72" style="fill:none;" x1="934.2" x2="934.2" y1="852"
      /><line y2="72" style="fill:none;" x1="944.96" x2="944.96" y1="852"
      /><line y2="72" style="fill:none;" x1="955.72" x2="955.72" y1="852"
      /><line y2="72" style="fill:none;" x1="966.48" x2="966.48" y1="852"
      /><line y2="72" style="fill:none;" x1="977.24" x2="977.24" y1="852"
      /><line y2="72" style="fill:none;" x1="988" x2="988" y1="852"
      /><line y2="72" style="fill:none;" x1="998.76" x2="998.76" y1="852"
      /><line y2="72" style="fill:none;" x1="1009.52" x2="1009.52" y1="852"
      /><line y2="72" style="fill:none;" x1="1020.28" x2="1020.28" y1="852"
      /><line y2="72" style="fill:none;" x1="1031.04" x2="1031.04" y1="852"
      /><line y2="72" style="fill:none;" x1="1041.8" x2="1041.8" y1="852"
      /><line y2="72" style="fill:none;" x1="1052.5601" x2="1052.5601" y1="852"
      /><line y2="72" style="fill:none;" x1="1063.3199" x2="1063.3199" y1="852"
      /><line y2="72" style="fill:none;" x1="1074.08" x2="1074.08" y1="852"
      /><line y2="72" style="fill:none;" x1="1084.84" x2="1084.84" y1="852"
      /><line y2="72" style="fill:none;" x1="1095.6" x2="1095.6" y1="852"
      /><line y2="72" style="fill:none;" x1="1106.36" x2="1106.36" y1="852"
      /><line y2="72" style="fill:none;" x1="1117.12" x2="1117.12" y1="852"
      /><line y2="72" style="fill:none;" x1="1127.88" x2="1127.88" y1="852"
      /><line y2="72" style="fill:none;" x1="1138.64" x2="1138.64" y1="852"
      /><line y2="72" style="fill:none;" x1="1149.4" x2="1149.4" y1="852"
      /><line y2="72" style="fill:none;" x1="1160.16" x2="1160.16" y1="852"
      /><line y2="72" style="fill:none;" x1="1170.92" x2="1170.92" y1="852"
      /><line y2="72" style="fill:none;" x1="1181.6801" x2="1181.6801" y1="852"
      /><line y2="72" style="fill:none;" x1="1192.4399" x2="1192.4399" y1="852"
      /><line y2="72" style="fill:none;" x1="1203.2" x2="1203.2" y1="852"
      /><line y2="72" style="fill:none;" x1="1213.96" x2="1213.96" y1="852"
      /><line y2="72" style="fill:none;" x1="1224.72" x2="1224.72" y1="852"
      /><line y2="72" style="fill:none;" x1="1235.48" x2="1235.48" y1="852"
      /><line y2="72" style="fill:none;" x1="1246.24" x2="1246.24" y1="852"
      /><line y2="72" style="fill:none;" x1="1257" x2="1257" y1="852"
      /><line y2="852" style="fill:none;" x1="1257" x2="181" y1="852"
      /><line y2="826" style="fill:none;" x1="1257" x2="181" y1="826"
      /><line y2="800" style="fill:none;" x1="1257" x2="181" y1="800"
      /><line y2="774" style="fill:none;" x1="1257" x2="181" y1="774"
      /><line y2="748" style="fill:none;" x1="1257" x2="181" y1="748"
      /><line y2="722" style="fill:none;" x1="1257" x2="181" y1="722"
      /><line y2="696" style="fill:none;" x1="1257" x2="181" y1="696"
      /><line y2="670" style="fill:none;" x1="1257" x2="181" y1="670"
      /><line y2="644" style="fill:none;" x1="1257" x2="181" y1="644"
      /><line y2="618" style="fill:none;" x1="1257" x2="181" y1="618"
      /><line y2="592" style="fill:none;" x1="1257" x2="181" y1="592"
      /><line y2="566" style="fill:none;" x1="1257" x2="181" y1="566"
      /><line y2="540" style="fill:none;" x1="1257" x2="181" y1="540"
      /><line y2="514" style="fill:none;" x1="1257" x2="181" y1="514"
      /><line y2="488" style="fill:none;" x1="1257" x2="181" y1="488"
      /><line y2="462" style="fill:none;" x1="1257" x2="181" y1="462"
      /><line y2="436" style="fill:none;" x1="1257" x2="181" y1="436"
      /><line y2="410" style="fill:none;" x1="1257" x2="181" y1="410"
      /><line y2="384" style="fill:none;" x1="1257" x2="181" y1="384"
      /><line y2="358" style="fill:none;" x1="1257" x2="181" y1="358"
      /><line y2="332" style="fill:none;" x1="1257" x2="181" y1="332"
      /><line y2="306" style="fill:none;" x1="1257" x2="181" y1="306"
      /><line y2="280" style="fill:none;" x1="1257" x2="181" y1="280"
      /><line y2="254" style="fill:none;" x1="1257" x2="181" y1="254"
      /><line y2="228" style="fill:none;" x1="1257" x2="181" y1="228"
      /><line y2="202" style="fill:none;" x1="1257" x2="181" y1="202"
      /><line y2="176" style="fill:none;" x1="1257" x2="181" y1="176"
      /><line y2="150" style="fill:none;" x1="1257" x2="181" y1="150"
      /><line y2="124" style="fill:none;" x1="1257" x2="181" y1="124"
      /><line y2="98" style="fill:none;" x1="1257" x2="181" y1="98"
      /><line y2="72" style="fill:none;" x1="1257" x2="181" y1="72"
    /></g
    ><g style="fill:rgb(38,38,38); text-rendering:geometricPrecision; image-rendering:optimizeQuality; color-rendering:optimizeQuality; stroke-linejoin:round; stroke:rgb(38,38,38); color-interpolation:linearRGB; stroke-width:0.8333;"
    ><line y2="852" style="fill:none;" x1="181" x2="1257" y1="852"
      /><line y2="72" style="fill:none;" x1="181" x2="1257" y1="72"
      /><line y2="841.24" style="fill:none;" x1="181" x2="181" y1="852"
      /><line y2="841.24" style="fill:none;" x1="234.8" x2="234.8" y1="852"
      /><line y2="841.24" style="fill:none;" x1="288.6" x2="288.6" y1="852"
      /><line y2="841.24" style="fill:none;" x1="342.4" x2="342.4" y1="852"
      /><line y2="841.24" style="fill:none;" x1="396.2" x2="396.2" y1="852"
      /><line y2="841.24" style="fill:none;" x1="450" x2="450" y1="852"
      /><line y2="841.24" style="fill:none;" x1="503.8" x2="503.8" y1="852"
      /><line y2="841.24" style="fill:none;" x1="557.6" x2="557.6" y1="852"
      /><line y2="841.24" style="fill:none;" x1="611.4" x2="611.4" y1="852"
      /><line y2="841.24" style="fill:none;" x1="665.2" x2="665.2" y1="852"
      /><line y2="841.24" style="fill:none;" x1="719" x2="719" y1="852"
      /><line y2="841.24" style="fill:none;" x1="772.8" x2="772.8" y1="852"
      /><line y2="841.24" style="fill:none;" x1="826.6" x2="826.6" y1="852"
      /><line y2="841.24" style="fill:none;" x1="880.4" x2="880.4" y1="852"
      /><line y2="841.24" style="fill:none;" x1="934.2" x2="934.2" y1="852"
      /><line y2="841.24" style="fill:none;" x1="988" x2="988" y1="852"
      /><line y2="841.24" style="fill:none;" x1="1041.8" x2="1041.8" y1="852"
      /><line y2="841.24" style="fill:none;" x1="1095.6" x2="1095.6" y1="852"
      /><line y2="841.24" style="fill:none;" x1="1149.4" x2="1149.4" y1="852"
      /><line y2="841.24" style="fill:none;" x1="1203.2" x2="1203.2" y1="852"
      /><line y2="841.24" style="fill:none;" x1="1257" x2="1257" y1="852"
      /><line y2="82.76" style="fill:none;" x1="181" x2="181" y1="72"
      /><line y2="82.76" style="fill:none;" x1="234.8" x2="234.8" y1="72"
      /><line y2="82.76" style="fill:none;" x1="288.6" x2="288.6" y1="72"
      /><line y2="82.76" style="fill:none;" x1="342.4" x2="342.4" y1="72"
      /><line y2="82.76" style="fill:none;" x1="396.2" x2="396.2" y1="72"
      /><line y2="82.76" style="fill:none;" x1="450" x2="450" y1="72"
      /><line y2="82.76" style="fill:none;" x1="503.8" x2="503.8" y1="72"
      /><line y2="82.76" style="fill:none;" x1="557.6" x2="557.6" y1="72"
      /><line y2="82.76" style="fill:none;" x1="611.4" x2="611.4" y1="72"
      /><line y2="82.76" style="fill:none;" x1="665.2" x2="665.2" y1="72"
      /><line y2="82.76" style="fill:none;" x1="719" x2="719" y1="72"
      /><line y2="82.76" style="fill:none;" x1="772.8" x2="772.8" y1="72"
      /><line y2="82.76" style="fill:none;" x1="826.6" x2="826.6" y1="72"
      /><line y2="82.76" style="fill:none;" x1="880.4" x2="880.4" y1="72"
      /><line y2="82.76" style="fill:none;" x1="934.2" x2="934.2" y1="72"
      /><line y2="82.76" style="fill:none;" x1="988" x2="988" y1="72"
      /><line y2="82.76" style="fill:none;" x1="1041.8" x2="1041.8" y1="72"
      /><line y2="82.76" style="fill:none;" x1="1095.6" x2="1095.6" y1="72"
      /><line y2="82.76" style="fill:none;" x1="1149.4" x2="1149.4" y1="72"
      /><line y2="82.76" style="fill:none;" x1="1203.2" x2="1203.2" y1="72"
      /><line y2="82.76" style="fill:none;" x1="1257" x2="1257" y1="72"
    /></g
    ><g transform="translate(181,858.6667)" style="font-size:16.6667px; fill:rgb(38,38,38); text-rendering:geometricPrecision; color-rendering:optimizeQuality; image-rendering:optimizeQuality; stroke:rgb(38,38,38); color-interpolation:linearRGB;"
    ><text x="-5" xml:space="preserve" y="17" style="stroke:none;"
      >0</text
    ></g
    ><g transform="translate(234.8,858.6667)" style="font-size:16.6667px; fill:rgb(38,38,38); text-rendering:geometricPrecision; color-rendering:optimizeQuality; image-rendering:optimizeQuality; stroke:rgb(38,38,38); color-interpolation:linearRGB;"
    ><text x="-9.5" xml:space="preserve" y="17" style="stroke:none;"
      >10</text
    ></g
    ><g transform="translate(288.6,858.6667)" style="font-size:16.6667px; fill:rgb(38,38,38); text-rendering:geometricPrecision; color-rendering:optimizeQuality; image-rendering:optimizeQuality; stroke:rgb(38,38,38); color-interpolation:linearRGB;"
    ><text x="-9.5" xml:space="preserve" y="17" style="stroke:none;"
      >20</text
    ></g
    ><g transform="translate(342.4,858.6667)" style="font-size:16.6667px; fill:rgb(38,38,38); text-rendering:geometricPrecision; color-rendering:optimizeQuality; image-rendering:optimizeQuality; stroke:rgb(38,38,38); color-interpolation:linearRGB;"
    ><text x="-9.5" xml:space="preserve" y="17" style="stroke:none;"
      >30</text
    ></g
    ><g transform="translate(396.2,858.6667)" style="font-size:16.6667px; fill:rgb(38,38,38); text-rendering:geometricPrecision; color-rendering:optimizeQuality; image-rendering:optimizeQuality; stroke:rgb(38,38,38); color-interpolation:linearRGB;"
    ><text x="-9.5" xml:space="preserve" y="17" style="stroke:none;"
      >40</text
    ></g
    ><g transform="translate(450,858.6667)" style="font-size:16.6667px; fill:rgb(38,38,38); text-rendering:geometricPrecision; color-rendering:optimizeQuality; image-rendering:optimizeQuality; stroke:rgb(38,38,38); color-interpolation:linearRGB;"
    ><text x="-9.5" xml:space="preserve" y="17" style="stroke:none;"
      >50</text
    ></g
    ><g transform="translate(503.8,858.6667)" style="font-size:16.6667px; fill:rgb(38,38,38); text-rendering:geometricPrecision; color-rendering:optimizeQuality; image-rendering:optimizeQuality; stroke:rgb(38,38,38); color-interpolation:linearRGB;"
    ><text x="-9.5" xml:space="preserve" y="17" style="stroke:none;"
      >60</text
    ></g
    ><g transform="translate(557.6,858.6667)" style="font-size:16.6667px; fill:rgb(38,38,38); text-rendering:geometricPrecision; color-rendering:optimizeQuality; image-rendering:optimizeQuality; stroke:rgb(38,38,38); color-interpolation:linearRGB;"
    ><text x="-9.5" xml:space="preserve" y="17" style="stroke:none;"
      >70</text
    ></g
    ><g transform="translate(611.4,858.6667)" style="font-size:16.6667px; fill:rgb(38,38,38); text-rendering:geometricPrecision; color-rendering:optimizeQuality; image-rendering:optimizeQuality; stroke:rgb(38,38,38); color-interpolation:linearRGB;"
    ><text x="-9.5" xml:space="preserve" y="17" style="stroke:none;"
      >80</text
    ></g
    ><g transform="translate(665.2,858.6667)" style="font-size:16.6667px; fill:rgb(38,38,38); text-rendering:geometricPrecision; color-rendering:optimizeQuality; image-rendering:optimizeQuality; stroke:rgb(38,38,38); color-interpolation:linearRGB;"
    ><text x="-9.5" xml:space="preserve" y="17" style="stroke:none;"
      >90</text
    ></g
    ><g transform="translate(719,858.6667)" style="font-size:16.6667px; fill:rgb(38,38,38); text-rendering:geometricPrecision; color-rendering:optimizeQuality; image-rendering:optimizeQuality; stroke:rgb(38,38,38); color-interpolation:linearRGB;"
    ><text x="-14" xml:space="preserve" y="17" style="stroke:none;"
      >100</text
    ></g
    ><g transform="translate(772.8,858.6667)" style="font-size:16.6667px; fill:rgb(38,38,38); text-rendering:geometricPrecision; color-rendering:optimizeQuality; image-rendering:optimizeQuality; stroke:rgb(38,38,38); color-interpolation:linearRGB;"
    ><text x="-14" xml:space="preserve" y="17" style="stroke:none;"
      >110</text
    ></g
    ><g transform="translate(826.6,858.6667)" style="font-size:16.6667px; fill:rgb(38,38,38); text-rendering:geometricPrecision; color-rendering:optimizeQuality; image-rendering:optimizeQuality; stroke:rgb(38,38,38); color-interpolation:linearRGB;"
    ><text x="-14" xml:space="preserve" y="17" style="stroke:none;"
      >120</text
    ></g
    ><g transform="translate(880.4,858.6667)" style="font-size:16.6667px; fill:rgb(38,38,38); text-rendering:geometricPrecision; color-rendering:optimizeQuality; image-rendering:optimizeQuality; stroke:rgb(38,38,38); color-interpolation:linearRGB;"
    ><text x="-14" xml:space="preserve" y="17" style="stroke:none;"
      >130</text
    ></g
    ><g transform="translate(934.2,858.6667)" style="font-size:16.6667px; fill:rgb(38,38,38); text-rendering:geometricPrecision; color-rendering:optimizeQuality; image-rendering:optimizeQuality; stroke:rgb(38,38,38); color-interpolation:linearRGB;"
    ><text x="-14" xml:space="preserve" y="17" style="stroke:none;"
      >140</text
    ></g
    ><g transform="translate(988,858.6667)" style="font-size:16.6667px; fill:rgb(38,38,38); text-rendering:geometricPrecision; color-rendering:optimizeQuality; image-rendering:optimizeQuality; stroke:rgb(38,38,38); color-interpolation:linearRGB;"
    ><text x="-14" xml:space="preserve" y="17" style="stroke:none;"
      >150</text
    ></g
    ><g transform="translate(1041.8,858.6667)" style="font-size:16.6667px; fill:rgb(38,38,38); text-rendering:geometricPrecision; color-rendering:optimizeQuality; image-rendering:optimizeQuality; stroke:rgb(38,38,38); color-interpolation:linearRGB;"
    ><text x="-14" xml:space="preserve" y="17" style="stroke:none;"
      >160</text
    ></g
    ><g transform="translate(1095.6,858.6667)" style="font-size:16.6667px; fill:rgb(38,38,38); text-rendering:geometricPrecision; color-rendering:optimizeQuality; image-rendering:optimizeQuality; stroke:rgb(38,38,38); color-interpolation:linearRGB;"
    ><text x="-14" xml:space="preserve" y="17" style="stroke:none;"
      >170</text
    ></g
    ><g transform="translate(1149.4,858.6667)" style="font-size:16.6667px; fill:rgb(38,38,38); text-rendering:geometricPrecision; color-rendering:optimizeQuality; image-rendering:optimizeQuality; stroke:rgb(38,38,38); color-interpolation:linearRGB;"
    ><text x="-14" xml:space="preserve" y="17" style="stroke:none;"
      >180</text
    ></g
    ><g transform="translate(1203.2,858.6667)" style="font-size:16.6667px; fill:rgb(38,38,38); text-rendering:geometricPrecision; color-rendering:optimizeQuality; image-rendering:optimizeQuality; stroke:rgb(38,38,38); color-interpolation:linearRGB;"
    ><text x="-14" xml:space="preserve" y="17" style="stroke:none;"
      >190</text
    ></g
    ><g transform="translate(1257,858.6667)" style="font-size:16.6667px; fill:rgb(38,38,38); text-rendering:geometricPrecision; color-rendering:optimizeQuality; image-rendering:optimizeQuality; stroke:rgb(38,38,38); color-interpolation:linearRGB;"
    ><text x="-14" xml:space="preserve" y="17" style="stroke:none;"
      >200</text
    ></g
    ><g transform="translate(719.0005,881.3333)" style="font-size:18.3333px; fill:rgb(38,38,38); text-rendering:geometricPrecision; color-rendering:optimizeQuality; image-rendering:optimizeQuality; stroke:rgb(38,38,38); color-interpolation:linearRGB;"
    ><text x="-69.5" xml:space="preserve" y="19" style="stroke:none;"
      >Frequencies [Hz]</text
    ></g
    ><g style="fill:rgb(38,38,38); text-rendering:geometricPrecision; image-rendering:optimizeQuality; color-rendering:optimizeQuality; stroke-linejoin:round; stroke:rgb(38,38,38); color-interpolation:linearRGB; stroke-width:0.8333;"
    ><line y2="72" style="fill:none;" x1="181" x2="181" y1="852"
      /><line y2="72" style="fill:none;" x1="1257" x2="1257" y1="852"
      /><line y2="852" style="fill:none;" x1="181" x2="191.76" y1="852"
      /><line y2="722" style="fill:none;" x1="181" x2="191.76" y1="722"
      /><line y2="592" style="fill:none;" x1="181" x2="191.76" y1="592"
      /><line y2="462" style="fill:none;" x1="181" x2="191.76" y1="462"
      /><line y2="332" style="fill:none;" x1="181" x2="191.76" y1="332"
      /><line y2="202" style="fill:none;" x1="181" x2="191.76" y1="202"
      /><line y2="72" style="fill:none;" x1="181" x2="191.76" y1="72"
      /><line y2="852" style="fill:none;" x1="1257" x2="1246.24" y1="852"
      /><line y2="722" style="fill:none;" x1="1257" x2="1246.24" y1="722"
      /><line y2="592" style="fill:none;" x1="1257" x2="1246.24" y1="592"
      /><line y2="462" style="fill:none;" x1="1257" x2="1246.24" y1="462"
      /><line y2="332" style="fill:none;" x1="1257" x2="1246.24" y1="332"
      /><line y2="202" style="fill:none;" x1="1257" x2="1246.24" y1="202"
      /><line y2="72" style="fill:none;" x1="1257" x2="1246.24" y1="72"
    /></g
    ><g transform="translate(174.3333,852)" style="font-size:16.6667px; fill:rgb(38,38,38); text-rendering:geometricPrecision; color-rendering:optimizeQuality; image-rendering:optimizeQuality; stroke:rgb(38,38,38); color-interpolation:linearRGB;"
    ><text x="-10" xml:space="preserve" y="6.5" style="stroke:none;"
      >0</text
    ></g
    ><g transform="translate(174.3333,722)" style="font-size:16.6667px; fill:rgb(38,38,38); text-rendering:geometricPrecision; color-rendering:optimizeQuality; image-rendering:optimizeQuality; stroke:rgb(38,38,38); color-interpolation:linearRGB;"
    ><text x="-24" xml:space="preserve" y="6.5" style="stroke:none;"
      >0.5</text
    ></g
    ><g transform="translate(174.3333,592)" style="font-size:16.6667px; fill:rgb(38,38,38); text-rendering:geometricPrecision; color-rendering:optimizeQuality; image-rendering:optimizeQuality; stroke:rgb(38,38,38); color-interpolation:linearRGB;"
    ><text x="-10" xml:space="preserve" y="6.5" style="stroke:none;"
      >1</text
    ></g
    ><g transform="translate(174.3333,462)" style="font-size:16.6667px; fill:rgb(38,38,38); text-rendering:geometricPrecision; color-rendering:optimizeQuality; image-rendering:optimizeQuality; stroke:rgb(38,38,38); color-interpolation:linearRGB;"
    ><text x="-24" xml:space="preserve" y="6.5" style="stroke:none;"
      >1.5</text
    ></g
    ><g transform="translate(174.3333,332)" style="font-size:16.6667px; fill:rgb(38,38,38); text-rendering:geometricPrecision; color-rendering:optimizeQuality; image-rendering:optimizeQuality; stroke:rgb(38,38,38); color-interpolation:linearRGB;"
    ><text x="-10" xml:space="preserve" y="6.5" style="stroke:none;"
      >2</text
    ></g
    ><g transform="translate(174.3333,202)" style="font-size:16.6667px; fill:rgb(38,38,38); text-rendering:geometricPrecision; color-rendering:optimizeQuality; image-rendering:optimizeQuality; stroke:rgb(38,38,38); color-interpolation:linearRGB;"
    ><text x="-24" xml:space="preserve" y="6.5" style="stroke:none;"
      >2.5</text
    ></g
    ><g transform="translate(174.3333,72)" style="font-size:16.6667px; fill:rgb(38,38,38); text-rendering:geometricPrecision; color-rendering:optimizeQuality; image-rendering:optimizeQuality; stroke:rgb(38,38,38); color-interpolation:linearRGB;"
    ><text x="-10" xml:space="preserve" y="6.5" style="stroke:none;"
      >3</text
    ></g
    ><g transform="translate(181,68)" style="font-size:16.6667px; fill:rgb(38,38,38); text-rendering:geometricPrecision; image-rendering:optimizeQuality; color-rendering:optimizeQuality; font-family:'mwb_cmsy10'; stroke:rgb(38,38,38); color-interpolation:linearRGB;"
    ><text x="0" xml:space="preserve" y="0" style="stroke:none;"
      >#</text
    ></g
    ><g transform="translate(194,68)" style="font-size:16.6667px; fill:rgb(38,38,38); text-rendering:geometricPrecision; color-rendering:optimizeQuality; image-rendering:optimizeQuality; stroke:rgb(38,38,38); color-interpolation:linearRGB;"
    ><text x="0" xml:space="preserve" y="0" style="stroke:none;"
      >10</text
    ></g
    ><g transform="translate(213,60)" style="font-size:13.3333px; fill:rgb(38,38,38); text-rendering:geometricPrecision; color-rendering:optimizeQuality; image-rendering:optimizeQuality; stroke:rgb(38,38,38); color-interpolation:linearRGB;"
    ><text x="0" xml:space="preserve" y="0" style="stroke:none;"
      >6</text
    ></g
    ><g transform="translate(719.0007,69.25)" style="font-size:18.3333px; text-rendering:geometricPrecision; color-rendering:optimizeQuality; image-rendering:optimizeQuality; color-interpolation:linearRGB; font-weight:bold;"
    ><text x="-261.5" xml:space="preserve" y="-5" style="stroke:none;"
      >Average power divived by maximum appearance probability</text
    ></g
    ><g style="stroke-linecap:butt; fill:rgb(0,114,189); text-rendering:geometricPrecision; image-rendering:optimizeQuality; color-rendering:optimizeQuality; stroke-linejoin:round; stroke:rgb(0,114,189); color-interpolation:linearRGB; stroke-width:3.3333;"
    ><path d="M181 202.1216 L186.38 134.1209 L191.76 145.6798 L197.14 464.4832 L202.52 653.6915 L207.9 707.468 L213.28 744.2524 L218.66 779.5236 L224.04 798.648 L229.42 802.732 L234.8 806.3845 L240.18 811.9849 L245.56 808.078 L250.94 805.4409 L256.32 808.4599 L261.7 809.0884 L267.08 808.9381 L272.46 810.6833 L277.84 812.3693 L283.22 817.1904 L288.6 819.3925 L293.98 812.4814 L299.36 800.9111 L304.74 788.8766 L310.12 794.3466 L315.5 811.1232 L320.88 810.7607 L326.26 810.0999 L331.64 828.6606 L337.02 834.9769 L342.4 834.1942 L347.78 839.4315 L353.16 844.8593 L358.54 846.563 L363.92 847.1804 L369.3 847.2737 L374.68 846.7528 L380.06 845.5077 L385.44 843.5221 L390.82 842.4777 L396.2 844.3487 L401.58 846.6981 L406.96 848.244 L412.34 849.102 L417.72 849.5898 L423.1 850.1121 L428.48 850.5606 L433.86 850.6716 L439.24 850.7536 L444.62 851.0789 L450 851.4309 L455.38 851.623 L460.76 851.6917 L466.14 851.7285 L471.52 851.7872 L476.9 851.8468 L482.28 851.89 L487.66 851.9214 L493.04 851.9394 L498.42 851.9473 L503.8 851.9513 L509.18 851.9535 L514.56 851.9535 L519.94 851.9566 L525.32 851.9651 L530.7 851.9727 L536.08 851.9753 L541.46 851.972 L546.84 851.9675 L552.22 851.9677 L557.6 851.9687 L562.98 851.9703 L568.36 851.9744 L573.74 851.9794 L579.12 851.9809 L584.5 851.9791 L589.88 851.9774 L595.26 851.978 L600.64 851.9788 L606.02 851.9775 L611.4 851.9754 L616.78 851.9775 L622.16 851.983 L627.54 851.9861 L632.92 851.9871 L638.3 851.9871 L643.68 851.9875 L649.06 851.9887 L654.44 851.9894 L659.82 851.9883 L665.2 851.9857 L670.58 851.9866 L675.96 851.9904 L681.34 851.9919 L686.72 851.9926 L692.1 851.9927 L697.48 851.9925 L702.86 851.9922 L708.24 851.9924 L713.62 851.9926 L719 851.9934 L724.38 851.9937 L729.76 851.9925 L735.14 851.9905 L740.52 851.9913 L745.9 851.9932 L751.28 851.9937 L756.66 851.9933 L762.04 851.9927 L767.42 851.9933 L772.8 851.9938 L778.18 851.9935 L783.56 851.9925 L788.94 851.9915 L794.32 851.991 L799.7 851.991 L805.08 851.9886 L810.46 851.988 L815.84 851.9902 L821.22 851.9914 L826.6 851.991 L831.98 851.9905 L837.36 851.9903 L842.74 851.9902 L848.12 851.9901 L853.5 851.9903 L858.88 851.9905 L864.26 851.99 L869.64 851.9896 L875.02 851.9896 L880.4 851.9898 L885.78 851.9904 L891.16 851.9913 L896.54 851.9924 L901.92 851.9932 L907.3 851.9934 L912.68 851.9935 L918.06 851.9936 L923.44 851.9935 L928.82 851.9933 L934.2 851.9935 L939.58 851.9935 L944.96 851.9933 L950.34 851.9935 L955.72 851.994 L961.1 851.9945 L966.48 851.995 L971.86 851.9951 L977.24 851.9951 L982.62 851.9951 L988 851.9951 L993.38 851.9956 L998.76 851.9962 L1004.14 851.9964 L1009.52 851.9964 L1014.9 851.9965 L1020.28 851.9966 L1025.66 851.997 L1031.04 851.9974 L1036.42 851.9976 L1041.8 851.9976 L1047.1801 851.9977 L1052.5601 851.9978 L1057.9399 851.9979 L1063.3199 851.998 L1068.7 851.9982 L1074.08 851.9982 L1079.46 851.9982 L1084.84 851.9983 L1090.22 851.9985 L1095.6 851.9988 L1100.98 851.9988 L1106.36 851.9989 L1111.74 851.999 L1117.12 851.999 L1122.5 851.9989 L1127.88 851.999 L1133.26 851.9991 L1138.64 851.9992 L1144.02 851.9992 L1149.4 851.9991 L1154.78 851.9991 L1160.16 851.9991 L1165.54 851.999 L1170.92 851.9989 L1176.3 851.9989 L1181.6801 851.999 L1187.0601 851.9991 L1192.4399 851.999 L1197.8199 851.999 L1203.2 851.999 L1208.58 851.9991 L1213.96 851.9991 L1219.34 851.9988 L1224.72 851.9989 L1230.1 851.999 L1235.48 851.999 L1240.86 851.9989 L1246.24 851.9987 L1251.62 851.9987 L1257 851.9987" style="fill:none; fill-rule:evenodd;"
    /></g
    ><g transform="translate(186.38,134.1209)" style="stroke-linecap:butt; fill:red; text-rendering:geometricPrecision; color-rendering:optimizeQuality; image-rendering:optimizeQuality; color-interpolation:linearRGB; stroke:red;"
    ><path style="fill:none;" d="M0 -5 L0 5 M-5 0 L5 0 M-3.5355 -3.5355 L3.5355 3.5355 M-3.5355 3.5355 L3.5355 -3.5355"
      /><path d="M0 -5 L0 5 M-5 0 L5 0 M-3.5355 -3.5355 L3.5355 3.5355 M-3.5355 3.5355 L3.5355 -3.5355" style="fill:none;" transform="translate(64.56,671.32)"
      /><path d="M0 -5 L0 5 M-5 0 L5 0 M-3.5355 -3.5355 L3.5355 3.5355 M-3.5355 3.5355 L3.5355 -3.5355" style="fill:none;" transform="translate(118.36,654.7558)"
      /><path d="M0 -5 L0 5 M-5 0 L5 0 M-3.5355 -3.5355 L3.5355 3.5355 M-3.5355 3.5355 L3.5355 -3.5355" style="fill:none;" transform="translate(156.02,700.0733)"
      /><path d="M0 -5 L0 5 M-5 0 L5 0 M-3.5355 -3.5355 L3.5355 3.5355 M-3.5355 3.5355 L3.5355 -3.5355" style="fill:none;" transform="translate(204.44,708.3568)"
    /></g
    ><g style="stroke-linecap:butt; text-rendering:geometricPrecision; color-rendering:optimizeQuality; image-rendering:optimizeQuality; stroke-linejoin:round; color-interpolation:linearRGB; stroke-width:0.8333;"
    ><line y2="135.7433" style="fill:none;" x1="517.5761" x2="196.6264" y1="191.4"
    /></g
    ><g transform="translate(559.2428,191.4)" style="text-rendering:geometricPrecision; font-size:16.6667px; color-interpolation:linearRGB; color-rendering:optimizeQuality; image-rendering:optimizeQuality;"
    ><text x="-35" xml:space="preserve" y="6.5" style="stroke:none;"
      >1 Hz</text
    ></g
    ><g style="stroke-linecap:butt; text-rendering:geometricPrecision; color-rendering:optimizeQuality; image-rendering:optimizeQuality; stroke-linejoin:round; color-interpolation:linearRGB; stroke-width:0.8333;"
    ><path d="M201.3061 142.8981 L185.9524 133.8923 L196.6264 135.7433 L201.3061 142.8981" style="fill:none; fill-rule:evenodd;"
      /><path d="M185.9524 133.8923 L203.4418 130.5819 L196.6264 135.7433 L185.9524 133.8923" style="fill:none; fill-rule:evenodd;"
    /></g
    ><g style="text-rendering:optimizeSpeed; shape-rendering:crispEdges; color-interpolation:sRGB; color-rendering:optimizeSpeed; image-rendering:optimizeSpeed;"
    ><path style="stroke:none;" d="M185.9524 133.8923 L201.3061 142.8981 L196.6264 135.7433 L203.4418 130.5819 Z"
    /></g
    ><g style="stroke-linecap:butt; text-rendering:geometricPrecision; color-rendering:optimizeQuality; image-rendering:optimizeQuality; stroke-linejoin:round; color-interpolation:linearRGB; stroke-width:0.8333;"
    ><line y2="794.7662" style="fill:none;" x1="304.3646" x2="253.5488" y1="618.9479"
    /></g
    ><g transform="translate(329.698,618.9479)" style="text-rendering:geometricPrecision; font-size:16.6667px; color-interpolation:linearRGB; color-rendering:optimizeQuality; image-rendering:optimizeQuality;"
    ><text x="-44" xml:space="preserve" y="-4" style="stroke:none;"
      >13 Hz</text
    ></g
    ><g style="stroke-linecap:butt; text-rendering:geometricPrecision; color-rendering:optimizeQuality; image-rendering:optimizeQuality; stroke-linejoin:round; color-interpolation:linearRGB; stroke-width:0.8333;"
    ><path d="M261.1728 790.8976 L250.5409 805.1736 L253.5488 794.7662 L261.1728 790.8976" style="fill:none; fill-rule:evenodd;"
      /><path d="M250.5409 805.1736 L249.1643 787.4269 L253.5488 794.7662 L250.5409 805.1736" style="fill:none; fill-rule:evenodd;"
    /></g
    ><g style="text-rendering:optimizeSpeed; shape-rendering:crispEdges; color-interpolation:sRGB; color-rendering:optimizeSpeed; image-rendering:optimizeSpeed;"
    ><path style="stroke:none;" d="M250.5409 805.1736 L261.1728 790.8976 L253.5488 794.7662 L249.1643 787.4269 Z"
    /></g
    ><g style="stroke-linecap:butt; text-rendering:geometricPrecision; color-rendering:optimizeQuality; image-rendering:optimizeQuality; stroke-linejoin:round; color-interpolation:linearRGB; stroke-width:0.8333;"
    ><line y2="778.015" style="fill:none;" x1="358.1884" x2="306.6233" y1="536.1313"
    /></g
    ><g transform="translate(383.5217,536.1313)" style="text-rendering:geometricPrecision; font-size:16.6667px; color-interpolation:linearRGB; color-rendering:optimizeQuality; image-rendering:optimizeQuality;"
    ><text x="-44" xml:space="preserve" y="-4" style="stroke:none;"
      >23 Hz</text
    ></g
    ><g style="stroke-linecap:butt; text-rendering:geometricPrecision; color-rendering:optimizeQuality; image-rendering:optimizeQuality; stroke-linejoin:round; color-interpolation:linearRGB; stroke-width:0.8333;"
    ><path d="M313.9522 773.613 L304.3646 788.6103 L306.6233 778.015 L313.9522 773.613" style="fill:none; fill-rule:evenodd;"
      /><path d="M304.3646 788.6103 L301.7269 771.0068 L306.6233 778.015 L304.3646 788.6103" style="fill:none; fill-rule:evenodd;"
    /></g
    ><g style="text-rendering:optimizeSpeed; shape-rendering:crispEdges; color-interpolation:sRGB; color-rendering:optimizeSpeed; image-rendering:optimizeSpeed;"
    ><path style="stroke:none;" d="M304.3646 788.6103 L313.9522 773.613 L306.6233 778.015 L301.7269 771.0068 Z"
    /></g
    ><g style="stroke-linecap:butt; text-rendering:geometricPrecision; color-rendering:optimizeQuality; image-rendering:optimizeQuality; stroke-linejoin:round; color-interpolation:linearRGB; stroke-width:0.8333;"
    ><line y2="825.2825" style="fill:none;" x1="395.865" x2="348.573" y1="762.7063"
    /></g
    ><g transform="translate(446.5317,762.7063)" style="text-rendering:geometricPrecision; font-size:16.6667px; color-interpolation:linearRGB; color-rendering:optimizeQuality; image-rendering:optimizeQuality;"
    ><text x="-44" xml:space="preserve" y="-4" style="stroke:none;"
      >30 Hz</text
    ></g
    ><g style="stroke-linecap:butt; text-rendering:geometricPrecision; color-rendering:optimizeQuality; image-rendering:optimizeQuality; stroke-linejoin:round; color-interpolation:linearRGB; stroke-width:0.8333;"
    ><path d="M357.0763 824.397 L342.0413 833.9253 L348.573 825.2825 L357.0763 824.397" style="fill:none; fill-rule:evenodd;"
      /><path d="M342.0413 833.9253 L347.1039 816.8604 L348.573 825.2825 L342.0413 833.9253" style="fill:none; fill-rule:evenodd;"
    /></g
    ><g style="text-rendering:optimizeSpeed; shape-rendering:crispEdges; color-interpolation:sRGB; color-rendering:optimizeSpeed; image-rendering:optimizeSpeed;"
    ><path style="stroke:none;" d="M342.0413 833.9253 L357.0763 824.397 L348.573 825.2825 L347.1039 816.8604 Z"
    /></g
    ><g style="stroke-linecap:butt; text-rendering:geometricPrecision; color-rendering:optimizeQuality; image-rendering:optimizeQuality; stroke-linejoin:round; color-interpolation:linearRGB; stroke-width:0.8333;"
    ><line y2="831.6611" style="fill:none;" x1="444.3064" x2="392.9564" y1="612.7211"
    /></g
    ><g transform="translate(469.6397,612.7211)" style="text-rendering:geometricPrecision; font-size:16.6667px; color-interpolation:linearRGB; color-rendering:optimizeQuality; image-rendering:optimizeQuality;"
    ><text x="-44" xml:space="preserve" y="-4" style="stroke:none;"
      >39 Hz</text
    ></g
    ><g style="stroke-linecap:butt; text-rendering:geometricPrecision; color-rendering:optimizeQuality; image-rendering:optimizeQuality; stroke-linejoin:round; color-interpolation:linearRGB; stroke-width:0.8333;"
    ><path d="M400.3732 827.4091 L390.4826 842.2083 L392.9564 831.6611 L400.3732 827.4091" style="fill:none; fill-rule:evenodd;"
      /><path d="M390.4826 842.2083 L388.2035 824.5547 L392.9564 831.6611 L390.4826 842.2083" style="fill:none; fill-rule:evenodd;"
    /></g
    ><g style="text-rendering:optimizeSpeed; shape-rendering:crispEdges; color-interpolation:sRGB; color-rendering:optimizeSpeed; image-rendering:optimizeSpeed;"
    ><path style="stroke:none;" d="M390.4826 842.2083 L400.3732 827.4091 L392.9564 831.6611 L388.2035 824.5547 Z"
    /></g
  ></g
></svg
>
